___aldiv@counter 20 0 BANK0
_RD C60 0 ABS
_WR C61 0 ABS
__S0 2008 0 ABS
__S1 7E 0 ABS
__S2 0 0 ABS
_GIE 5F 0 ABS
__Hintentry 0 0 CODE
__Lintentry 0 0 CODE
_WREN C62 0 ABS
_main 5D4 0 CODE
??_PIDcal 28 0 BANK0
btemp 7E 0 ABS
_exit 0 0 CODE
start 0 0 CODE
__end_of___aldiv 5D4 0 CODE
reset_vec 0 0 CODE
_EEADR 10D 0 ABS
wtemp0 7E 0 ABS
_CARRY 18 0 ABS
__Hconfig 2008 0 CONFIG
__Lconfig 2007 0 CONFIG
__Hram 0 0 ABS
__Lram 0 0 ABS
?_main 70 0 COMMON
__Hfunctab 0 0 CODE
__Lfunctab 0 0 CODE
_EECON1 18C 0 ABS
_EECON2 18D 0 ABS
??___lmul 78 0 COMMON
__Hcommon 0 0 ABS
__Lcommon 0 0 ABS
__Heeprom_data 0 0 EEDATA
__Leeprom_data 0 0 EEDATA
PIDcal@derivative 30 0 BANK0
?___aldiv 70 0 COMMON
_EEDATA 10C 0 ABS
main@actual_position 42 0 BANK0
__Habs1 0 0 ABS
__Labs1 0 0 ABS
__Hsfr0 0 0 ABS
__Lsfr0 0 0 ABS
__Hsfr1 0 0 ABS
__Lsfr1 0 0 ABS
__Hsfr2 0 0 ABS
__Lsfr2 0 0 ABS
__Hsfr3 0 0 ABS
__Lsfr3 0 0 ABS
__ptext120 4E2 0 CODE
__ptext121 0 0 CODE
_toms_variable 7D 0 COMMON
_PIDcal 68D 0 CODE
__Hcode 0 0 ABS
__Lcode 0 0 ABS
??_main 3D 0 BANK0
__HcstackBANK0 0 0 ABS
__LcstackBANK0 0 0 ABS
__pcstackBANK0 20 0 BANK0
__ptext117 0 0 CODE
___lmul 4E2 0 CODE
__Hinit 0 0 CODE
__Linit 0 0 CODE
__end_of_main 68D 0 CODE
__Htext 0 0 ABS
__Ltext 0 0 ABS
__ptext118 68D 0 CODE
___lmul@multiplier 70 0 COMMON
__ptext119 52C 0 CODE
end_of_initialization 4DE 0 CODE
___aldiv@sign 21 0 BANK0
___lmul@multiplicand 74 0 COMMON
main@setpoint 41 0 BANK0
PIDcal@setpoint 34 0 BANK0
??___aldiv 78 0 COMMON
__Hstrings 0 0 ABS
__Lstrings 0 0 ABS
__Hbank0 0 0 ABS
__Lbank0 0 0 ABS
__Hbank1 0 0 ABS
__Lbank1 0 0 ABS
__Hbank2 0 0 ABS
__Lbank2 0 0 ABS
__Hbank3 0 0 ABS
__Lbank3 0 0 ABS
__end_of___lmul 52C 0 CODE
__Hpowerup 0 0 CODE
__Lpowerup 0 0 CODE
__Hclrtext 0 0 ABS
__Lclrtext 0 0 ABS
?_PIDcal 26 0 BANK0
__size_of_PIDcal 0 0 ABS
__Hidloc 0 0 IDLOC
__Lidloc 0 0 IDLOC
PIDcal@integral 44 0 BANK0
main@max 3F 0 BANK0
?___lmul 70 0 COMMON
__Hcinit 0 0 ABS
__Lcinit 0 0 ABS
___aldiv 52C 0 CODE
__size_of_main 0 0 ABS
PIDcal@actual_position 26 0 BANK0
PIDcal@error 39 0 BANK0
PIDcal@pre_error 48 0 BANK0
__HbssBANK0 0 0 ABS
__LbssBANK0 0 0 ABS
__pbssBANK0 44 0 BANK0
__HbssCOMMON 0 0 ABS
__LbssCOMMON 0 0 ABS
__pbssCOMMON 7D 0 COMMON
__Hend_init 3 0 CODE
__Lend_init 0 0 CODE
___aldiv@divisor 70 0 COMMON
__end_of_PIDcal 800 0 CODE
__Hreset_vec 0 0 CODE
__Lreset_vec 0 0 CODE
PIDcal@output 35 0 BANK0
__size_of___aldiv 0 0 ABS
intlevel0 0 0 CODE
intlevel1 0 0 CODE
intlevel2 0 0 CODE
intlevel3 0 0 CODE
__size_of___lmul 0 0 ABS
intlevel4 0 0 CODE
intlevel5 0 0 CODE
main@result 43 0 BANK0
__HcstackCOMMON 0 0 ABS
__LcstackCOMMON 0 0 ABS
__pcstackCOMMON 70 0 COMMON
start_initialization 4D7 0 CODE
___aldiv@quotient 22 0 BANK0
__Hmaintext 0 0 ABS
__Lmaintext 0 0 ABS
__pmaintext 5D4 0 CODE
___lmul@product 79 0 COMMON
___aldiv@dividend 74 0 COMMON
%segments
reset_vec 0 5 CODE 0
config 400E 400F CONFIG 400E
cstackCOMMON 70 7D COMMON 70
cstackBANK0 20 49 BANK0 20
text118 D1A FFF CODE D1A
maintext BA8 D19 CODE BA8
text119 A58 BA7 CODE A58
text120 9C4 A57 CODE 9C4
cinit 9AE 9C3 CODE 9AE
%locals
startup.obj
startup.as
65 0 0 CODE
PID CONTROL.obj
F:\pic_projects\PID CONTROL\main.c
33 2007 0 CONFIG
PID CONTROL.as
97 4D7 0 CODE
100 4D8 0 CODE
101 4D9 0 CODE
102 4DA 0 CODE
103 4DB 0 CODE
104 4DC 0 CODE
105 4DD 0 CODE
112 4DE 0 CODE
113 4DF 0 CODE
F:\pic_projects\PID CONTROL\main.c
49 5D4 0 CODE
50 5DA 0 CODE
51 5DE 0 CODE
53 5E2 0 CODE
54 5F2 0 CODE
55 5F3 0 CODE
56 602 0 CODE
57 603 0 CODE
58 615 0 CODE
59 616 0 CODE
60 628 0 CODE
61 629 0 CODE
62 63B 0 CODE
63 63C 0 CODE
64 64E 0 CODE
65 64F 0 CODE
66 661 0 CODE
67 662 0 CODE
68 674 0 CODE
69 675 0 CODE
70 687 0 CODE
47 689 0 CODE
73 68A 0 CODE
86 68D 0 CODE
89 6AC 0 CODE
91 6C2 0 CODE
92 6E5 0 CODE
95 6E6 0 CODE
98 6EF 0 CODE
100 73C 0 CODE
101 7A6 0 CODE
104 7C5 0 CODE
106 7DB 0 CODE
107 7E3 0 CODE
108 7E4 0 CODE
110 7E8 0 CODE
111 7F1 0 CODE
113 7F2 0 CODE
115 7F8 0 CODE
116 7FF 0 CODE
C:\Program Files\HI-TECH Software\PICC\9.83\sources\aldiv.c
9 52C 0 CODE
10 52F 0 CODE
11 533 0 CODE
12 53E 0 CODE
14 542 0 CODE
15 546 0 CODE
16 551 0 CODE
18 556 0 CODE
19 55E 0 CODE
20 566 0 CODE
21 569 0 CODE
22 56A 0 CODE
23 573 0 CODE
21 578 0 CODE
26 57E 0 CODE
27 587 0 CODE
28 599 0 CODE
29 5A7 0 CODE
31 5A9 0 CODE
32 5B2 0 CODE
34 5BA 0 CODE
35 5BE 0 CODE
36 5CA 0 CODE
37 5D3 0 CODE
C:\Program Files\HI-TECH Software\PICC\9.83\sources\lmul.c
4 4E2 0 CODE
7 4EB 0 CODE
8 4EF 0 CODE
9 507 0 CODE
10 510 0 CODE
11 519 0 CODE
12 522 0 CODE
13 52B 0 CODE
