COMMAND: C:\VCAST\6.4v\clicast.exe -e IO_THREAD environment script create C:/Users/t0028919/Desktop/VCAST/C1515/build/1727981187/IO_THREAD.env
DIRECTORY: C:/Users/t0028919/Desktop/VCAST/C1515/build/1727981187
TIME: 2018-07-20 15:05:35
TEST SUITE: Source/Windows/Green_Hills_PPC_Bare_Board_Simulator/CommonTruckCode
-----------------------------Process Environment------------------------------
---------------------------End Process Environment----------------------------
VectorCAST   Copyright (C) 1993 - 2018
**Version 6.4v (08/01/17)
    Processing options file C:\Users\t0028919\Desktop\VCAST\C1515\build\1727981187\CCAST_.CFG
    Opening Environment
    Opening Parameter/Global File
    Opening Types File
    Environment is Open
    Building Script File
    Script Building Completed
COMMAND: C:\VCAST\6.4v\clicast.exe -e IO_THREAD test script create C:/Users/t0028919/Desktop/VCAST/C1515/build/1727981187/IO_THREAD.tst
DIRECTORY: C:/Users/t0028919/Desktop/VCAST/C1515/build/1727981187
TIME: 2018-07-20 15:05:36
TEST SUITE: Source/Windows/Green_Hills_PPC_Bare_Board_Simulator/CommonTruckCode
-----------------------------Process Environment------------------------------
---------------------------End Process Environment----------------------------
VectorCAST   Copyright (C) 1993 - 2018
**Version 6.4v (08/01/17)
    Processing options file C:\Users\t0028919\Desktop\VCAST\C1515\build\1727981187\CCAST_.CFG
    Opening Environment
    Opening Parameter/Global File
    Opening Types File
    Environment is Open
    Creating Script File
    Building Test Case Script
    Test Case Script Created
    Script processing completed
