COMMAND: C:\VCAST\6.4v\clicast.exe -e GYRO_DRIVER_INTEGRATION environment script create C:/Users/t0028919/Desktop/VCAST/C1515/environment/GYRO_DRIVER_INTEGRATION/GYRO_DRIVER_INTEGRATION.env
DIRECTORY: C:/Users/t0028919/Desktop/VCAST/C1515/build/1354609911
TIME: 2018-07-25 08:24:21
-----------------------------Process Environment------------------------------
---------------------------End Process Environment----------------------------
VectorCAST   Copyright (C) 1993 - 2018
**Version 6.4v (08/01/17)
    Processing options file C:\Users\t0028919\Desktop\VCAST\C1515\build\1354609911\CCAST_.CFG
    Opening Environment
    Determining Size/Range Information
    Opening Parameter/Global File
    Opening Types File
    Retrieved RSP License: "C_TARGET_GREEN_HILLS" 
    Pre-Run setup for stdout execution
    Compiling file Test Case Data
    Running Command: C:/Users/t0028919\.vcastProcessMonitorLogs\-781862145_Command
    Command Returned Exit Code: 0
    Linking Environment
    Running Command: C:/Users/t0028919\.vcastProcessMonitorLogs\-781862062_Command
    Command Returned Exit Code: 0
    Running Test with command: multi -nosplash -remote "simppc -X83 -cpu=p4040" -p C:\VCAST\6.4v/DATA/green_hills/multi_playback_file_multi4.p C:\Users\t0028919\Desktop\VCAST\C1515\build\1354609911\GYRO_DRIVER_INTEGRATION\UUT_INTE.EXE
    Running Command: C:/Users/t0028919\.vcastProcessMonitorLogs\-781861836_Command
    Command Returned Exit Code: 0
    Building Master Min Mid Max data.
    Running Command: C:/Users/t0028919\.vcastProcessMonitorLogs\-781858364_Command
    Command Returned Exit Code: 0
    Running Command: C:/Users/t0028919\.vcastProcessMonitorLogs\-781858013_Command
    Command Returned Exit Code: 0
    Determining Basis Paths (gyro_driver)
    Setting Up IEC-61508 (Industrial) SIL 3 Coverage
    Running Command: C:/Users/t0028919\.vcastProcessMonitorLogs\-781856467_Command
    Command Returned Exit Code: 0
    Running Command: C:/Users/t0028919\.vcastProcessMonitorLogs\-781856113_Command
    Command Returned Exit Code: 0
    Instrumenting file gyro_driver
    Compiling file gyro_driver
    Running Command: C:/Users/t0028919\.vcastProcessMonitorLogs\-781854348_Command
    Command Returned Exit Code: 0
    Running Command: C:/Users/t0028919\.vcastProcessMonitorLogs\-781853737_Command
    Command Returned Exit Code: 0
    Compiling file Data File Number 1
    Running Command: C:/Users/t0028919\.vcastProcessMonitorLogs\-781852771_Command
    Command Returned Exit Code: 0
    Linking Instrumented Harness
    Running Command: C:/Users/t0028919\.vcastProcessMonitorLogs\-781852421_Command
    Command Returned Exit Code: 0
    Coverage Initialized
    Opening Parameter/Global File
    Opening Types File
    Environment is Open
    Building Script File
    Script Building Completed
COMMAND: C:\VCAST\6.4v\clicast.exe -e GYRO_DRIVER_INTEGRATION test script create C:/Users/t0028919/Desktop/VCAST/C1515/environment/GYRO_DRIVER_INTEGRATION/GYRO_DRIVER_INTEGRATION.tst
DIRECTORY: C:/Users/t0028919/Desktop/VCAST/C1515/build/1354609911
TIME: 2018-07-25 08:24:32
-----------------------------Process Environment------------------------------
---------------------------End Process Environment----------------------------
VectorCAST   Copyright (C) 1993 - 2018
**Version 6.4v (08/01/17)
    Processing options file C:\Users\t0028919\Desktop\VCAST\C1515\build\1354609911\CCAST_.CFG
    Opening Environment
    Opening Parameter/Global File
    Opening Types File
    Environment is Open
    Creating Script File
    Building Test Case Script
    Test Case Script Created
    Script processing completed
