COMMAND: C:\VCAST\6.4v\clicast.exe -e GYRO_DRIVER_INTEGRATIONS environment script create C:/Users/t0028919/Desktop/VCAST/C1515/environment/GYRO_DRIVER_INTEGRATIONS/GYRO_DRIVER_INTEGRATIONS.env
DIRECTORY: C:/Users/t0028919/Desktop/VCAST/C1515/build/65615304
TIME: 2018-07-27 10:04:25
-----------------------------Process Environment------------------------------
---------------------------End Process Environment----------------------------
VectorCAST   Copyright (C) 1993 - 2018
**Version 6.4v (08/01/17)
    Processing options file C:\Users\t0028919\Desktop\VCAST\C1515\build\65615304\CCAST_.CFG
    Opening Environment
    Determining Size/Range Information
    Opening Parameter/Global File
    Opening Types File
    Retrieved RSP License: "C_TARGET_GREEN_HILLS" 
    Pre-Run setup for stdout execution
    Compiling file Test Case Data
    Running Command: C:/Users/t0028919\.vcastProcessMonitorLogs\-603058208_Command
    Command Returned Exit Code: 0
    Linking Environment
    Running Command: C:/Users/t0028919\.vcastProcessMonitorLogs\-603058119_Command
    Command Returned Exit Code: 0
    Running Test with command: multi -nosplash -remote "simppc -X83 -cpu=p4040" -p C:\VCAST\6.4v/DATA/green_hills/multi_playback_file_multi4.p C:\Users\t0028919\Desktop\VCAST\C1515\build\65615304\GYRO_DRIVER_INTEGRATIONS\UUT_INTE.EXE
    Running Command: C:/Users/t0028919\.vcastProcessMonitorLogs\-603057890_Command
    Command Returned Exit Code: 0
    Building Master Min Mid Max data.
    Running Command: C:/Users/t0028919\.vcastProcessMonitorLogs\-603053387_Command
    Command Returned Exit Code: 0
    Running Command: C:/Users/t0028919\.vcastProcessMonitorLogs\-603053036_Command
    Command Returned Exit Code: 0
    Determining Basis Paths (gyro_driver)
    Setting Up IEC-61508 (Industrial) SIL 3 Coverage
    Running Command: C:/Users/t0028919\.vcastProcessMonitorLogs\-603051457_Command
    Command Returned Exit Code: 0
    Running Command: C:/Users/t0028919\.vcastProcessMonitorLogs\-603051110_Command
    Command Returned Exit Code: 0
    Instrumenting file gyro_driver
    Compiling file gyro_driver
    Running Command: C:/Users/t0028919\.vcastProcessMonitorLogs\-603049360_Command
    Command Returned Exit Code: 0
    Running Command: C:/Users/t0028919\.vcastProcessMonitorLogs\-603048733_Command
    Command Returned Exit Code: 0
    Compiling file Data File Number 1
    Running Command: C:/Users/t0028919\.vcastProcessMonitorLogs\-603047770_Command
    Command Returned Exit Code: 0
    Linking Instrumented Harness
    Running Command: C:/Users/t0028919\.vcastProcessMonitorLogs\-603047422_Command
    Command Returned Exit Code: 0
    Coverage Initialized
    Opening Parameter/Global File
    Opening Types File
    Environment is Open
    Building Script File
    Script Building Completed
COMMAND: C:\VCAST\6.4v\clicast.exe -e GYRO_DRIVER_INTEGRATIONS test script create C:/Users/t0028919/Desktop/VCAST/C1515/environment/GYRO_DRIVER_INTEGRATIONS/GYRO_DRIVER_INTEGRATIONS.tst
DIRECTORY: C:/Users/t0028919/Desktop/VCAST/C1515/build/65615304
TIME: 2018-07-27 10:04:37
-----------------------------Process Environment------------------------------
---------------------------End Process Environment----------------------------
VectorCAST   Copyright (C) 1993 - 2018
**Version 6.4v (08/01/17)
    Processing options file C:\Users\t0028919\Desktop\VCAST\C1515\build\65615304\CCAST_.CFG
    Opening Environment
    Opening Parameter/Global File
    Opening Types File
    Environment is Open
    Creating Script File
    Building Test Case Script
    Test Case Script Created
    Script processing completed
