Message[302] C:\PIC_PROJECTS\LED_FADE_PWM\PWM_FADE.ASM 83 : Register in operand not in bank 0.  Ensure that bank bits are correct.
Message[302] C:\PIC_PROJECTS\LED_FADE_PWM\PWM_FADE.ASM 86 : Register in operand not in bank 0.  Ensure that bank bits are correct.
Message[302] C:\PIC_PROJECTS\LED_FADE_PWM\PWM_FADE.ASM 93 : Register in operand not in bank 0.  Ensure that bank bits are correct.
Message[302] C:\PIC_PROJECTS\LED_FADE_PWM\PWM_FADE.ASM 97 : Register in operand not in bank 0.  Ensure that bank bits are correct.
Message[302] C:\PIC_PROJECTS\LED_FADE_PWM\PWM_FADE.ASM 100 : Register in operand not in bank 0.  Ensure that bank bits are correct.
Message[302] C:\PIC_PROJECTS\LED_FADE_PWM\PWM_FADE.ASM 103 : Register in operand not in bank 0.  Ensure that bank bits are correct.
Message[302] C:\PIC_PROJECTS\LED_FADE_PWM\PWM_FADE.ASM 106 : Register in operand not in bank 0.  Ensure that bank bits are correct.
Message[302] C:\PIC_PROJECTS\LED_FADE_PWM\PWM_FADE.ASM 114 : Register in operand not in bank 0.  Ensure that bank bits are correct.
