_TO 1C 0 ABS
_PR2 92 0 ABS
__S0 2009 0 ABS
__S1 7C 0 ABS
__S2 0 0 ABS
_GIE 5F 0 ABS
__Hintentry 12 0 CODE
__Lintentry 4 0 CODE
__pintentry 4 0 CODE
_ADIE 466 0 ABS
_ADIF 66 0 ABS
_PEIE 5E 0 ABS
__end_of_init 229 0 CODE
_main 33 0 CODE
btemp 7E 0 ABS
_init 219 0 CODE
_exit 12 0 CODE
start 12 0 CODE
_TMR1H F 0 ABS
_TMR1L E 0 ABS
_TRISA 85 0 ABS
_TRISC 87 0 ABS
get_timer@index 25 0 BANK0
reset_vec 0 0 CODE
_TRISD 88 0 ABS
_PORTB 6 0 ABS
_ANSEL 188 0 ABS
_PORTD 8 0 ABS
_T1CON 10 0 ABS
_T2CON 12 0 ABS
wtemp0 7E 0 ABS
__size_of_init 0 0 ABS
timer_set@index 23 0 BANK0
interrupt_function 4 0 CODE
__Hconfig 2009 0 CONFIG
__Lconfig 2007 0 CONFIG
__Hram 0 0 ABS
__Lram 0 0 ABS
?_main 76 0 COMMON
timer_isr@i 77 0 COMMON
?_init 76 0 COMMON
__Hfunctab 0 0 CODE
__Lfunctab 0 0 CODE
_ADCON0 1F 0 ABS
_ADCON1 9F 0 ABS
__size_of_get_timer 0 0 ABS
__Hcommon 0 0 ABS
__Lcommon 0 0 ABS
__Heeprom_data 0 0 EEDATA
__Leeprom_data 0 0 EEDATA
__size_of_pwm_init 0 0 ABS
__size_of_adc_init 0 0 ABS
_TMR1IE 460 0 ABS
_TMR1IF 60 0 ABS
_CCPR1L 15 0 ABS
_adc_init 208 0 CODE
?_adc_isr 76 0 COMMON
_pwm_init 229 0 CODE
_GODONE F9 0 ABS
_ADRESH 1E 0 ABS
_OSCCON 8F 0 ABS
__Habs1 0 0 ABS
__Labs1 0 0 ABS
__size_of_get_setpoint 0 0 ABS
_ADRESL 9E 0 ABS
__Hsfr0 0 0 ABS
__Lsfr0 0 0 ABS
__Hsfr1 0 0 ABS
__Lsfr1 0 0 ABS
_OPTION 81 0 ABS
__Hsfr2 0 0 ABS
__Lsfr2 0 0 ABS
__Hsfr3 0 0 ABS
__Lsfr3 0 0 ABS
get_setpoint@current_setpoint 2C 0 BANK0
__ptext430 219 0 CODE
__ptext431 1E0 0 CODE
_motor_speed_array 1B 0 STRING
_motor_speed_array1 2B 0 STRING
_toms_variable 75 0 COMMON
__ptext432 DB 0 CODE
__ptext433 1AB 0 CODE
__Hcode 0 0 ABS
__Lcode 0 0 ABS
__ptext424 163 0 CODE
__ptext434 0 0 CODE
??_main 2E 0 BANK0
__HcstackBANK0 0 0 ABS
__ptext425 128 0 CODE
__LcstackBANK0 0 0 ABS
__pcstackBANK0 20 0 BANK0
saved_w 7E 0 ABS
?_interrupt_handler 76 0 COMMON
??_init 20 0 BANK0
__Hinit 12 0 CODE
__Linit 12 0 CODE
__ptext426 187 0 CODE
__end_of_main DB 0 CODE
__Htext 0 0 ABS
__Ltext 0 0 ABS
__ptext427 1C7 0 CODE
__ptext428 229 0 CODE
end_of_initialization 204 0 CODE
__ptext429 208 0 CODE
_get_timer 187 0 CODE
_get_setpoint 163 0 CODE
__end_of_timer_set 1E0 0 CODE
_timer_set 1C7 0 CODE
__Hstrings 0 0 ABS
__Lstrings 0 0 ABS
?_adc_init 76 0 COMMON
__pstrings 15 0 STRING
??_adc_isr 76 0 COMMON
?_pwm_init 76 0 COMMON
??_get_timer 22 0 BANK0
_timer_isr DB 0 CODE
??_get_setpoint 2A 0 BANK0
_CCP1CON 17 0 ABS
__Hbank0 0 0 ABS
__Lbank0 0 0 ABS
__Hbank1 0 0 ABS
__Lbank1 0 0 ABS
__Hbank2 0 0 ABS
__Lbank2 0 0 ABS
__Hbank3 0 0 ABS
__Lbank3 0 0 ABS
__Hpowerup 0 0 CODE
__Lpowerup 0 0 CODE
_int_count 34 0 BANK0
__Hclrtext 0 0 ABS
__Lclrtext 0 0 ABS
?_adc_convert 20 0 BANK0
__end_of_timer_isr 128 0 CODE
_tmr1_isr_counter 74 0 COMMON
__size_of_timer_set 0 0 ABS
__size_of_timer_isr 0 0 ABS
??_timer_set 22 0 BANK0
__Hidloc 0 0 IDLOC
__Lidloc 0 0 IDLOC
_adc_isr_flag 70 0 COMMON
_MOTOR_ADC_LEVELS 72 0 COMMON
__end_of_get_timer 1AB 0 CODE
__Hcinit 0 0 ABS
__Lcinit 0 0 ABS
_adc_isr 1AB 0 CODE
??_timer_isr 76 0 COMMON
__size_of_main 0 0 ABS
__end_of_adc_convert 163 0 CODE
__size_of_adc_isr 0 0 ABS
get_timer@result 23 0 BANK0
_timer_array 30 0 BANK0
__HbssBANK0 0 0 ABS
__LbssBANK0 0 0 ABS
__pbssBANK0 30 0 BANK0
main@Mot_Spd 36 0 BANK0
?_get_timer 20 0 BANK0
?_get_setpoint 76 0 COMMON
__end_of_adc_isr 1C7 0 CODE
_adc_convert 128 0 CODE
timer_set@value 20 0 BANK0
__HbssCOMMON 0 0 ABS
__LbssCOMMON 0 0 ABS
?_timer_set 20 0 BANK0
__pbssCOMMON 70 0 COMMON
??_adc_init 20 0 BANK0
__Hend_init 15 0 CODE
__Lend_init 12 0 CODE
??_pwm_init 20 0 BANK0
__size_of_interrupt_handler 0 0 ABS
?_timer_isr 76 0 COMMON
__Hreset_vec 3 0 CODE
__Lreset_vec 0 0 CODE
_teststruct 73 0 COMMON
__end_of_pwm_init 234 0 CODE
__end_of_adc_init 219 0 CODE
intlevel0 0 0 CODE
intlevel1 0 0 CODE
intlevel2 0 0 CODE
intlevel3 0 0 CODE
adc_convert@result 28 0 BANK0
intlevel4 0 0 CODE
intlevel5 0 0 CODE
adc_convert@adresh 24 0 BANK0
adc_convert@adresl 26 0 BANK0
__size_of_adc_convert 0 0 ABS
__end_of_interrupt_handler 1F7 0 CODE
__HcstackCOMMON 0 0 ABS
__LcstackCOMMON 0 0 ABS
__pcstackCOMMON 76 0 COMMON
start_initialization 1F7 0 CODE
__end_of_get_setpoint 187 0 CODE
__Hmaintext 0 0 ABS
__Lmaintext 0 0 ABS
__pmaintext 33 0 CODE
??_adc_convert 22 0 BANK0
main@LwSpdSt 2F 0 BANK0
_interrupt_handler 1E0 0 CODE
??_interrupt_handler 78 0 COMMON
%segments
reset_vec 0 5 CODE 0
intentry 8 29 CODE 8
config 400E 4011 CONFIG 400E
bssCOMMON 70 7B COMMON 70
cstackBANK0 20 36 BANK0 20
strings 2A 65 STRING 2A
maintext 66 467 CODE 66
%locals
startup.obj
startup.as
60 0 0 CODE
69 12 0 CODE
L9826_plus LS_DRVIVER.obj
d:\users\F53368A\Desktop\Various Documents\pic_projects\L9826_plus LS_DRVIVER\main.c
28 2007 0 CONFIG
29 2008 0 CONFIG
d:\users\F53368A\Desktop\Various Documents\pic_projects\L9826_plus LS_DRVIVER\adc_func.c
23 1B 0 STRING
44 2B 0 STRING
L9826_plus LS_DRVIVER.as
213 1F7 0 CODE
214 1F8 0 CODE
215 1F9 0 CODE
216 1FA 0 CODE
217 1FB 0 CODE
218 1FC 0 CODE
221 1FD 0 CODE
222 1FE 0 CODE
223 1FF 0 CODE
224 200 0 CODE
225 201 0 CODE
226 202 0 CODE
227 203 0 CODE
234 204 0 CODE
235 205 0 CODE
d:\users\F53368A\Desktop\Various Documents\pic_projects\L9826_plus LS_DRVIVER\main.c
63 33 0 CODE
64 38 0 CODE
65 3D 0 CODE
66 42 0 CODE
67 45 0 CODE
68 46 0 CODE
69 47 0 CODE
70 48 0 CODE
78 4F 0 CODE
80 55 0 CODE
81 5F 0 CODE
82 61 0 CODE
84 63 0 CODE
86 6A 0 CODE
89 6B 0 CODE
90 75 0 CODE
91 7A 0 CODE
92 7C 0 CODE
95 7D 0 CODE
97 8B 0 CODE
98 8F 0 CODE
99 91 0 CODE
100 95 0 CODE
102 A0 0 CODE
105 A1 0 CODE
107 AF 0 CODE
108 B3 0 CODE
109 B5 0 CODE
110 B8 0 CODE
112 C3 0 CODE
113 C4 0 CODE
86 C5 0 CODE
113 D2 0 CODE
115 D3 0 CODE
118 D4 0 CODE
119 D6 0 CODE
75 D7 0 CODE
122 D8 0 CODE
d:\users\F53368A\Desktop\Various Documents\pic_projects\L9826_plus LS_DRVIVER\adc_func.c
99 163 0 CODE
101 167 0 CODE
102 17D 0 CODE
104 186 0 CODE
81 128 0 CODE
83 12C 0 CODE
85 12F 0 CODE
87 138 0 CODE
88 143 0 CODE
89 14A 0 CODE
91 15B 0 CODE
92 162 0 CODE
d:\users\F53368A\Desktop\Various Documents\pic_projects\L9826_plus LS_DRVIVER\timer.c
36 187 0 CODE
38 190 0 CODE
39 191 0 CODE
40 19C 0 CODE
41 19D 0 CODE
44 19E 0 CODE
47 1A3 0 CODE
49 1AA 0 CODE
20 1C7 0 CODE
22 1D0 0 CODE
23 1D1 0 CODE
24 1DC 0 CODE
25 1DD 0 CODE
26 1DE 0 CODE
29 1DF 0 CODE
d:\users\F53368A\Desktop\Various Documents\pic_projects\L9826_plus LS_DRVIVER\pwm.c
8 229 0 CODE
9 22D 0 CODE
10 231 0 CODE
12 233 0 CODE
d:\users\F53368A\Desktop\Various Documents\pic_projects\L9826_plus LS_DRVIVER\adc_func.c
124 208 0 CODE
125 20C 0 CODE
126 210 0 CODE
127 214 0 CODE
128 218 0 CODE
d:\users\F53368A\Desktop\Various Documents\pic_projects\L9826_plus LS_DRVIVER\main.c
127 219 0 CODE
128 21D 0 CODE
129 21F 0 CODE
130 220 0 CODE
131 221 0 CODE
132 224 0 CODE
133 226 0 CODE
135 228 0 CODE
d:\users\F53368A\Desktop\Various Documents\pic_projects\L9826_plus LS_DRVIVER\interrupt.c
8 1E0 0 CODE
9 1E5 0 CODE
10 1EA 0 CODE
6 4 0 CODE
d:\users\F53368A\Desktop\Various Documents\pic_projects\L9826_plus LS_DRVIVER\timer.c
56 DB 0 CODE
59 E7 0 CODE
60 E8 0 CODE
61 EC 0 CODE
62 EE 0 CODE
63 F0 0 CODE
65 F1 0 CODE
67 FE 0 CODE
69 10B 0 CODE
70 118 0 CODE
71 119 0 CODE
65 11A 0 CODE
76 125 0 CODE
77 126 0 CODE
80 127 0 CODE
d:\users\F53368A\Desktop\Various Documents\pic_projects\L9826_plus LS_DRVIVER\adc_func.c
132 1AB 0 CODE
135 1B7 0 CODE
136 1BA 0 CODE
137 1BE 0 CODE
138 1C4 0 CODE
139 1C5 0 CODE
142 1C6 0 CODE
