__S0 2009 0 ABS
__S1 75 0 ABS
__S2 0 0 ABS
__Hintentry 0 0 CODE
__Lintentry 0 0 CODE
_main 7EC 0 CODE
btemp 7E 0 ABS
_exit 0 0 CODE
start 0 0 CODE
reset_vec 0 0 CODE
wtemp0 7E 0 ABS
??_malloc 72 0 COMMON
__Hconfig 2009 0 CONFIG
__Lconfig 2007 0 CONFIG
__Hram 0 0 ABS
__Lram 0 0 ABS
?_main 70 0 COMMON
__Hfunctab 0 0 CODE
__Lfunctab 0 0 CODE
__Hcommon 0 0 ABS
__Lcommon 0 0 ABS
__Heeprom_data 0 0 EEDATA
__Leeprom_data 0 0 EEDATA
__Habs1 0 0 ABS
__Labs1 0 0 ABS
__Hsfr0 0 0 ABS
__Lsfr0 0 0 ABS
__Hsfr1 0 0 ABS
__Lsfr1 0 0 ABS
__Hsfr2 0 0 ABS
__Lsfr2 0 0 ABS
__Hsfr3 0 0 ABS
__Lsfr3 0 0 ABS
_toms_variable 74 0 COMMON
__Hcode 0 0 ABS
__Lcode 0 0 ABS
_malloc 0 0 ABS
??_main 72 0 COMMON
__Hinit 0 0 CODE
__Linit 0 0 CODE
__end_of_main 800 0 CODE
__Htext 0 0 ABS
__Ltext 0 0 ABS
end_of_initialization 7E8 0 CODE
__Hstrings 0 0 ABS
__Lstrings 0 0 ABS
__Hbank0 0 0 ABS
__Lbank0 0 0 ABS
__Hbank1 0 0 ABS
__Lbank1 0 0 ABS
__Hbank2 0 0 ABS
__Lbank2 0 0 ABS
__Hbank3 0 0 ABS
__Lbank3 0 0 ABS
__Hpowerup 0 0 CODE
__Lpowerup 0 0 CODE
__Hclrtext 0 0 ABS
__Lclrtext 0 0 ABS
__Hidloc 0 0 IDLOC
__Lidloc 0 0 IDLOC
?_malloc 70 0 COMMON
__Hcinit 0 0 ABS
__Lcinit 0 0 ABS
main@str 72 0 COMMON
__size_of_main 0 0 ABS
_malloc$0 70 0 COMMON
__HbssCOMMON 0 0 ABS
__LbssCOMMON 0 0 ABS
__pbssCOMMON 74 0 COMMON
__Hend_init 3 0 CODE
__Lend_init 0 0 CODE
__Hreset_vec 0 0 CODE
__Lreset_vec 0 0 CODE
intlevel0 0 0 CODE
intlevel1 0 0 CODE
intlevel2 0 0 CODE
intlevel3 0 0 CODE
intlevel4 0 0 CODE
intlevel5 0 0 CODE
__HcstackCOMMON 0 0 ABS
__LcstackCOMMON 0 0 ABS
__pcstackCOMMON 70 0 COMMON
start_initialization 7E7 0 CODE
__Hmaintext 0 0 ABS
__Lmaintext 0 0 ABS
__pmaintext 7EC 0 CODE
%segments
reset_vec 0 5 CODE 0
config 400E 4011 CONFIG 400E
cstackCOMMON 70 74 COMMON 70
maintext FD8 FFF CODE FD8
cinit FCE FD7 CODE FCE
%locals
startup.obj
startup.as
65 0 0 CODE
Linked_List.obj
C:\Users\t0028919\Desktop\Flash_Drive_Backup\Removable Disk\pic_projects\Linked_list\main.c
7 2007 0 CONFIG
8 2008 0 CONFIG
38 7EC 0 CODE
44 7FC 0 CODE
49 7FD 0 CODE
Linked_List.as
70 7E7 0 CODE
77 7E8 0 CODE
78 7E9 0 CODE
