

HI-TECH Software PIC LITE Macro Assembler V9.80 build 6738 
                                                                                               Fri Oct 28 08:53:33 2016

HI-TECH Software Omniscient Code Generator (Lite mode) build 6738
     1  0000                     opt subtitle "HI-TECH Software Omniscient Code Generator (Lite mode) build 6738"
     2                           
     3                           opt pagewidth 120
     4                           
     5                           	opt lm
     6                           
     7                           	processor	16F887
     8                           clrc	macro
     9                           	bcf	3,0
    10  0000                     	endm
    11                           clrz	macro
    12                           	bcf	3,2
    13  0000                     	endm
    14                           setc	macro
    15                           	bsf	3,0
    16  0000                     	endm
    17                           setz	macro
    18                           	bsf	3,2
    19  0000                     	endm
    20                           skipc	macro
    21                           	btfss	3,0
    22  0000                     	endm
    23                           skipz	macro
    24                           	btfss	3,2
    25  0000                     	endm
    26                           skipnc	macro
    27                           	btfsc	3,0
    28  0000                     	endm
    29                           skipnz	macro
    30                           	btfsc	3,2
    31  0000                     	endm
    32  0000                     indf	equ	0
    33  0000                     indf0	equ	0
    34  0002                     pc	equ	2
    35  0002                     pcl	equ	2
    36  0003                     status	equ	3
    37  0004                     fsr	equ	4
    38  0004                     fsr0	equ	4
    39  0001                     c	equ	1
    40  0000                     z	equ	0
    41  000A                     pclath	equ	10
    42                           # 7 "C:\Users\t0028919\Desktop\Flash_Drive_Backup\Removable Disk\pic_projects\Linked_lis
                                 t\main.c"
    43                           	psect config,class=CONFIG,delta=2 ;#
    44                           # 7 "C:\Users\t0028919\Desktop\Flash_Drive_Backup\Removable Disk\pic_projects\Linked_lis
                                 t\main.c"
    45  2007  1AA5               	dw 0x1FFF & 0x3FFF & 0x3FFF & 0x3BFF & 0x3EFF & 0x3FFF & 0x3FFF & 0x3FFF & 0x3FEF & 0x3
                                 FF7 & 0x3FFD & 0x3FBF ;#
    46                           # 8 "C:\Users\t0028919\Desktop\Flash_Drive_Backup\Removable Disk\pic_projects\Linked_lis
                                 t\main.c"
    47                           	psect config,class=CONFIG,delta=2 ;#
    48                           # 8 "C:\Users\t0028919\Desktop\Flash_Drive_Backup\Removable Disk\pic_projects\Linked_lis
                                 t\main.c"
    49  2008  3FFF               	dw 0x3FFF ;#
    50                           	FNCALL	_main,_malloc
    51                           	FNROOT	_main
    52                           	global	_toms_variable
    53                           psect	maintext,global,class=CODE,delta=2
    54                           global __pmaintext
    55  07EC                     __pmaintext:
    56                           	file	"Linked_List.as"
    57                           	line	#
    58                           psect cinit,class=CODE,delta=2
    59                           global start_initialization
    60  07E7                     start_initialization:
    61                           
    62                           psect	bssCOMMON,class=COMMON,space=1
    63                           global __pbssCOMMON
    64  0074                     __pbssCOMMON:
    65  0074                     _toms_variable:
    66  0074                            ds      1
    67                           
    68                           ; Clear objects allocated to COMMON
    69                           psect cinit,class=CODE,delta=2
    70  07E7  01F4               	clrf	((__pbssCOMMON)+0)&07Fh
    71                           psect cinit,class=CODE,delta=2
    72                           global end_of_initialization
    73                           
    74                           ;End of C runtime variable initialization code
    75                           
    76  07E8                     end_of_initialization:
    77  07E8  0183               clrf status
    78  07E9  120A  118A  2FEC   ljmp _main	;jump to C main() function
    79                           psect	cstackCOMMON,class=COMMON,space=1
    80                           global __pcstackCOMMON
    81  0070                     __pcstackCOMMON:
    82                           	global	?_malloc
    83  0070                     ?_malloc:	; 2 bytes @ 0x0
    84                           	global	?_main
    85  0070                     ?_main:	; 2 bytes @ 0x0
    86                           	global	_malloc$0
    87  0070                     _malloc$0:	; 2 bytes @ 0x0
    88  0070                     	ds	2
    89                           	global	??_malloc
    90  0072                     ??_malloc:	; 0 bytes @ 0x2
    91                           	global	??_main
    92  0072                     ??_main:	; 0 bytes @ 0x2
    93                           	global	main@str
    94  0072                     main@str:	; 2 bytes @ 0x2
    95  0072                     	ds	2
    96 ;;Data sizes: Strings 0, constant 0, data 0, bss 1, persistent 0 stack 0
    97 ;;Auto spaces:   Size  Autos    Used
    98 ;; COMMON          14      4       5
    99 ;; BANK0           80      0       0
   100 ;; BANK1           80      0       0
   101 ;; BANK3           96      0       0
   102 ;; BANK2           96      0       0
   103                           
   104 ;;
   105 ;; Pointer list with targets:
   106                           
   107 ;; sp__malloc	PTR void  size(2) Largest target is 512
   108 ;;		 -> RAM(DATA[512]), 
   109 ;;
   110 ;; main@str	PTR unsigned char  size(2) Largest target is 512
   111 ;;		 -> RAM(DATA[512]), 
   112 ;;
   113                           
   114                           
   115 ;;
   116 ;; Critical Paths under _main in COMMON
   117 ;;
   118 ;;   _main->_malloc
   119 ;;
   120 ;; Critical Paths under _main in BANK0
   121 ;;
   122 ;;   None.
   123 ;;
   124 ;; Critical Paths under _main in BANK1
   125 ;;
   126 ;;   None.
   127 ;;
   128 ;; Critical Paths under _main in BANK3
   129 ;;
   130 ;;   None.
   131 ;;
   132 ;; Critical Paths under _main in BANK2
   133 ;;
   134 ;;   None.
   135                           
   136 ;;
   137 ;;Main: autosize = 0, tempsize = 0, incstack = 0, save=0
   138 ;;
   139                           
   140 ;;
   141 ;;Call Graph Tables:
   142 ;;
   143 ;; ---------------------------------------------------------------------------------
   144 ;; (Depth) Function   	        Calls       Base Space   Used Autos Params    Refs
   145 ;; ---------------------------------------------------------------------------------
   146 ;; (0) _main                                                 6     6      0       0
   147 ;;                                              2 COMMON     2     2      0
   148 ;;                             _malloc
   149 ;; ---------------------------------------------------------------------------------
   150 ;; (1) _malloc                                               2     0      2       0
   151 ;;                                              0 COMMON     2     0      2
   152 ;; ---------------------------------------------------------------------------------
   153 ;; Estimated maximum stack depth 1
   154 ;; ---------------------------------------------------------------------------------
   155                           
   156 ;; Call Graph Graphs:
   157                           
   158 ;; _main (ROOT)
   159 ;;   _malloc
   160 ;;
   161                           
   162 ;; Address spaces:
   163                           
   164 ;;Name               Size   Autos  Total    Cost      Usage
   165 ;;BITCOMMON            E      0       0       0        0.0%
   166 ;;EEDATA             100      0       0       0        0.0%
   167 ;;NULL                 0      0       0       0        0.0%
   168 ;;CODE                 0      0       0       0        0.0%
   169 ;;COMMON               E      4       5       1       35.7%
   170 ;;BITSFR0              0      0       0       1        0.0%
   171 ;;SFR0                 0      0       0       1        0.0%
   172 ;;BITSFR1              0      0       0       2        0.0%
   173 ;;SFR1                 0      0       0       2        0.0%
   174 ;;STACK                0      0       1       2        0.0%
   175 ;;ABS                  0      0       5       3        0.0%
   176 ;;BITBANK0            50      0       0       4        0.0%
   177 ;;BITSFR3              0      0       0       4        0.0%
   178 ;;SFR3                 0      0       0       4        0.0%
   179 ;;BANK0               50      0       0       5        0.0%
   180 ;;BITSFR2              0      0       0       5        0.0%
   181 ;;SFR2                 0      0       0       5        0.0%
   182 ;;BITBANK1            50      0       0       6        0.0%
   183 ;;BANK1               50      0       0       7        0.0%
   184 ;;BITBANK3            60      0       0       8        0.0%
   185 ;;BANK3               60      0       0       9        0.0%
   186 ;;BITBANK2            60      0       0      10        0.0%
   187 ;;BANK2               60      0       0      11        0.0%
   188 ;;DATA                 0      0       6      12        0.0%
   189                           
   190                           	global	_main
   191                           psect	maintext
   192                           
   193 ;; *************** function _main *****************
   194 ;; Defined at:
   195 ;;		line 31 in file "C:\Users\t0028919\Desktop\Flash_Drive_Backup\Removable Disk\pic_projects\Linked_list\main.c"
   196 ;; Parameters:    Size  Location     Type
   197 ;;		None
   198 ;; Auto vars:     Size  Location     Type
   199 ;;  str             2    2[COMMON] PTR unsigned char 
   200 ;;		 -> RAM(512), 
   201 ;;  test            2    0        int 
   202 ;;  root            2    0        PTR struct node
   203 ;; Return value:  Size  Location     Type
   204 ;;                  2  838[COMMON] int 
   205 ;; Registers used:
   206 ;;		wreg, fsr0l, fsr0h, fsr1l, fsr1h, status,2, status,0, btemp+1, pclath, cstack
   207 ;; Tracked objects:
   208 ;;		On entry : 17F/0
   209 ;;		On exit  : 0/0
   210 ;;		Unchanged: 0/0
   211 ;; Data sizes:     COMMON   BANK0   BANK1   BANK3   BANK2
   212 ;;      Params:         0       0       0       0       0
   213 ;;      Locals:         2       0       0       0       0
   214 ;;      Temps:          0       0       0       0       0
   215 ;;      Totals:         2       0       0       0       0
   216 ;;Total ram usage:        2 bytes
   217 ;; Hardware stack levels required when called:    1
   218 ;; This function calls:
   219 ;;		_malloc
   220 ;; This function is called by:
   221 ;;		Startup code after reset
   222 ;; This function uses a non-reentrant model
   223 ;;
   224                           psect	maintext
   225                           	file	"C:\Users\t0028919\Desktop\Flash_Drive_Backup\Removable Disk\pic_projects\Linked_l
                                 ist\main.c"
   226                           	line	31
   227                           	global	__size_of_main
   228  0014                     	__size_of_main	equ	__end_of_main-_main
   229                           	
   230  07EC                     _main:	
   231                           	opt	stack 7
   232                           ; Regs used in _main: [allreg]
   233                           	line	38
   234                           	
   235  07EC                     l2001:	
   236                           ;main.c: 33: struct node *root;
   237                           ;main.c: 34: char *str;
   238                           ;main.c: 35: int test;
   239                           ;main.c: 38: str = (char *) malloc(15);
   240  07EC  300F               	movlw	low(0Fh)
   241  07ED  00F0               	movwf	(?_malloc)
   242  07EE  3000               	movlw	high(0Fh)
   243  07EF  00F1               	movwf	((?_malloc))+1
   244  07F0  120A  118A  2000   	fcall	_malloc
              120A  118A         
   245  07F5  0871               	movf	(1+(?_malloc)),w
   246  07F6  01F3               	clrf	(main@str+1)
   247  07F7  07F3               	addwf	(main@str+1)
   248  07F8  0870               	movf	(0+(?_malloc)),w
   249  07F9  01F2               	clrf	(main@str)
   250  07FA  07F2               	addwf	(main@str)
   251                           
   252  07FB  2FFC               	goto	l840
   253                           	line	44
   254                           ;main.c: 44: while(1)
   255                           	
   256  07FC                     l839:	
   257                           	line	48
   258                           ;main.c: 45: {
   259                           	
   260  07FC                     l840:	
   261                           	line	44
   262  07FC  2FFC               	goto	l840
   263                           	
   264  07FD                     l841:	
   265                           	line	49
   266                           	
   267  07FD                     l842:	
   268                           	global	start
   269  07FD  120A  118A  2800   	ljmp	start
   270                           	opt stack 0
   271                           GLOBAL	__end_of_main
   272  0800                     	__end_of_main:
   273 ;; =============== function _main ends ============
   274                           
   275                           	signat	_main,90
   276                           	global	_malloc
   277                           psect	maintext
   278                           	global	btemp
   279  007E                     	btemp set 07Eh
   280                           
   281                           	DABS	1,126,2	;btemp
   282                           	global	wtemp0
   283  007E                     	wtemp0 set btemp


HI-TECH Software PICC Macro Assembler V9.80 build 6738 
Symbol Table                                                                                   Fri Oct 28 08:53:33 2016

                 l840 07FC                   l841 07FD                   l842 07FD                   l839 07FC  
                l2001 07EC                  _main 07EC                  btemp 007E                  start 0000  
               ?_main 0070                 status 0003                 wtemp0 007E          __end_of_main 0800  
              ??_main 0072         _toms_variable 0074                _malloc 0000        __pcstackCOMMON 0070  
          __pmaintext 07EC               ?_malloc 0070               main@str 0072  end_of_initialization 07E8  
 start_initialization 07E7              ??_malloc 0072           __pbssCOMMON 0074              _malloc$0 0070  
       __size_of_main 0014  
