COMMAND: C:\VCAST\6.4v\clicast.exe -e AECP_MAIN_INTEGRATION environment script create C:/Users/t0028919/Desktop/VCAST/C1515/build/3668052315/AECP_MAIN_INTEGRATION.env
DIRECTORY: C:/Users/t0028919/Desktop/VCAST/C1515/build/3668052315
TIME: 2018-07-24 09:50:07
TEST SUITE: Source/Windows/Green_Hills_PPC_Bare_Board_Simulator/REGRESSION
-----------------------------Process Environment------------------------------
---------------------------End Process Environment----------------------------
VectorCAST   Copyright (C) 1993 - 2018
**Version 6.4v (08/01/17)
    Processing options file C:\Users\t0028919\Desktop\VCAST\C1515\build\3668052315\CCAST_.CFG
    Opening Environment
    Opening Parameter/Global File
    Opening Types File
    Environment is Open
    Building Script File
    Script Building Completed
COMMAND: C:\VCAST\6.4v\clicast.exe -e AECP_MAIN_INTEGRATION test script create C:/Users/t0028919/Desktop/VCAST/C1515/build/3668052315/AECP_MAIN_INTEGRATION.tst
DIRECTORY: C:/Users/t0028919/Desktop/VCAST/C1515/build/3668052315
TIME: 2018-07-24 09:50:09
TEST SUITE: Source/Windows/Green_Hills_PPC_Bare_Board_Simulator/REGRESSION
-----------------------------Process Environment------------------------------
---------------------------End Process Environment----------------------------
VectorCAST   Copyright (C) 1993 - 2018
**Version 6.4v (08/01/17)
    Processing options file C:\Users\t0028919\Desktop\VCAST\C1515\build\3668052315\CCAST_.CFG
    Opening Environment
    Opening Parameter/Global File
    Opening Types File
    Environment is Open
    Creating Script File
    Building Test Case Script
    Test Case Script Created
    Script processing completed
