COMMAND: C:\VCAST\6.4v\clicast.exe -e AECP_MAIN_INTEGRATION environment script create C:/Users/t0028919/Desktop/VCAST/C1515/environment/AECP_MAIN_INTEGRATION/AECP_MAIN_INTEGRATION.env
DIRECTORY: C:/Users/t0028919/Desktop/VCAST/C1515/build/3668052315
TIME: 2018-07-24 09:19:28
-----------------------------Process Environment------------------------------
---------------------------End Process Environment----------------------------
VectorCAST   Copyright (C) 1993 - 2018
**Version 6.4v (08/01/17)
    Processing options file C:\Users\t0028919\Desktop\VCAST\C1515\build\3668052315\CCAST_.CFG
    Opening Environment
    Determining Size/Range Information
    Opening Parameter/Global File
    Opening Types File
    Retrieved RSP License: "C_TARGET_GREEN_HILLS" 
    Pre-Run setup for stdout execution
    Compiling file Test Case Data
    Running Command: C:/Users/t0028919\.vcastProcessMonitorLogs\-864954663_Command
    Command Returned Exit Code: 0
    Linking Environment
    Running Command: C:/Users/t0028919\.vcastProcessMonitorLogs\-864954568_Command
    Command Returned Exit Code: 0
    Running Test with command: multi -nosplash -remote "simppc -X83 -cpu=p4040" -p C:\VCAST\6.4v/DATA/green_hills/multi_playback_file_multi4.p C:\Users\t0028919\Desktop\VCAST\C1515\build\3668052315\AECP_MAIN_INTEGRATION\UUT_INTE.EXE
    Running Command: C:/Users/t0028919\.vcastProcessMonitorLogs\-864954258_Command
    Command Returned Exit Code: 0
    Running Command: C:/Users/t0028919\.vcastProcessMonitorLogs\-864945021_Command
    Command Returned Exit Code: 0
    Running Command: C:/Users/t0028919\.vcastProcessMonitorLogs\-864944932_Command
    Command Returned Exit Code: 0
    Determining Basis Paths (aecp_main)
    Running Command: C:/Users/t0028919\.vcastProcessMonitorLogs\-864944105_Command
    Command Returned Exit Code: 0
    Running Command: C:/Users/t0028919\.vcastProcessMonitorLogs\-864943737_Command
    Command Returned Exit Code: 0
    Determining Basis Paths (immcomm_driver)
    Running Command: C:/Users/t0028919\.vcastProcessMonitorLogs\-864942248_Command
    Command Returned Exit Code: 0
    Running Command: C:/Users/t0028919\.vcastProcessMonitorLogs\-864941675_Command
    Command Returned Exit Code: 0
    Determining Basis Paths (imm_interface)
    Setting Up IEC-61508 (Industrial) SIL 3 Coverage
    Running Command: C:/Users/t0028919\.vcastProcessMonitorLogs\-864939530_Command
    Command Returned Exit Code: 0
    Running Command: C:/Users/t0028919\.vcastProcessMonitorLogs\-864939449_Command
    Command Returned Exit Code: 0
    Instrumenting file aecp_main
    Compiling file aecp_main
    Running Command: C:/Users/t0028919\.vcastProcessMonitorLogs\-864939138_Command
    Command Returned Exit Code: 0
    Running Command: C:/Users/t0028919\.vcastProcessMonitorLogs\-864938965_Command
    Command Returned Exit Code: 0
    Running Command: C:/Users/t0028919\.vcastProcessMonitorLogs\-864938339_Command
    Command Returned Exit Code: 0
    Running Command: C:/Users/t0028919\.vcastProcessMonitorLogs\-864937967_Command
    Command Returned Exit Code: 0
    Instrumenting file immcomm_driver
    Compiling file immcomm_driver
    Running Command: C:/Users/t0028919\.vcastProcessMonitorLogs\-864936093_Command
    Command Returned Exit Code: 0
    Running Command: C:/Users/t0028919\.vcastProcessMonitorLogs\-864935398_Command
    Command Returned Exit Code: 0
    Running Command: C:/Users/t0028919\.vcastProcessMonitorLogs\-864934226_Command
    Command Returned Exit Code: 0
    Running Command: C:/Users/t0028919\.vcastProcessMonitorLogs\-864933672_Command
    Command Returned Exit Code: 0
    Instrumenting file imm_interface
    Compiling file imm_interface
    Running Command: C:/Users/t0028919\.vcastProcessMonitorLogs\-864931292_Command
    Command Returned Exit Code: 0
    Running Command: C:/Users/t0028919\.vcastProcessMonitorLogs\-864930338_Command
    Command Returned Exit Code: 0
    Compiling file Data File Number 1
    Running Command: C:/Users/t0028919\.vcastProcessMonitorLogs\-864928663_Command
    Command Returned Exit Code: 0
    Linking Instrumented Harness
    Running Command: C:/Users/t0028919\.vcastProcessMonitorLogs\-864928293_Command
    Command Returned Exit Code: 0
    Coverage Initialized
    Opening Parameter/Global File
    Opening Types File
    Environment is Open
    Building Script File
    Script Building Completed
COMMAND: C:\VCAST\6.4v\clicast.exe -e AECP_MAIN_INTEGRATION test script create C:/Users/t0028919/Desktop/VCAST/C1515/environment/AECP_MAIN_INTEGRATION/AECP_MAIN_INTEGRATION.tst
DIRECTORY: C:/Users/t0028919/Desktop/VCAST/C1515/build/3668052315
TIME: 2018-07-24 09:19:57
-----------------------------Process Environment------------------------------
---------------------------End Process Environment----------------------------
VectorCAST   Copyright (C) 1993 - 2018
**Version 6.4v (08/01/17)
    Processing options file C:\Users\t0028919\Desktop\VCAST\C1515\build\3668052315\CCAST_.CFG
    Opening Environment
    Opening Parameter/Global File
    Opening Types File
    Environment is Open
    Creating Script File
    Building Test Case Script
    Test Case Script Created
    Script processing completed
