

HI-TECH Software PIC LITE Macro Assembler V9.83 build 10920 
                                                                                               Mon Aug 27 16:07:37 2012

HI-TECH Software Omniscient Code Generator (Lite mode) build 10920
     1  0000                     opt subtitle "HI-TECH Software Omniscient Code Generator (Lite mode) build 10920"
     2                           
     3                           opt pagewidth 120
     4                           
     5                           	opt lm
     6                           
     7                           	processor	16F887
     8                           clrc	macro
     9                           	bcf	3,0
    10  0000                     	endm
    11                           clrz	macro
    12                           	bcf	3,2
    13  0000                     	endm
    14                           setc	macro
    15                           	bsf	3,0
    16  0000                     	endm
    17                           setz	macro
    18                           	bsf	3,2
    19  0000                     	endm
    20                           skipc	macro
    21                           	btfss	3,0
    22  0000                     	endm
    23                           skipz	macro
    24                           	btfss	3,2
    25  0000                     	endm
    26                           skipnc	macro
    27                           	btfsc	3,0
    28  0000                     	endm
    29                           skipnz	macro
    30                           	btfsc	3,2
    31  0000                     	endm
    32  0000                     indf	equ	0
    33  0000                     indf0	equ	0
    34  0002                     pc	equ	2
    35  0002                     pcl	equ	2
    36  0003                     status	equ	3
    37  0004                     fsr	equ	4
    38  0004                     fsr0	equ	4
    39  0001                     c	equ	1
    40  0000                     z	equ	0
    41  000A                     pclath	equ	10
    42                           	FNCALL	_main,_push_dtc_to_stack
    43                           	FNROOT	_main
    44                           	global	_dtc_array_list
    45                           psect	strings,class=STRING,delta=2
    46                           global __pstrings
    47  0003                     __pstrings:
    48                           ;	global	stringdir,stringtab,__stringbase
    49  0003                     stringtab:
    50                           ;	String table - string pointers are 1 byte each
    51  0003                     stringcode:stringdir:
      + 0003                     stringdir:	
    52  0003  3000               movlw high(stringdir)
    53  0004  008A               movwf pclath
    54  0005  0804               movf fsr,w
    55  0006  0A84               incf fsr
    56  0007  0782               	addwf pc
    57  0008                     __stringbase:
    58  0008  3400               	retlw	0
    59                           psect	strings
    60                           	file	"C:\pic_projects\dtc_chrono_stack\main.c"
    61                           	line	21
    62  0009                     _dtc_array_list:
    63  0009  3400               	retlw	0
    64  000A  3401               	retlw	01h
    65  000B  3402               	retlw	02h
    66  000C  3403               	retlw	03h
    67  000D  3404               	retlw	04h
    68  000E  3405               	retlw	05h
    69                           	global	_dtc_array_list
    70                           	global	_current_dtc_stack
    71                           	global	_dtc_names
    72                           	global	_toms_variable
    73                           	global	push_dtc_to_stack@dtc_counter
    74                           	global	_CARRY
    75  0018                     _CARRY	set	24
    76                           	global	_GIE
    77  005F                     _GIE	set	95
    78                           	global	_EEADR
    79  010D                     _EEADR	set	269
    80                           	global	_EEDATA
    81  010C                     _EEDATA	set	268
    82                           	global	_EECON1
    83  018C                     _EECON1	set	396
    84                           	global	_EECON2
    85  018D                     _EECON2	set	397
    86                           	global	_RD
    87  0C60                     _RD	set	3168
    88                           	global	_WR
    89  0C61                     _WR	set	3169
    90                           	global	_WREN
    91  0C62                     _WREN	set	3170
    92                           	file	"dtc_chrono_stack.as"
    93                           	line	#
    94                           psect cinit,class=CODE,delta=2
    95                           global start_initialization
    96  0703                     start_initialization:
    97                           
    98                           psect	bssCOMMON,class=COMMON,space=1
    99                           global __pbssCOMMON
   100  007D                     __pbssCOMMON:
   101  007D                     push_dtc_to_stack@dtc_counter:
   102  007D                            ds      1
   103                           
   104                           psect	bssBANK0,class=BANK0,space=1
   105                           global __pbssBANK0
   106  0020                     __pbssBANK0:
   107  0020                     _current_dtc_stack:
   108  0020                            ds      6
   109                           
   110  0026                     _dtc_names:
   111  0026                            ds      1
   112                           
   113  0027                     _toms_variable:
   114  0027                            ds      1
   115                           
   116                           ; Clear objects allocated to COMMON
   117                           psect cinit,class=CODE,delta=2
   118  0703  01FD               	clrf	((__pbssCOMMON)+0)&07Fh
   119                           ; Clear objects allocated to BANK0
   120                           psect cinit,class=CODE,delta=2
   121  0704  01A0               	clrf	((__pbssBANK0)+0)&07Fh
   122  0705  01A1               	clrf	((__pbssBANK0)+1)&07Fh
   123  0706  01A2               	clrf	((__pbssBANK0)+2)&07Fh
   124  0707  01A3               	clrf	((__pbssBANK0)+3)&07Fh
   125  0708  01A4               	clrf	((__pbssBANK0)+4)&07Fh
   126  0709  01A5               	clrf	((__pbssBANK0)+5)&07Fh
   127  070A  01A6               	clrf	((__pbssBANK0)+6)&07Fh
   128  070B  01A7               	clrf	((__pbssBANK0)+7)&07Fh
   129                           psect cinit,class=CODE,delta=2
   130                           global end_of_initialization
   131                           
   132                           ;End of C runtime variable initialization code
   133                           
   134  070C                     end_of_initialization:
   135  070C  0183               clrf status
   136  070D  120A  118A  2F10   ljmp _main	;jump to C main() function
   137                           psect	cstackCOMMON,class=COMMON,space=1
   138                           global __pcstackCOMMON
   139  0070                     __pcstackCOMMON:
   140                           	global	?_push_dtc_to_stack
   141  0070                     ?_push_dtc_to_stack:	; 0 bytes @ 0x0
   142                           	global	??_push_dtc_to_stack
   143  0070                     ??_push_dtc_to_stack:	; 0 bytes @ 0x0
   144                           	global	?_main
   145  0070                     ?_main:	; 0 bytes @ 0x0
   146  0070                     	ds	1
   147                           	global	push_dtc_to_stack@temp
   148  0071                     push_dtc_to_stack@temp:	; 6 bytes @ 0x1
   149  0071                     	ds	6
   150                           	global	push_dtc_to_stack@flag
   151  0077                     push_dtc_to_stack@flag:	; 1 bytes @ 0x7
   152  0077                     	ds	1
   153                           	global	push_dtc_to_stack@j
   154  0078                     push_dtc_to_stack@j:	; 1 bytes @ 0x8
   155  0078                     	ds	1
   156                           	global	push_dtc_to_stack@dtc_num
   157  0079                     push_dtc_to_stack@dtc_num:	; 1 bytes @ 0x9
   158  0079                     	ds	1
   159                           	global	push_dtc_to_stack@i
   160  007A                     push_dtc_to_stack@i:	; 1 bytes @ 0xA
   161  007A                     	ds	1
   162                           	global	??_main
   163  007B                     ??_main:	; 0 bytes @ 0xB
   164  007B                     	ds	1
   165                           	global	main@reported_dtc
   166  007C                     main@reported_dtc:	; 1 bytes @ 0xC
   167  007C                     	ds	1
   168 ;;Data sizes: Strings 0, constant 6, data 0, bss 9, persistent 0 stack 0
   169 ;;Auto spaces:   Size  Autos    Used
   170 ;; COMMON          14     13      14
   171 ;; BANK0           80      0       8
   172 ;; BANK1           80      0       0
   173 ;; BANK3           96      0       0
   174 ;; BANK2           96      0       0
   175                           
   176 ;;
   177 ;; Pointer list with targets:
   178                           
   179                           
   180                           
   181 ;;
   182 ;; Critical Paths under _main in COMMON
   183 ;;
   184 ;;   _main->_push_dtc_to_stack
   185 ;;
   186 ;; Critical Paths under _main in BANK0
   187 ;;
   188 ;;   None.
   189 ;;
   190 ;; Critical Paths under _main in BANK1
   191 ;;
   192 ;;   None.
   193 ;;
   194 ;; Critical Paths under _main in BANK3
   195 ;;
   196 ;;   None.
   197 ;;
   198 ;; Critical Paths under _main in BANK2
   199 ;;
   200 ;;   None.
   201                           
   202 ;;
   203 ;;Main: autosize = 0, tempsize = 1, incstack = 0, save=0
   204 ;;
   205                           
   206 ;;
   207 ;;Call Graph Tables:
   208 ;;
   209 ;; ---------------------------------------------------------------------------------
   210 ;; (Depth) Function   	        Calls       Base Space   Used Autos Params    Refs
   211 ;; ---------------------------------------------------------------------------------
   212 ;; (0) _main                                                 2     2      0     617
   213 ;;                                             11 COMMON     2     2      0
   214 ;;                  _push_dtc_to_stack
   215 ;; ---------------------------------------------------------------------------------
   216 ;; (1) _push_dtc_to_stack                                   11    11      0     479
   217 ;;                                              0 COMMON    11    11      0
   218 ;; ---------------------------------------------------------------------------------
   219 ;; Estimated maximum stack depth 1
   220 ;; ---------------------------------------------------------------------------------
   221                           
   222 ;; Call Graph Graphs:
   223                           
   224 ;; _main (ROOT)
   225 ;;   _push_dtc_to_stack
   226 ;;
   227                           
   228 ;; Address spaces:
   229                           
   230 ;;Name               Size   Autos  Total    Cost      Usage
   231 ;;BITCOMMON            E      0       0       0        0.0%
   232 ;;EEDATA             100      0       0       0        0.0%
   233 ;;NULL                 0      0       0       0        0.0%
   234 ;;CODE                 0      0       0       0        0.0%
   235 ;;COMMON               E      D       E       1      100.0%
   236 ;;BITSFR0              0      0       0       1        0.0%
   237 ;;SFR0                 0      0       0       1        0.0%
   238 ;;BITSFR1              0      0       0       2        0.0%
   239 ;;SFR1                 0      0       0       2        0.0%
   240 ;;STACK                0      0       1       2        0.0%
   241 ;;ABS                  0      0      16       3        0.0%
   242 ;;BITBANK0            50      0       0       4        0.0%
   243 ;;BITSFR3              0      0       0       4        0.0%
   244 ;;SFR3                 0      0       0       4        0.0%
   245 ;;BANK0               50      0       8       5       10.0%
   246 ;;BITSFR2              0      0       0       5        0.0%
   247 ;;SFR2                 0      0       0       5        0.0%
   248 ;;BITBANK1            50      0       0       6        0.0%
   249 ;;BANK1               50      0       0       7        0.0%
   250 ;;BITBANK3            60      0       0       8        0.0%
   251 ;;BANK3               60      0       0       9        0.0%
   252 ;;BITBANK2            60      0       0      10        0.0%
   253 ;;BANK2               60      0       0      11        0.0%
   254 ;;DATA                 0      0      17      12        0.0%
   255                           
   256                           	global	_main
   257                           psect	maintext,global,class=CODE,delta=2
   258                           global __pmaintext
   259  0710                     __pmaintext:
   260                           
   261 ;; *************** function _main *****************
   262 ;; Defined at:
   263 ;;		line 42 in file "C:\pic_projects\dtc_chrono_stack\main.c"
   264 ;; Parameters:    Size  Location     Type
   265 ;;		None
   266 ;; Auto vars:     Size  Location     Type
   267 ;;  reported_dtc    1   12[COMMON] unsigned char 
   268 ;; Return value:  Size  Location     Type
   269 ;;		None               void
   270 ;; Registers used:
   271 ;;		wreg, fsr0l, fsr0h, status,2, status,0, pclath, cstack
   272 ;; Tracked objects:
   273 ;;		On entry : 17F/0
   274 ;;		On exit  : 0/0
   275 ;;		Unchanged: 0/0
   276 ;; Data sizes:     COMMON   BANK0   BANK1   BANK3   BANK2
   277 ;;      Params:         0       0       0       0       0
   278 ;;      Locals:         1       0       0       0       0
   279 ;;      Temps:          1       0       0       0       0
   280 ;;      Totals:         2       0       0       0       0
   281 ;;Total ram usage:        2 bytes
   282 ;; Hardware stack levels required when called:    1
   283 ;; This function calls:
   284 ;;		_push_dtc_to_stack
   285 ;; This function is called by:
   286 ;;		Startup code after reset
   287 ;; This function uses a non-reentrant model
   288 ;;
   289                           psect	maintext
   290                           	file	"C:\pic_projects\dtc_chrono_stack\main.c"
   291                           	line	42
   292                           	global	__size_of_main
   293  0041                     	__size_of_main	equ	__end_of_main-_main
   294                           	
   295  0710                     _main:	
   296                           	opt	stack 7
   297                           ; Regs used in _main: [wreg-fsr0h+status,2+status,0+pclath+cstack]
   298                           	line	45
   299                           ;main.c: 43: uint8_t reported_dtc;
   300                           ;main.c: 45: while(1)
   301                           	
   302  0710                     l845:	
   303                           	line	47
   304                           	
   305  0710                     l3228:	
   306                           ;main.c: 46: {
   307                           ;main.c: 47: reported_dtc = OPEN;
   308  0710  01FC               	clrf	(main@reported_dtc)
   309  0711  1403               	bsf	status,0
   310  0712  0DFC               	rlf	(main@reported_dtc),f
   311                           	line	48
   312                           	
   313  0713                     l3230:	
   314                           ;main.c: 48: push_dtc_to_stack(reported_dtc);
   315  0713  087C               	movf	(main@reported_dtc),w
   316  0714  120A  118A  2751   	fcall	_push_dtc_to_stack
              120A  118A         
   317                           	line	50
   318                           	
   319  0719                     l3232:	
   320                           ;main.c: 50: reported_dtc = SHORT;
   321  0719  3002               	movlw	(02h)
   322  071A  00FB               	movwf	(??_main+0)+0
   323  071B  087B               	movf	(??_main+0)+0,w
   324  071C  00FC               	movwf	(main@reported_dtc)
   325                           	line	51
   326                           	
   327  071D                     l3234:	
   328                           ;main.c: 51: push_dtc_to_stack(reported_dtc);
   329  071D  087C               	movf	(main@reported_dtc),w
   330  071E  120A  118A  2751   	fcall	_push_dtc_to_stack
              120A  118A         
   331                           	line	53
   332                           	
   333  0723                     l3236:	
   334                           ;main.c: 53: reported_dtc = INVALID_CONFIG;
   335  0723  3004               	movlw	(04h)
   336  0724  00FB               	movwf	(??_main+0)+0
   337  0725  087B               	movf	(??_main+0)+0,w
   338  0726  00FC               	movwf	(main@reported_dtc)
   339                           	line	54
   340                           	
   341  0727                     l3238:	
   342                           ;main.c: 54: push_dtc_to_stack(reported_dtc);
   343  0727  087C               	movf	(main@reported_dtc),w
   344  0728  120A  118A  2751   	fcall	_push_dtc_to_stack
              120A  118A         
   345                           	line	56
   346                           	
   347  072D                     l3240:	
   348                           ;main.c: 56: reported_dtc = PARTIAL_LOAD;
   349  072D  3005               	movlw	(05h)
   350  072E  00FB               	movwf	(??_main+0)+0
   351  072F  087B               	movf	(??_main+0)+0,w
   352  0730  00FC               	movwf	(main@reported_dtc)
   353                           	line	57
   354                           	
   355  0731                     l3242:	
   356                           ;main.c: 57: push_dtc_to_stack(reported_dtc);
   357  0731  087C               	movf	(main@reported_dtc),w
   358  0732  120A  118A  2751   	fcall	_push_dtc_to_stack
              120A  118A         
   359                           	line	59
   360                           	
   361  0737                     l3244:	
   362                           ;main.c: 59: reported_dtc = LOSS_COMM;
   363  0737  3003               	movlw	(03h)
   364  0738  00FB               	movwf	(??_main+0)+0
   365  0739  087B               	movf	(??_main+0)+0,w
   366  073A  00FC               	movwf	(main@reported_dtc)
   367                           	line	60
   368                           	
   369  073B                     l3246:	
   370                           ;main.c: 60: push_dtc_to_stack(reported_dtc);
   371  073B  087C               	movf	(main@reported_dtc),w
   372  073C  120A  118A  2751   	fcall	_push_dtc_to_stack
              120A  118A         
   373                           	line	62
   374                           	
   375  0741                     l3248:	
   376                           # 62 "C:\pic_projects\dtc_chrono_stack\main.c"
   377  0741  0000               nop ;#
   378                           psect	maintext
   379                           	line	63
   380                           	
   381  0742                     l3250:	
   382                           ;main.c: 63: reported_dtc = INVALID_CONFIG;
   383  0742  3004               	movlw	(04h)
   384  0743  00FB               	movwf	(??_main+0)+0
   385  0744  087B               	movf	(??_main+0)+0,w
   386  0745  00FC               	movwf	(main@reported_dtc)
   387                           	line	64
   388                           	
   389  0746                     l3252:	
   390                           ;main.c: 64: push_dtc_to_stack(reported_dtc);
   391  0746  087C               	movf	(main@reported_dtc),w
   392  0747  120A  118A  2751   	fcall	_push_dtc_to_stack
              120A  118A         
   393  074C  2F10               	goto	l845
   394                           	line	70
   395                           	
   396  074D                     l846:	
   397                           	line	45
   398  074D  2F10               	goto	l845
   399                           	
   400  074E                     l847:	
   401                           	line	71
   402                           	
   403  074E                     l848:	
   404                           	global	start
   405  074E  120A  118A  2800   	ljmp	start
   406                           	opt stack 0
   407                           GLOBAL	__end_of_main
   408  0751                     	__end_of_main:
   409 ;; =============== function _main ends ============
   410                           
   411                           	signat	_main,88
   412                           	global	_push_dtc_to_stack
   413                           psect	text75,local,class=CODE,delta=2
   414                           global __ptext75
   415  0751                     __ptext75:
   416                           
   417 ;; *************** function _push_dtc_to_stack *****************
   418 ;; Defined at:
   419 ;;		line 86 in file "C:\pic_projects\dtc_chrono_stack\main.c"
   420 ;; Parameters:    Size  Location     Type
   421 ;;  dtc_num         1    wreg     unsigned char 
   422 ;; Auto vars:     Size  Location     Type
   423 ;;  dtc_num         1    9[COMMON] unsigned char 
   424 ;;  temp            6    1[COMMON] unsigned char [6]
   425 ;;  i               1   10[COMMON] unsigned char 
   426 ;;  j               1    8[COMMON] unsigned char 
   427 ;;  flag            1    7[COMMON] unsigned char 
   428 ;; Return value:  Size  Location     Type
   429 ;;		None               void
   430 ;; Registers used:
   431 ;;		wreg, fsr0l, fsr0h, status,2, status,0
   432 ;; Tracked objects:
   433 ;;		On entry : 0/0
   434 ;;		On exit  : 0/0
   435 ;;		Unchanged: 0/0
   436 ;; Data sizes:     COMMON   BANK0   BANK1   BANK3   BANK2
   437 ;;      Params:         0       0       0       0       0
   438 ;;      Locals:        10       0       0       0       0
   439 ;;      Temps:          1       0       0       0       0
   440 ;;      Totals:        11       0       0       0       0
   441 ;;Total ram usage:       11 bytes
   442 ;; Hardware stack levels used:    1
   443 ;; This function calls:
   444 ;;		Nothing
   445 ;; This function is called by:
   446 ;;		_main
   447 ;; This function uses a non-reentrant model
   448 ;;
   449                           psect	text75
   450                           	file	"C:\pic_projects\dtc_chrono_stack\main.c"
   451                           	line	86
   452                           	global	__size_of_push_dtc_to_stack
   453  00AF                     	__size_of_push_dtc_to_stack	equ	__end_of_push_dtc_to_stack-_push_dtc_to_stack
   454                           	
   455  0751                     _push_dtc_to_stack:	
   456                           	opt	stack 7
   457                           ; Regs used in _push_dtc_to_stack: [wreg-fsr0h+status,2+status,0]
   458                           ;push_dtc_to_stack@dtc_num stored from wreg
   459                           	line	95
   460  0751  00F9               	movwf	(push_dtc_to_stack@dtc_num)
   461                           	
   462  0752                     l3166:	
   463                           ;main.c: 88: uint8_t i;
   464                           ;main.c: 89: uint8_t j;
   465                           ;main.c: 90: uint8_t flag;
   466                           ;main.c: 91: uint8_t temp[(6)];
   467                           ;main.c: 92: static uint8_t dtc_counter;
   468                           ;main.c: 95: if(dtc_num >= (6))
   469  0752  3006               	movlw	(06h)
   470  0753  0279               	subwf	(push_dtc_to_stack@dtc_num),w
   471  0754  1C03               	skipc
   472  0755  2F57               	goto	u2321
   473  0756  2F58               	goto	u2320
   474  0757                     u2321:
   475  0757  2F5A               	goto	l3170
   476  0758                     u2320:
   477                           	line	98
   478                           	
   479  0758                     l3168:	
   480                           # 98 "C:\pic_projects\dtc_chrono_stack\main.c"
   481  0758  0000               nop ;#
   482                           psect	text75
   483                           	line	99
   484                           ;main.c: 99: }
   485  0759  2FFF               	goto	l867
   486                           	line	101
   487                           	
   488  075A                     l853:	
   489                           	line	103
   490                           	
   491  075A                     l3170:	
   492                           ;main.c: 101: else
   493                           ;main.c: 102: {
   494                           ;main.c: 103: if(dtc_counter == (6) -1)
   495  075A  087D               	movf	(push_dtc_to_stack@dtc_counter),w
   496  075B  3A05               	xorlw	05h
   497  075C  1D03               	skipz
   498  075D  2F5F               	goto	u2331
   499  075E  2F60               	goto	u2330
   500  075F                     u2331:
   501  075F  2FDC               	goto	l3216
   502  0760                     u2330:
   503                           	line	105
   504                           	
   505  0760                     l3172:	
   506                           ;main.c: 104: {
   507                           ;main.c: 105: dtc_counter=0;
   508  0760  01FD               	clrf	(push_dtc_to_stack@dtc_counter)
   509                           	line	107
   510                           ;main.c: 107: j=0;
   511  0761  01F8               	clrf	(push_dtc_to_stack@j)
   512                           	line	110
   513                           ;main.c: 110: for(i=0; (i<(6)-1);i++)
   514  0762  01FA               	clrf	(push_dtc_to_stack@i)
   515                           	
   516  0763                     l3174:	
   517  0763  3005               	movlw	(05h)
   518  0764  027A               	subwf	(push_dtc_to_stack@i),w
   519  0765  1C03               	skipc
   520  0766  2F68               	goto	u2341
   521  0767  2F69               	goto	u2340
   522  0768                     u2341:
   523  0768  2F6B               	goto	l3178
   524  0769                     u2340:
   525  0769  2F85               	goto	l857
   526                           	
   527  076A                     l3176:	
   528  076A  2F85               	goto	l857
   529                           	line	111
   530                           	
   531  076B                     l856:	
   532                           	line	112
   533                           	
   534  076B                     l3178:	
   535                           ;main.c: 111: {
   536                           ;main.c: 112: if(current_dtc_stack[i] == dtc_num)
   537  076B  087A               	movf	(push_dtc_to_stack@i),w
   538  076C  3E20               	addlw	_current_dtc_stack&0ffh
   539  076D  0084               	movwf	fsr0
   540  076E  1383               	bcf	status, 7	;select IRP bank0
   541  076F  0800               	movf	indf,w
   542  0770  0679               	xorwf	(push_dtc_to_stack@dtc_num),w
   543  0771  1D03               	skipz
   544  0772  2F74               	goto	u2351
   545  0773  2F75               	goto	u2350
   546  0774                     u2351:
   547  0774  2F7B               	goto	l3182
   548  0775                     u2350:
   549                           	line	114
   550                           	
   551  0775                     l3180:	
   552                           ;main.c: 113: {
   553                           ;main.c: 114: current_dtc_stack[i]=0;
   554  0775  087A               	movf	(push_dtc_to_stack@i),w
   555  0776  3E20               	addlw	_current_dtc_stack&0ffh
   556  0777  0084               	movwf	fsr0
   557  0778  0180               	clrf	indf
   558                           	line	115
   559                           ;main.c: 115: }
   560  0779  2F7B               	goto	l3182
   561                           	line	116
   562                           	
   563  077A                     l858:	
   564  077A  2F7B               	goto	l3182
   565                           	line	119
   566                           ;main.c: 116: else
   567                           ;main.c: 117: {
   568                           	
   569  077B                     l859:	
   570                           	line	110
   571                           	
   572  077B                     l3182:	
   573  077B  3001               	movlw	(01h)
   574  077C  00F0               	movwf	(??_push_dtc_to_stack+0)+0
   575  077D  0870               	movf	(??_push_dtc_to_stack+0)+0,w
   576  077E  07FA               	addwf	(push_dtc_to_stack@i),f
   577                           	
   578  077F                     l3184:	
   579  077F  3005               	movlw	(05h)
   580  0780  027A               	subwf	(push_dtc_to_stack@i),w
   581  0781  1C03               	skipc
   582  0782  2F84               	goto	u2361
   583  0783  2F85               	goto	u2360
   584  0784                     u2361:
   585  0784  2F6B               	goto	l3178
   586  0785                     u2360:
   587                           	
   588  0785                     l857:	
   589                           	line	122
   590                           ;main.c: 119: }
   591                           ;main.c: 120: }
   592                           ;main.c: 122: for(i=0; (i<(6)-1);i++)
   593  0785  01FA               	clrf	(push_dtc_to_stack@i)
   594                           	
   595  0786                     l3186:	
   596  0786  3005               	movlw	(05h)
   597  0787  027A               	subwf	(push_dtc_to_stack@i),w
   598  0788  1C03               	skipc
   599  0789  2F8B               	goto	u2371
   600  078A  2F8C               	goto	u2370
   601  078B                     u2371:
   602  078B  2F8E               	goto	l3190
   603  078C                     u2370:
   604  078C  2FA7               	goto	l861
   605                           	
   606  078D                     l3188:	
   607  078D  2FA7               	goto	l861
   608                           	line	123
   609                           	
   610  078E                     l860:	
   611                           	line	124
   612                           	
   613  078E                     l3190:	
   614                           ;main.c: 123: {
   615                           ;main.c: 124: j++;
   616  078E  3001               	movlw	(01h)
   617  078F  00F0               	movwf	(??_push_dtc_to_stack+0)+0
   618  0790  0870               	movf	(??_push_dtc_to_stack+0)+0,w
   619  0791  07F8               	addwf	(push_dtc_to_stack@j),f
   620                           	line	125
   621                           	
   622  0792                     l3192:	
   623                           ;main.c: 125: temp[j] = current_dtc_stack[i];
   624  0792  087A               	movf	(push_dtc_to_stack@i),w
   625  0793  3E20               	addlw	_current_dtc_stack&0ffh
   626  0794  0084               	movwf	fsr0
   627  0795  1383               	bcf	status, 7	;select IRP bank0
   628  0796  0800               	movf	indf,w
   629  0797  00F0               	movwf	(??_push_dtc_to_stack+0)+0
   630  0798  0878               	movf	(push_dtc_to_stack@j),w
   631  0799  3E71               	addlw	push_dtc_to_stack@temp&0ffh
   632  079A  0084               	movwf	fsr0
   633  079B  0870               	movf	(??_push_dtc_to_stack+0)+0,w
   634  079C  0080               	movwf	indf
   635                           	line	122
   636                           	
   637  079D                     l3194:	
   638  079D  3001               	movlw	(01h)
   639  079E  00F0               	movwf	(??_push_dtc_to_stack+0)+0
   640  079F  0870               	movf	(??_push_dtc_to_stack+0)+0,w
   641  07A0  07FA               	addwf	(push_dtc_to_stack@i),f
   642                           	
   643  07A1                     l3196:	
   644  07A1  3005               	movlw	(05h)
   645  07A2  027A               	subwf	(push_dtc_to_stack@i),w
   646  07A3  1C03               	skipc
   647  07A4  2FA6               	goto	u2381
   648  07A5  2FA7               	goto	u2380
   649  07A6                     u2381:
   650  07A6  2F8E               	goto	l3190
   651  07A7                     u2380:
   652                           	
   653  07A7                     l861:	
   654                           	line	127
   655                           ;main.c: 126: }
   656                           ;main.c: 127: temp[(6)-1]=0;
   657  07A7  01F6               	clrf	0+(push_dtc_to_stack@temp)+05h
   658                           	line	128
   659                           	
   660  07A8                     l3198:	
   661                           ;main.c: 128: j=1;
   662  07A8  01F8               	clrf	(push_dtc_to_stack@j)
   663  07A9  1403               	bsf	status,0
   664  07AA  0DF8               	rlf	(push_dtc_to_stack@j),f
   665                           	line	130
   666                           ;main.c: 130: for(i=1; (i<(6)-1);i++)
   667  07AB  01FA               	clrf	(push_dtc_to_stack@i)
   668  07AC  1403               	bsf	status,0
   669  07AD  0DFA               	rlf	(push_dtc_to_stack@i),f
   670                           	
   671  07AE                     l3200:	
   672  07AE  3005               	movlw	(05h)
   673  07AF  027A               	subwf	(push_dtc_to_stack@i),w
   674  07B0  1C03               	skipc
   675  07B1  2FB3               	goto	u2391
   676  07B2  2FB4               	goto	u2390
   677  07B3                     u2391:
   678  07B3  2FB6               	goto	l3204
   679  07B4                     u2390:
   680  07B4  2FD0               	goto	l3212
   681                           	
   682  07B5                     l3202:	
   683  07B5  2FD0               	goto	l3212
   684                           	line	131
   685                           	
   686  07B6                     l862:	
   687                           	line	132
   688                           	
   689  07B6                     l3204:	
   690                           ;main.c: 131: {
   691                           ;main.c: 132: current_dtc_stack[i] = temp[j];
   692  07B6  0878               	movf	(push_dtc_to_stack@j),w
   693  07B7  3E71               	addlw	push_dtc_to_stack@temp&0ffh
   694  07B8  0084               	movwf	fsr0
   695  07B9  0800               	movf	indf,w
   696  07BA  00F0               	movwf	(??_push_dtc_to_stack+0)+0
   697  07BB  087A               	movf	(push_dtc_to_stack@i),w
   698  07BC  3E20               	addlw	_current_dtc_stack&0ffh
   699  07BD  0084               	movwf	fsr0
   700  07BE  0870               	movf	(??_push_dtc_to_stack+0)+0,w
   701  07BF  1383               	bcf	status, 7	;select IRP bank0
   702  07C0  0080               	movwf	indf
   703                           	line	133
   704                           	
   705  07C1                     l3206:	
   706                           ;main.c: 133: j++;
   707  07C1  3001               	movlw	(01h)
   708  07C2  00F0               	movwf	(??_push_dtc_to_stack+0)+0
   709  07C3  0870               	movf	(??_push_dtc_to_stack+0)+0,w
   710  07C4  07F8               	addwf	(push_dtc_to_stack@j),f
   711                           	line	130
   712                           	
   713  07C5                     l3208:	
   714  07C5  3001               	movlw	(01h)
   715  07C6  00F0               	movwf	(??_push_dtc_to_stack+0)+0
   716  07C7  0870               	movf	(??_push_dtc_to_stack+0)+0,w
   717  07C8  07FA               	addwf	(push_dtc_to_stack@i),f
   718                           	
   719  07C9                     l3210:	
   720  07C9  3005               	movlw	(05h)
   721  07CA  027A               	subwf	(push_dtc_to_stack@i),w
   722  07CB  1C03               	skipc
   723  07CC  2FCE               	goto	u2401
   724  07CD  2FCF               	goto	u2400
   725  07CE                     u2401:
   726  07CE  2FB6               	goto	l3204
   727  07CF                     u2400:
   728  07CF  2FD0               	goto	l3212
   729                           	
   730  07D0                     l863:	
   731                           	line	136
   732                           	
   733  07D0                     l3212:	
   734                           ;main.c: 134: }
   735                           ;main.c: 136: current_dtc_stack[dtc_counter] = dtc_num;
   736  07D0  0879               	movf	(push_dtc_to_stack@dtc_num),w
   737  07D1  00F0               	movwf	(??_push_dtc_to_stack+0)+0
   738  07D2  087D               	movf	(push_dtc_to_stack@dtc_counter),w
   739  07D3  3E20               	addlw	_current_dtc_stack&0ffh
   740  07D4  0084               	movwf	fsr0
   741  07D5  0870               	movf	(??_push_dtc_to_stack+0)+0,w
   742  07D6  1383               	bcf	status, 7	;select IRP bank0
   743  07D7  0080               	movwf	indf
   744                           	line	137
   745                           	
   746  07D8                     l3214:	
   747                           ;main.c: 137: flag=1;
   748  07D8  01F7               	clrf	(push_dtc_to_stack@flag)
   749  07D9  1403               	bsf	status,0
   750  07DA  0DF7               	rlf	(push_dtc_to_stack@flag),f
   751                           	line	138
   752                           ;main.c: 138: }
   753  07DB  2FFF               	goto	l867
   754                           	line	139
   755                           	
   756  07DC                     l855:	
   757                           	
   758  07DC                     l3216:	
   759                           ;main.c: 139: else if (flag == 1)
   760  07DC  0877               	movf	(push_dtc_to_stack@flag),w
   761  07DD  3A01               	xorlw	01h
   762  07DE  1D03               	skipz
   763  07DF  2FE1               	goto	u2411
   764  07E0  2FE2               	goto	u2410
   765  07E1                     u2411:
   766  07E1  2FF0               	goto	l3224
   767  07E2                     u2410:
   768                           	line	141
   769                           	
   770  07E2                     l3218:	
   771                           ;main.c: 140: {
   772                           ;main.c: 141: current_dtc_stack[dtc_counter] = dtc_num;
   773  07E2  0879               	movf	(push_dtc_to_stack@dtc_num),w
   774  07E3  00F0               	movwf	(??_push_dtc_to_stack+0)+0
   775  07E4  087D               	movf	(push_dtc_to_stack@dtc_counter),w
   776  07E5  3E20               	addlw	_current_dtc_stack&0ffh
   777  07E6  0084               	movwf	fsr0
   778  07E7  0870               	movf	(??_push_dtc_to_stack+0)+0,w
   779  07E8  1383               	bcf	status, 7	;select IRP bank0
   780  07E9  0080               	movwf	indf
   781                           	line	142
   782                           	
   783  07EA                     l3220:	
   784                           ;main.c: 142: dtc_counter = (6) -1;
   785  07EA  3005               	movlw	(05h)
   786  07EB  00F0               	movwf	(??_push_dtc_to_stack+0)+0
   787  07EC  0870               	movf	(??_push_dtc_to_stack+0)+0,w
   788  07ED  00FD               	movwf	(push_dtc_to_stack@dtc_counter)
   789                           	line	143
   790                           	
   791  07EE                     l3222:	
   792                           ;main.c: 143: flag=0;
   793  07EE  01F7               	clrf	(push_dtc_to_stack@flag)
   794                           	line	144
   795                           ;main.c: 144: }
   796  07EF  2FFF               	goto	l867
   797                           	line	146
   798                           	
   799  07F0                     l865:	
   800                           	line	148
   801                           	
   802  07F0                     l3224:	
   803                           ;main.c: 146: else
   804                           ;main.c: 147: {
   805                           ;main.c: 148: current_dtc_stack[dtc_counter] = dtc_num;
   806  07F0  0879               	movf	(push_dtc_to_stack@dtc_num),w
   807  07F1  00F0               	movwf	(??_push_dtc_to_stack+0)+0
   808  07F2  087D               	movf	(push_dtc_to_stack@dtc_counter),w
   809  07F3  3E20               	addlw	_current_dtc_stack&0ffh
   810  07F4  0084               	movwf	fsr0
   811  07F5  0870               	movf	(??_push_dtc_to_stack+0)+0,w
   812  07F6  1383               	bcf	status, 7	;select IRP bank0
   813  07F7  0080               	movwf	indf
   814                           	line	149
   815                           	
   816  07F8                     l3226:	
   817                           ;main.c: 149: dtc_counter++;
   818  07F8  3001               	movlw	(01h)
   819  07F9  00F0               	movwf	(??_push_dtc_to_stack+0)+0
   820  07FA  0870               	movf	(??_push_dtc_to_stack+0)+0,w
   821  07FB  07FD               	addwf	(push_dtc_to_stack@dtc_counter),f
   822  07FC  2FFF               	goto	l867
   823                           	line	151
   824                           	
   825  07FD                     l866:	
   826  07FD  2FFF               	goto	l867
   827                           	
   828  07FE                     l864:	
   829  07FE  2FFF               	goto	l867
   830                           	line	154
   831                           	
   832  07FF                     l854:	
   833                           	line	157
   834                           	
   835  07FF                     l867:	
   836  07FF  0008               	return
   837                           	opt stack 0
   838                           GLOBAL	__end_of_push_dtc_to_stack
   839  0800                     	__end_of_push_dtc_to_stack:
   840 ;; =============== function _push_dtc_to_stack ends ============
   841                           
   842                           	signat	_push_dtc_to_stack,4216
   843                           psect	text76,local,class=CODE,delta=2
   844                           global __ptext76
   845  0000                     __ptext76:
   846                           	global	btemp
   847  007E                     	btemp set 07Eh
   848                           
   849                           	DABS	1,126,2	;btemp
   850                           	global	wtemp0
   851  007E                     	wtemp0 set btemp


HI-TECH Software PICC Macro Assembler V9.83 build 10920 
Symbol Table                                                                                   Mon Aug 27 16:07:37 2012

    push_dtc_to_stack@dtc_num 0079         push_dtc_to_stack@temp 0071                             pc 0002  
                          _RD 0C60                            _WR 0C61                            fsr 0004  
                         l860 078E                           l861 07A7                           l853 075A  
                         l845 0710                           l854 07FF                           l862 07B6  
                         l846 074D                           l855 07DC                           l863 07D0  
                         l847 074E                           l864 07FE                           l856 076B  
                         l848 074E                           l865 07F0                           l857 0785  
                         l866 07FD                           l858 077A                           l859 077B  
                         l867 07FF                           _GIE 005F                           fsr0 0004  
                         indf 0000                          l3200 07AE                          l3210 07C9  
                        l3202 07B5                          l3220 07EA                          l3212 07D0  
                        l3204 07B6                          l3222 07EE                          l3214 07D8  
                        l3206 07C1                          l3230 0713                          l3224 07F0  
                        l3208 07C5                          l3216 07DC                          l3240 072D  
                        l3232 0719                          l3226 07F8                          l3218 07E2  
                        l3170 075A                          l3250 0742                          l3242 0731  
                        l3234 071D                          l3180 0775                          l3172 0760  
                        l3252 0746                          l3244 0737                          l3236 0723  
                        l3228 0710                          l3190 078E                          l3182 077B  
                        l3174 0763                          l3166 0752                          l3246 073B  
                        l3238 0727                          l3192 0792                          l3184 077F  
                        l3176 076A                          l3168 0758                          l3248 0741  
                        l3194 079D                          l3186 0786                          l3178 076B  
                        l3196 07A1                          l3188 078D                          l3198 07A8  
                        u2400 07CF                          u2320 0758                          u2401 07CE  
                        u2321 0757                          u2410 07E2                          u2330 0760  
                        u2411 07E1                          u2331 075F                          u2340 0769  
                        u2341 0768                          u2350 0775                          u2351 0774  
                        u2360 0785                          u2361 0784                          u2370 078C  
                        u2371 078B                          u2380 07A7                          u2381 07A6  
                        u2390 07B4                          u2391 07B3                          _WREN 0C62  
                        _main 0710                          btemp 007E                          start 0000  
                       ?_main 0070                         _EEADR 010D                         _CARRY 0018  
                       pclath 000A                         status 0003                         wtemp0 007E  
                __end_of_main 0751                        ??_main 007B                 _toms_variable 0027  
                      _EEDATA 010C                        _EECON1 018C                        _EECON2 018D  
              __pcstackCOMMON 0070             _push_dtc_to_stack 0751  push_dtc_to_stack@dtc_counter 007D  
          ?_push_dtc_to_stack 0070           ??_push_dtc_to_stack 0070                    __pbssBANK0 0020  
                  __pmaintext 0710     __end_of_push_dtc_to_stack 0800          end_of_initialization 070C  
  __size_of_push_dtc_to_stack 00AF           start_initialization 0703                   __pbssCOMMON 007D  
                   _dtc_names 0026                     __pstrings 0003            push_dtc_to_stack@i 007A  
          push_dtc_to_stack@j 0078                   __stringbase 0008              main@reported_dtc 007C  
                    __ptext75 0751                      __ptext76 0000                _dtc_array_list 0009  
               __size_of_main 0041                     stringcode 0003                      stringdir 0003  
                    stringtab 0003             _current_dtc_stack 0020         push_dtc_to_stack@flag 0077  
