date Thu Sep 3 09:30:52 am 2015
base hex  timestamps absolute
no internal events logged
// version 8.2.0
   0.000000    SV: 3 0 0 ::CANKBD::MonAr = "Monitor Mode Off"
   0.000000    SV: 3 0 0 ::CANKBD::LangAr = "No Language selected Selected"
   0.000000    SV: 2 0 0 ::CANKBD::RxPDOCnt = 0
   0.000000    SV: 3 0 0 ::CANKBD::NMT = "Inactive"
   0.000000    SV: 2 0 0 ::CANKBD::WriteBtn = 0
   0.000000    SV: 3 0 0 ::CANKBD::Env = "No Environment Selected"
   0.000000    SV: 2 0 0 ::CANKBD::RawByte0 = 0
   0.000000    SV: 2 0 0 ::CANKBD::RawByte1 = 0
   0.000000    SV: 2 0 0 ::CANKBD::RawByte2 = 0
   0.000000    SV: 2 0 0 ::CANKBD::RawByte3 = 0
   0.000000    SV: 2 0 0 ::CANKBD::RawByte4 = 0
   0.000000    SV: 2 0 0 ::CANKBD::RawByte5 = 0
   0.000000    SV: 2 0 0 ::CANKBD::RawByte6 = 0
   0.000000    SV: 2 0 0 ::CANKBD::LastRawByte0 = 0
   0.000000    SV: 2 0 0 ::CANKBD::LastRawByte1 = 0
   0.000000    SV: 2 0 0 ::CANKBD::LastRawByte2 = 0
   0.000000    SV: 2 0 0 ::CANKBD::LastRawByte3 = 0
   0.000000    SV: 2 0 0 ::CANKBD::LastRawByte4 = 0
   0.000000    SV: 2 0 0 ::CANKBD::LastRawByte5 = 0
   0.000000    SV: 2 0 0 ::CANKBD::LastRawByte6 = 0
   0.073561 1  776             Rx   d 1 05  Length = 107898 BitCount = 58 ID = 1910
   0.073561    SV: 3 0 0 ::CANKBD::NMT = "NMT Operational"
   0.173520 1  776             Rx   d 1 05  Length = 107898 BitCount = 58 ID = 1910
   0.173520    SV: 3 0 0 ::CANKBD::NMT = "NMT Operational"
   0.273581 1  776             Rx   d 1 05  Length = 107898 BitCount = 58 ID = 1910
   0.273581    SV: 3 0 0 ::CANKBD::NMT = "NMT Operational"
   0.373536 1  776             Rx   d 1 05  Length = 107898 BitCount = 58 ID = 1910
   0.373536    SV: 3 0 0 ::CANKBD::NMT = "NMT Operational"
   0.473605 1  776             Rx   d 1 05  Length = 107898 BitCount = 58 ID = 1910
   0.473605    SV: 3 0 0 ::CANKBD::NMT = "NMT Operational"
   0.573556 1  776             Rx   d 1 05  Length = 107898 BitCount = 58 ID = 1910
   0.573556    SV: 3 0 0 ::CANKBD::NMT = "NMT Operational"
   0.673511 1  776             Rx   d 1 05  Length = 107898 BitCount = 58 ID = 1910
   0.673511    SV: 3 0 0 ::CANKBD::NMT = "NMT Operational"
   0.773582 1  776             Rx   d 1 05  Length = 107898 BitCount = 58 ID = 1910
   0.773582    SV: 3 0 0 ::CANKBD::NMT = "NMT Operational"
   0.873533 1  776             Rx   d 1 05  Length = 107898 BitCount = 58 ID = 1910
   0.873533    SV: 3 0 0 ::CANKBD::NMT = "NMT Operational"
   0.973485 1  776             Rx   d 1 05  Length = 107898 BitCount = 58 ID = 1910
   0.973485    SV: 3 0 0 ::CANKBD::NMT = "NMT Operational"
   1.073554 1  776             Rx   d 1 05  Length = 107898 BitCount = 58 ID = 1910
   1.073554    SV: 3 0 0 ::CANKBD::NMT = "NMT Operational"
   1.173507 1  776             Rx   d 1 05  Length = 107898 BitCount = 58 ID = 1910
   1.173507    SV: 3 0 0 ::CANKBD::NMT = "NMT Operational"
   1.273462 1  776             Rx   d 1 05  Length = 107898 BitCount = 58 ID = 1910
   1.273462    SV: 3 0 0 ::CANKBD::NMT = "NMT Operational"
   1.373531 1  776             Rx   d 1 05  Length = 107898 BitCount = 58 ID = 1910
   1.373531    SV: 3 0 0 ::CANKBD::NMT = "NMT Operational"
   1.473482 1  776             Rx   d 1 05  Length = 107898 BitCount = 58 ID = 1910
   1.473482    SV: 3 0 0 ::CANKBD::NMT = "NMT Operational"
   1.573547 1  776             Rx   d 1 05  Length = 107898 BitCount = 58 ID = 1910
   1.573547    SV: 3 0 0 ::CANKBD::NMT = "NMT Operational"
   1.673508 1  776             Rx   d 1 05  Length = 107898 BitCount = 58 ID = 1910
   1.673508    SV: 3 0 0 ::CANKBD::NMT = "NMT Operational"
   1.773461 1  776             Rx   d 1 05  Length = 107898 BitCount = 58 ID = 1910
   1.773461    SV: 3 0 0 ::CANKBD::NMT = "NMT Operational"
   1.873522 1  776             Rx   d 1 05  Length = 107898 BitCount = 58 ID = 1910
   1.873522    SV: 3 0 0 ::CANKBD::NMT = "NMT Operational"
   1.973483 1  776             Rx   d 1 05  Length = 107898 BitCount = 58 ID = 1910
   1.973483    SV: 3 0 0 ::CANKBD::NMT = "NMT Operational"
   2.073436 1  776             Rx   d 1 05  Length = 107898 BitCount = 58 ID = 1910
   2.073436    SV: 3 0 0 ::CANKBD::NMT = "NMT Operational"
   2.173499 1  776             Rx   d 1 05  Length = 107898 BitCount = 58 ID = 1910
   2.173499    SV: 3 0 0 ::CANKBD::NMT = "NMT Operational"
   2.273460 1  776             Rx   d 1 05  Length = 107898 BitCount = 58 ID = 1910
   2.273460    SV: 3 0 0 ::CANKBD::NMT = "NMT Operational"
   2.335445    SV: 3 0 0 ::CANKBD::Env = "Bench Simulation Selected"
   2.373413 1  776             Rx   d 1 05  Length = 107898 BitCount = 58 ID = 1910
   2.373413    SV: 3 0 0 ::CANKBD::NMT = "NMT Operational"
   2.473476 1  776             Rx   d 1 05  Length = 107898 BitCount = 58 ID = 1910
   2.473476    SV: 3 0 0 ::CANKBD::NMT = "NMT Operational"
   2.573436 1  776             Rx   d 1 05  Length = 107898 BitCount = 58 ID = 1910
   2.573436    SV: 3 0 0 ::CANKBD::NMT = "NMT Operational"
   2.673495 1  776             Rx   d 1 05  Length = 107898 BitCount = 58 ID = 1910
   2.673495    SV: 3 0 0 ::CANKBD::NMT = "NMT Operational"
   2.773450 1  776             Rx   d 1 05  Length = 107898 BitCount = 58 ID = 1910
   2.773450    SV: 3 0 0 ::CANKBD::NMT = "NMT Operational"
   2.835782 1  0               Tx   d 2 01 76  Length = 127987 BitCount = 67 ID = 0
   2.836742 1  276             Tx   d 1 FF  Length = 107987 BitCount = 57 ID = 630
   2.836742    SV: 3 0 0 ::CANKBD::LangAr = "Hardware Test Mode Selected"
   2.873413 1  776             Rx   d 1 05  Length = 107898 BitCount = 58 ID = 1910
   2.873413    SV: 3 0 0 ::CANKBD::NMT = "NMT Operational"
   2.973472 1  776             Rx   d 1 05  Length = 107898 BitCount = 58 ID = 1910
   2.973472    SV: 3 0 0 ::CANKBD::NMT = "NMT Operational"
   3.036854 1  276             Tx   d 1 FF  Length = 107987 BitCount = 57 ID = 630
   3.036854    SV: 3 0 0 ::CANKBD::LangAr = "Hardware Test Mode Selected"
   3.073430 1  776             Rx   d 1 05  Length = 107898 BitCount = 58 ID = 1910
   3.073430    SV: 3 0 0 ::CANKBD::NMT = "NMT Operational"
   3.173393 1  776             Rx   d 1 05  Length = 107898 BitCount = 58 ID = 1910
   3.173393    SV: 3 0 0 ::CANKBD::NMT = "NMT Operational"
   3.236849 1  276             Tx   d 1 FF  Length = 107987 BitCount = 57 ID = 630
   3.236849    SV: 3 0 0 ::CANKBD::LangAr = "Hardware Test Mode Selected"
   3.273455 1  776             Rx   d 1 05  Length = 107898 BitCount = 58 ID = 1910
   3.273455    SV: 3 0 0 ::CANKBD::NMT = "NMT Operational"
   3.373410 1  776             Rx   d 1 05  Length = 107898 BitCount = 58 ID = 1910
   3.373410    SV: 3 0 0 ::CANKBD::NMT = "NMT Operational"
   3.436694 1  276             Tx   d 1 FF  Length = 107987 BitCount = 57 ID = 630
   3.436694    SV: 3 0 0 ::CANKBD::LangAr = "Hardware Test Mode Selected"
   3.473375 1  776             Rx   d 1 05  Length = 107898 BitCount = 58 ID = 1910
   3.473375    SV: 3 0 0 ::CANKBD::NMT = "NMT Operational"
   3.573436 1  776             Rx   d 1 05  Length = 107898 BitCount = 58 ID = 1910
   3.573436    SV: 3 0 0 ::CANKBD::NMT = "NMT Operational"
   3.636884 1  276             Tx   d 1 FF  Length = 107987 BitCount = 57 ID = 630
   3.636884    SV: 3 0 0 ::CANKBD::LangAr = "Hardware Test Mode Selected"
   3.673392 1  776             Rx   d 1 05  Length = 107898 BitCount = 58 ID = 1910
   3.673392    SV: 3 0 0 ::CANKBD::NMT = "NMT Operational"
   3.773355 1  776             Rx   d 1 05  Length = 107898 BitCount = 58 ID = 1910
   3.773355    SV: 3 0 0 ::CANKBD::NMT = "NMT Operational"
   3.836743 1  276             Tx   d 1 FF  Length = 107987 BitCount = 57 ID = 630
   3.836743    SV: 3 0 0 ::CANKBD::LangAr = "Hardware Test Mode Selected"
   3.843865 1  1F6             Rx   d 7 01 11 00 00 00 00 FF  Length = 217894 BitCount = 113 ID = 502
   3.843865    SV: 2 0 0 ::CANKBD::RxPDOCnt = 0
   3.843865    SV: 2 0 0 ::CANKBD::RawByte0 = 1
   3.843865    SV: 2 0 0 ::CANKBD::RawByte1 = 11
   3.843865    SV: 2 0 0 ::CANKBD::RawByte2 = 0
   3.843865    SV: 2 0 0 ::CANKBD::RawByte3 = 0
   3.843865    SV: 2 0 0 ::CANKBD::RawByte4 = 0
   3.843865    SV: 2 0 0 ::CANKBD::RawByte5 = 0
   3.843865    SV: 2 0 0 ::CANKBD::RawByte6 = ff
   3.843865    SV: 2 0 0 ::CANKBD::LastRawByte0 = 1
   3.843865    SV: 2 0 0 ::CANKBD::LastRawByte1 = 11
   3.843865    SV: 2 0 0 ::CANKBD::LastRawByte2 = 0
   3.843865    SV: 2 0 0 ::CANKBD::LastRawByte3 = 0
   3.843865    SV: 2 0 0 ::CANKBD::LastRawByte4 = 0
   3.843865    SV: 2 0 0 ::CANKBD::LastRawByte5 = 0
   3.843865    SV: 2 0 0 ::CANKBD::LastRawByte6 = 0
   3.873431 1  776             Rx   d 1 05  Length = 107898 BitCount = 58 ID = 1910
   3.873431    SV: 3 0 0 ::CANKBD::NMT = "NMT Operational"
   3.973392 1  776             Rx   d 1 05  Length = 107898 BitCount = 58 ID = 1910
   3.973392    SV: 3 0 0 ::CANKBD::NMT = "NMT Operational"
   4.036832 1  276             Tx   d 1 FF  Length = 107987 BitCount = 57 ID = 630
   4.036832    SV: 3 0 0 ::CANKBD::LangAr = "Hardware Test Mode Selected"
   4.073357 1  776             Rx   d 1 05  Length = 107898 BitCount = 58 ID = 1910
   4.073357    SV: 3 0 0 ::CANKBD::NMT = "NMT Operational"
   4.173416 1  776             Rx   d 1 05  Length = 107898 BitCount = 58 ID = 1910
   4.173416    SV: 3 0 0 ::CANKBD::NMT = "NMT Operational"
   4.236916 1  276             Tx   d 1 FF  Length = 107987 BitCount = 57 ID = 630
   4.236916    SV: 3 0 0 ::CANKBD::LangAr = "Hardware Test Mode Selected"
   4.273374 1  776             Rx   d 1 05  Length = 107898 BitCount = 58 ID = 1910
   4.273374    SV: 3 0 0 ::CANKBD::NMT = "NMT Operational"
   4.373337 1  776             Rx   d 1 05  Length = 107898 BitCount = 58 ID = 1910
   4.373337    SV: 3 0 0 ::CANKBD::NMT = "NMT Operational"
   4.436757 1  276             Tx   d 1 FF  Length = 107987 BitCount = 57 ID = 630
   4.436757    SV: 3 0 0 ::CANKBD::LangAr = "Hardware Test Mode Selected"
   4.473399 1  776             Rx   d 1 05  Length = 107898 BitCount = 58 ID = 1910
   4.473399    SV: 3 0 0 ::CANKBD::NMT = "NMT Operational"
   4.573354 1  776             Rx   d 1 05  Length = 107898 BitCount = 58 ID = 1910
   4.573354    SV: 3 0 0 ::CANKBD::NMT = "NMT Operational"
   4.636838 1  276             Tx   d 1 FF  Length = 107987 BitCount = 57 ID = 630
   4.636838    SV: 3 0 0 ::CANKBD::LangAr = "Hardware Test Mode Selected"
   4.673318 1  776             Rx   d 1 05  Length = 107898 BitCount = 58 ID = 1910
   4.673318    SV: 3 0 0 ::CANKBD::NMT = "NMT Operational"
   4.773379 1  776             Rx   d 1 05  Length = 107898 BitCount = 58 ID = 1910
   4.773379    SV: 3 0 0 ::CANKBD::NMT = "NMT Operational"
   4.836713 1  276             Tx   d 1 FF  Length = 107987 BitCount = 57 ID = 630
   4.836713    SV: 3 0 0 ::CANKBD::LangAr = "Hardware Test Mode Selected"
   4.873336 1  776             Rx   d 1 05  Length = 107898 BitCount = 58 ID = 1910
   4.873336    SV: 3 0 0 ::CANKBD::NMT = "NMT Operational"
   4.973299 1  776             Rx   d 1 05  Length = 107898 BitCount = 58 ID = 1910
   4.973299    SV: 3 0 0 ::CANKBD::NMT = "NMT Operational"
   5.036879 1  276             Tx   d 1 FF  Length = 107987 BitCount = 57 ID = 630
   5.036879    SV: 3 0 0 ::CANKBD::LangAr = "Hardware Test Mode Selected"
   5.073361 1  776             Rx   d 1 05  Length = 107898 BitCount = 58 ID = 1910
   5.073361    SV: 3 0 0 ::CANKBD::NMT = "NMT Operational"
   5.173316 1  776             Rx   d 1 05  Length = 107898 BitCount = 58 ID = 1910
   5.173316    SV: 3 0 0 ::CANKBD::NMT = "NMT Operational"
   5.236846 1  276             Tx   d 1 FF  Length = 107987 BitCount = 57 ID = 630
   5.236846    SV: 3 0 0 ::CANKBD::LangAr = "Hardware Test Mode Selected"
   5.273282 1  776             Rx   d 1 05  Length = 107898 BitCount = 58 ID = 1910
   5.273282    SV: 3 0 0 ::CANKBD::NMT = "NMT Operational"
   5.373341 1  776             Rx   d 1 05  Length = 107898 BitCount = 58 ID = 1910
   5.373341    SV: 3 0 0 ::CANKBD::NMT = "NMT Operational"
   5.436765 1  276             Tx   d 1 FF  Length = 107987 BitCount = 57 ID = 630
   5.436765    SV: 3 0 0 ::CANKBD::LangAr = "Hardware Test Mode Selected"
   5.473298 1  776             Rx   d 1 05  Length = 107898 BitCount = 58 ID = 1910
   5.473298    SV: 3 0 0 ::CANKBD::NMT = "NMT Operational"
   5.573261 1  776             Rx   d 1 05  Length = 107898 BitCount = 58 ID = 1910
   5.573261    SV: 3 0 0 ::CANKBD::NMT = "NMT Operational"
   5.636821 1  276             Tx   d 1 FF  Length = 107987 BitCount = 57 ID = 630
   5.636821    SV: 3 0 0 ::CANKBD::LangAr = "Hardware Test Mode Selected"
   5.673323 1  776             Rx   d 1 05  Length = 107898 BitCount = 58 ID = 1910
   5.673323    SV: 3 0 0 ::CANKBD::NMT = "NMT Operational"
   5.773276 1  776             Rx   d 1 05  Length = 107898 BitCount = 58 ID = 1910
   5.773276    SV: 3 0 0 ::CANKBD::NMT = "NMT Operational"
   5.836732 1  276             Tx   d 1 FF  Length = 107987 BitCount = 57 ID = 630
   5.836732    SV: 3 0 0 ::CANKBD::LangAr = "Hardware Test Mode Selected"
   5.873242 1  776             Rx   d 1 05  Length = 107898 BitCount = 58 ID = 1910
   5.873242    SV: 3 0 0 ::CANKBD::NMT = "NMT Operational"
   5.973303 1  776             Rx   d 1 05  Length = 107898 BitCount = 58 ID = 1910
   5.973303    SV: 3 0 0 ::CANKBD::NMT = "NMT Operational"
   6.036919 1  276             Tx   d 1 FF  Length = 107987 BitCount = 57 ID = 630
   6.036919    SV: 3 0 0 ::CANKBD::LangAr = "Hardware Test Mode Selected"
   6.073261 1  776             Rx   d 1 05  Length = 107898 BitCount = 58 ID = 1910
   6.073261    SV: 3 0 0 ::CANKBD::NMT = "NMT Operational"
   6.173224 1  776             Rx   d 1 05  Length = 107898 BitCount = 58 ID = 1910
   6.173224    SV: 3 0 0 ::CANKBD::NMT = "NMT Operational"
   6.236764 1  276             Tx   d 1 FF  Length = 107987 BitCount = 57 ID = 630
   6.236764    SV: 3 0 0 ::CANKBD::LangAr = "Hardware Test Mode Selected"
   6.273285 1  776             Rx   d 1 05  Length = 107898 BitCount = 58 ID = 1910
   6.273285    SV: 3 0 0 ::CANKBD::NMT = "NMT Operational"
   6.373242 1  776             Rx   d 1 05  Length = 107898 BitCount = 58 ID = 1910
   6.373242    SV: 3 0 0 ::CANKBD::NMT = "NMT Operational"
   6.436698 1  276             Tx   d 1 FF  Length = 107987 BitCount = 57 ID = 630
   6.436698    SV: 3 0 0 ::CANKBD::LangAr = "Hardware Test Mode Selected"
   6.473314 1  776             Rx   d 1 05  Length = 107898 BitCount = 58 ID = 1910
   6.473314    SV: 3 0 0 ::CANKBD::NMT = "NMT Operational"
   6.573265 1  776             Rx   d 1 05  Length = 107898 BitCount = 58 ID = 1910
   6.573265    SV: 3 0 0 ::CANKBD::NMT = "NMT Operational"
   6.636795 1  276             Tx   d 1 FF  Length = 107987 BitCount = 57 ID = 630
   6.636795    SV: 3 0 0 ::CANKBD::LangAr = "Hardware Test Mode Selected"
   6.673223 1  776             Rx   d 1 05  Length = 107898 BitCount = 58 ID = 1910
   6.673223    SV: 3 0 0 ::CANKBD::NMT = "NMT Operational"
   6.773290 1  776             Rx   d 1 05  Length = 107898 BitCount = 58 ID = 1910
   6.773290    SV: 3 0 0 ::CANKBD::NMT = "NMT Operational"
   6.836716 1  276             Tx   d 1 FF  Length = 107987 BitCount = 57 ID = 630
   6.836716    SV: 3 0 0 ::CANKBD::LangAr = "Hardware Test Mode Selected"
   6.873247 1  776             Rx   d 1 05  Length = 107898 BitCount = 58 ID = 1910
   6.873247    SV: 3 0 0 ::CANKBD::NMT = "NMT Operational"
   6.973200 1  776             Rx   d 1 05  Length = 107898 BitCount = 58 ID = 1910
   6.973200    SV: 3 0 0 ::CANKBD::NMT = "NMT Operational"
   7.036834 1  276             Tx   d 1 FF  Length = 107987 BitCount = 57 ID = 630
   7.036834    SV: 3 0 0 ::CANKBD::LangAr = "Hardware Test Mode Selected"
   7.073272 1  776             Rx   d 1 05  Length = 107898 BitCount = 58 ID = 1910
   7.073272    SV: 3 0 0 ::CANKBD::NMT = "NMT Operational"
   7.173225 1  776             Rx   d 1 05  Length = 107898 BitCount = 58 ID = 1910
   7.173225    SV: 3 0 0 ::CANKBD::NMT = "NMT Operational"
   7.236757 1  276             Tx   d 1 FF  Length = 107987 BitCount = 57 ID = 630
   7.236757    SV: 3 0 0 ::CANKBD::LangAr = "Hardware Test Mode Selected"
   7.273181 1  776             Rx   d 1 05  Length = 107898 BitCount = 58 ID = 1910
   7.273181    SV: 3 0 0 ::CANKBD::NMT = "NMT Operational"
   7.373250 1  776             Rx   d 1 05  Length = 107898 BitCount = 58 ID = 1910
   7.373250    SV: 3 0 0 ::CANKBD::NMT = "NMT Operational"
   7.436684 1  276             Tx   d 1 FF  Length = 107987 BitCount = 57 ID = 630
   7.436684    SV: 3 0 0 ::CANKBD::LangAr = "Hardware Test Mode Selected"
   7.473207 1  776             Rx   d 1 05  Length = 107898 BitCount = 58 ID = 1910
   7.473207    SV: 3 0 0 ::CANKBD::NMT = "NMT Operational"
   7.573161 1  776             Rx   d 1 05  Length = 107898 BitCount = 58 ID = 1910
   7.573161    SV: 3 0 0 ::CANKBD::NMT = "NMT Operational"
   7.636775 1  276             Tx   d 1 FF  Length = 107987 BitCount = 57 ID = 630
   7.636775    SV: 3 0 0 ::CANKBD::LangAr = "Hardware Test Mode Selected"
   7.673236 1  776             Rx   d 1 05  Length = 107898 BitCount = 58 ID = 1910
   7.673236    SV: 3 0 0 ::CANKBD::NMT = "NMT Operational"
   7.773187 1  776             Rx   d 1 05  Length = 107898 BitCount = 58 ID = 1910
   7.773187    SV: 3 0 0 ::CANKBD::NMT = "NMT Operational"
   7.836711 1  276             Tx   d 1 FF  Length = 107987 BitCount = 57 ID = 630
   7.836711    SV: 3 0 0 ::CANKBD::LangAr = "Hardware Test Mode Selected"
   7.873145 1  776             Rx   d 1 05  Length = 107898 BitCount = 58 ID = 1910
   7.873145    SV: 3 0 0 ::CANKBD::NMT = "NMT Operational"
   7.973214 1  776             Rx   d 1 05  Length = 107898 BitCount = 58 ID = 1910
   7.973214    SV: 3 0 0 ::CANKBD::NMT = "NMT Operational"
   8.036938 1  276             Tx   d 1 FF  Length = 107987 BitCount = 57 ID = 630
   8.036938    SV: 3 0 0 ::CANKBD::LangAr = "Hardware Test Mode Selected"
   8.073170 1  776             Rx   d 1 05  Length = 107898 BitCount = 58 ID = 1910
   8.073170    SV: 3 0 0 ::CANKBD::NMT = "NMT Operational"
   8.173125 1  776             Rx   d 1 05  Length = 107898 BitCount = 58 ID = 1910
   8.173125    SV: 3 0 0 ::CANKBD::NMT = "NMT Operational"
   8.236849 1  276             Tx   d 1 FF  Length = 107987 BitCount = 57 ID = 630
   8.236849    SV: 3 0 0 ::CANKBD::LangAr = "Hardware Test Mode Selected"
   8.273198 1  776             Rx   d 1 05  Length = 107898 BitCount = 58 ID = 1910
   8.273198    SV: 3 0 0 ::CANKBD::NMT = "NMT Operational"
   8.373153 1  776             Rx   d 1 05  Length = 107898 BitCount = 58 ID = 1910
   8.373153    SV: 3 0 0 ::CANKBD::NMT = "NMT Operational"
   8.436713 1  276             Tx   d 1 FF  Length = 107987 BitCount = 57 ID = 630
   8.436713    SV: 3 0 0 ::CANKBD::LangAr = "Hardware Test Mode Selected"
   8.473111 1  776             Rx   d 1 05  Length = 107898 BitCount = 58 ID = 1910
   8.473111    SV: 3 0 0 ::CANKBD::NMT = "NMT Operational"
   8.573180 1  776             Rx   d 1 05  Length = 107898 BitCount = 58 ID = 1910
   8.573180    SV: 3 0 0 ::CANKBD::NMT = "NMT Operational"
   8.636894 1  276             Tx   d 1 FF  Length = 107987 BitCount = 57 ID = 630
   8.636894    SV: 3 0 0 ::CANKBD::LangAr = "Hardware Test Mode Selected"
   8.673136 1  776             Rx   d 1 05  Length = 107898 BitCount = 58 ID = 1910
   8.673136    SV: 3 0 0 ::CANKBD::NMT = "NMT Operational"
   8.773199 1  776             Rx   d 1 05  Length = 107898 BitCount = 58 ID = 1910
   8.773199    SV: 3 0 0 ::CANKBD::NMT = "NMT Operational"
   8.836721 1  276             Tx   d 1 FF  Length = 107987 BitCount = 57 ID = 630
   8.836721    SV: 3 0 0 ::CANKBD::LangAr = "Hardware Test Mode Selected"
   8.873164 1  776             Rx   d 1 05  Length = 107898 BitCount = 58 ID = 1910
   8.873164    SV: 3 0 0 ::CANKBD::NMT = "NMT Operational"
   8.973115 1  776             Rx   d 1 05  Length = 107898 BitCount = 58 ID = 1910
   8.973115    SV: 3 0 0 ::CANKBD::NMT = "NMT Operational"
   9.036883 1  276             Tx   d 1 FF  Length = 107987 BitCount = 57 ID = 630
   9.036883    SV: 3 0 0 ::CANKBD::LangAr = "Hardware Test Mode Selected"
   9.073181 1  776             Rx   d 1 05  Length = 107898 BitCount = 58 ID = 1910
   9.073181    SV: 3 0 0 ::CANKBD::NMT = "NMT Operational"
   9.173144 1  776             Rx   d 1 05  Length = 107898 BitCount = 58 ID = 1910
   9.173144    SV: 3 0 0 ::CANKBD::NMT = "NMT Operational"
   9.236862 1  276             Tx   d 1 FF  Length = 107987 BitCount = 57 ID = 630
   9.236862    SV: 3 0 0 ::CANKBD::LangAr = "Hardware Test Mode Selected"
   9.273099 1  776             Rx   d 1 05  Length = 107898 BitCount = 58 ID = 1910
   9.273099    SV: 3 0 0 ::CANKBD::NMT = "NMT Operational"
   9.373162 1  776             Rx   d 1 05  Length = 107898 BitCount = 58 ID = 1910
   9.373162    SV: 3 0 0 ::CANKBD::NMT = "NMT Operational"
   9.436680 1  276             Tx   d 1 FF  Length = 107987 BitCount = 57 ID = 630
   9.436680    SV: 3 0 0 ::CANKBD::LangAr = "Hardware Test Mode Selected"
   9.473126 1  776             Rx   d 1 05  Length = 107898 BitCount = 58 ID = 1910
   9.473126    SV: 3 0 0 ::CANKBD::NMT = "NMT Operational"
   9.508568 1  1F6             Rx   d 7 01 15 00 00 00 00 FF  Length = 217894 BitCount = 113 ID = 502
   9.508568    SV: 2 0 0 ::CANKBD::RxPDOCnt = 1
   9.508568    SV: 2 0 0 ::CANKBD::RawByte0 = 1
   9.508568    SV: 2 0 0 ::CANKBD::RawByte1 = 15
   9.508568    SV: 2 0 0 ::CANKBD::RawByte2 = 0
   9.508568    SV: 2 0 0 ::CANKBD::RawByte3 = 0
   9.508568    SV: 2 0 0 ::CANKBD::RawByte4 = 0
   9.508568    SV: 2 0 0 ::CANKBD::RawByte5 = 0
   9.508568    SV: 2 0 0 ::CANKBD::RawByte6 = ff
   9.508568    SV: 2 0 0 ::CANKBD::LastRawByte0 = 1
   9.508568    SV: 2 0 0 ::CANKBD::LastRawByte1 = 15
   9.508568    SV: 2 0 0 ::CANKBD::LastRawByte2 = 0
   9.508568    SV: 2 0 0 ::CANKBD::LastRawByte3 = 0
   9.508568    SV: 2 0 0 ::CANKBD::LastRawByte4 = 0
   9.508568    SV: 2 0 0 ::CANKBD::LastRawByte5 = 0
   9.508568    SV: 2 0 0 ::CANKBD::LastRawByte6 = ff
   9.573089 1  776             Rx   d 1 05  Length = 107898 BitCount = 58 ID = 1910
   9.573089    SV: 3 0 0 ::CANKBD::NMT = "NMT Operational"
   9.636875 1  276             Tx   d 1 FF  Length = 107987 BitCount = 57 ID = 630
   9.636875    SV: 3 0 0 ::CANKBD::LangAr = "Hardware Test Mode Selected"
   9.673155 1  776             Rx   d 1 05  Length = 107898 BitCount = 58 ID = 1910
   9.673155    SV: 3 0 0 ::CANKBD::NMT = "NMT Operational"
   9.773116 1  776             Rx   d 1 05  Length = 107898 BitCount = 58 ID = 1910
   9.773116    SV: 3 0 0 ::CANKBD::NMT = "NMT Operational"
   9.836776 1  276             Tx   d 1 FF  Length = 107987 BitCount = 57 ID = 630
   9.836776    SV: 3 0 0 ::CANKBD::LangAr = "Hardware Test Mode Selected"
   9.873071 1  776             Rx   d 1 05  Length = 107898 BitCount = 58 ID = 1910
   9.873071    SV: 3 0 0 ::CANKBD::NMT = "NMT Operational"
   9.973133 1  776             Rx   d 1 05  Length = 107898 BitCount = 58 ID = 1910
   9.973133    SV: 3 0 0 ::CANKBD::NMT = "NMT Operational"
  10.036837 1  276             Tx   d 1 FF  Length = 107987 BitCount = 57 ID = 630
  10.036837    SV: 3 0 0 ::CANKBD::LangAr = "Hardware Test Mode Selected"
  10.073098 1  776             Rx   d 1 05  Length = 107898 BitCount = 58 ID = 1910
  10.073098    SV: 3 0 0 ::CANKBD::NMT = "NMT Operational"
  10.173049 1  776             Rx   d 1 05  Length = 107898 BitCount = 58 ID = 1910
  10.173049    SV: 3 0 0 ::CANKBD::NMT = "NMT Operational"
  10.236783 1  276             Tx   d 1 FF  Length = 107987 BitCount = 57 ID = 630
  10.236783    SV: 3 0 0 ::CANKBD::LangAr = "Hardware Test Mode Selected"
  10.273115 1  776             Rx   d 1 05  Length = 107898 BitCount = 58 ID = 1910
  10.273115    SV: 3 0 0 ::CANKBD::NMT = "NMT Operational"
  10.373078 1  776             Rx   d 1 05  Length = 107898 BitCount = 58 ID = 1910
  10.373078    SV: 3 0 0 ::CANKBD::NMT = "NMT Operational"
  10.436802 1  276             Tx   d 1 FF  Length = 107987 BitCount = 57 ID = 630
  10.436802    SV: 3 0 0 ::CANKBD::LangAr = "Hardware Test Mode Selected"
  10.473035 1  776             Rx   d 1 05  Length = 107898 BitCount = 58 ID = 1910
  10.473035    SV: 3 0 0 ::CANKBD::NMT = "NMT Operational"
  10.573098 1  776             Rx   d 1 05  Length = 107898 BitCount = 58 ID = 1910
  10.573098    SV: 3 0 0 ::CANKBD::NMT = "NMT Operational"
  10.636892 1  276             Tx   d 1 FF  Length = 107987 BitCount = 57 ID = 630
  10.636892    SV: 3 0 0 ::CANKBD::LangAr = "Hardware Test Mode Selected"
  10.673060 1  776             Rx   d 1 05  Length = 107898 BitCount = 58 ID = 1910
  10.673060    SV: 3 0 0 ::CANKBD::NMT = "NMT Operational"
  10.773015 1  776             Rx   d 1 05  Length = 107898 BitCount = 58 ID = 1910
  10.773015    SV: 3 0 0 ::CANKBD::NMT = "NMT Operational"
  10.836793 1  276             Tx   d 1 FF  Length = 107987 BitCount = 57 ID = 630
  10.836793    SV: 3 0 0 ::CANKBD::LangAr = "Hardware Test Mode Selected"
  10.873081 1  776             Rx   d 1 05  Length = 107898 BitCount = 58 ID = 1910
  10.873081    SV: 3 0 0 ::CANKBD::NMT = "NMT Operational"
  10.973040 1  776             Rx   d 1 05  Length = 107898 BitCount = 58 ID = 1910
  10.973040    SV: 3 0 0 ::CANKBD::NMT = "NMT Operational"
  11.036838 1  276             Tx   d 1 FF  Length = 107987 BitCount = 57 ID = 630
  11.036838    SV: 3 0 0 ::CANKBD::LangAr = "Hardware Test Mode Selected"
  11.072993 1  776             Rx   d 1 05  Length = 107898 BitCount = 58 ID = 1910
  11.072993    SV: 3 0 0 ::CANKBD::NMT = "NMT Operational"
  11.103563 1  1F6             Rx   d 7 01 16 00 00 00 00 FF  Length = 217894 BitCount = 113 ID = 502
  11.103563    SV: 2 0 0 ::CANKBD::RxPDOCnt = 2
  11.103563    SV: 2 0 0 ::CANKBD::RawByte0 = 1
  11.103563    SV: 2 0 0 ::CANKBD::RawByte1 = 16
  11.103563    SV: 2 0 0 ::CANKBD::RawByte2 = 0
  11.103563    SV: 2 0 0 ::CANKBD::RawByte3 = 0
  11.103563    SV: 2 0 0 ::CANKBD::RawByte4 = 0
  11.103563    SV: 2 0 0 ::CANKBD::RawByte5 = 0
  11.103563    SV: 2 0 0 ::CANKBD::RawByte6 = ff
  11.103563    SV: 2 0 0 ::CANKBD::LastRawByte0 = 1
  11.103563    SV: 2 0 0 ::CANKBD::LastRawByte1 = 16
  11.103563    SV: 2 0 0 ::CANKBD::LastRawByte2 = 0
  11.103563    SV: 2 0 0 ::CANKBD::LastRawByte3 = 0
  11.103563    SV: 2 0 0 ::CANKBD::LastRawByte4 = 0
  11.103563    SV: 2 0 0 ::CANKBD::LastRawByte5 = 0
  11.103563    SV: 2 0 0 ::CANKBD::LastRawByte6 = ff
  11.173068 1  776             Rx   d 1 05  Length = 107898 BitCount = 58 ID = 1910
  11.173068    SV: 3 0 0 ::CANKBD::NMT = "NMT Operational"
  11.236894 1  276             Tx   d 1 FF  Length = 107987 BitCount = 57 ID = 630
  11.236894    SV: 3 0 0 ::CANKBD::LangAr = "Hardware Test Mode Selected"
  11.273038 1  776             Rx   d 1 05  Length = 107898 BitCount = 58 ID = 1910
  11.273038    SV: 3 0 0 ::CANKBD::NMT = "NMT Operational"
  11.372991 1  776             Rx   d 1 05  Length = 107898 BitCount = 58 ID = 1910
  11.372991    SV: 3 0 0 ::CANKBD::NMT = "NMT Operational"
  11.436703 1  276             Tx   d 1 FF  Length = 107987 BitCount = 57 ID = 630
  11.436703    SV: 3 0 0 ::CANKBD::LangAr = "Hardware Test Mode Selected"
  11.473056 1  776             Rx   d 1 05  Length = 107898 BitCount = 58 ID = 1910
  11.473056    SV: 3 0 0 ::CANKBD::NMT = "NMT Operational"
  11.573017 1  776             Rx   d 1 05  Length = 107898 BitCount = 58 ID = 1910
  11.573017    SV: 3 0 0 ::CANKBD::NMT = "NMT Operational"
  11.636771 1  276             Tx   d 1 FF  Length = 107987 BitCount = 57 ID = 630
  11.636771    SV: 3 0 0 ::CANKBD::LangAr = "Hardware Test Mode Selected"
  11.672973 1  776             Rx   d 1 05  Length = 107898 BitCount = 58 ID = 1910
  11.672973    SV: 3 0 0 ::CANKBD::NMT = "NMT Operational"
  11.773034 1  776             Rx   d 1 05  Length = 107898 BitCount = 58 ID = 1910
  11.773034    SV: 3 0 0 ::CANKBD::NMT = "NMT Operational"
  11.836852 1  276             Tx   d 1 FF  Length = 107987 BitCount = 57 ID = 630
  11.836852    SV: 3 0 0 ::CANKBD::LangAr = "Hardware Test Mode Selected"
  11.872998 1  776             Rx   d 1 05  Length = 107898 BitCount = 58 ID = 1910
  11.872998    SV: 3 0 0 ::CANKBD::NMT = "NMT Operational"
  11.972949 1  776             Rx   d 1 05  Length = 107898 BitCount = 58 ID = 1910
  11.972949    SV: 3 0 0 ::CANKBD::NMT = "NMT Operational"
  12.036943 1  276             Tx   d 1 FF  Length = 107987 BitCount = 57 ID = 630
  12.036943    SV: 3 0 0 ::CANKBD::LangAr = "Hardware Test Mode Selected"
  12.073014 1  776             Rx   d 1 05  Length = 107898 BitCount = 58 ID = 1910
  12.073014    SV: 3 0 0 ::CANKBD::NMT = "NMT Operational"
  12.172973 1  776             Rx   d 1 05  Length = 107898 BitCount = 58 ID = 1910
  12.172973    SV: 3 0 0 ::CANKBD::NMT = "NMT Operational"
  12.213509 1  1F6             Rx   d 7 01 16 00 00 00 00 FF  Length = 217894 BitCount = 113 ID = 502
  12.213509    SV: 2 0 0 ::CANKBD::RxPDOCnt = 3
  12.213509    SV: 2 0 0 ::CANKBD::RawByte0 = 1
  12.213509    SV: 2 0 0 ::CANKBD::RawByte1 = 16
  12.213509    SV: 2 0 0 ::CANKBD::RawByte2 = 0
  12.213509    SV: 2 0 0 ::CANKBD::RawByte3 = 0
  12.213509    SV: 2 0 0 ::CANKBD::RawByte4 = 0
  12.213509    SV: 2 0 0 ::CANKBD::RawByte5 = 0
  12.213509    SV: 2 0 0 ::CANKBD::RawByte6 = ff
  12.213509    SV: 2 0 0 ::CANKBD::LastRawByte0 = 1
  12.213509    SV: 2 0 0 ::CANKBD::LastRawByte1 = 16
  12.213509    SV: 2 0 0 ::CANKBD::LastRawByte2 = 0
  12.213509    SV: 2 0 0 ::CANKBD::LastRawByte3 = 0
  12.213509    SV: 2 0 0 ::CANKBD::LastRawByte4 = 0
  12.213509    SV: 2 0 0 ::CANKBD::LastRawByte5 = 0
  12.213509    SV: 2 0 0 ::CANKBD::LastRawByte6 = ff
  12.236825 1  276             Tx   d 1 FF  Length = 107987 BitCount = 57 ID = 630
  12.236825    SV: 3 0 0 ::CANKBD::LangAr = "Hardware Test Mode Selected"
  12.272947 1  776             Rx   d 1 05  Length = 107898 BitCount = 58 ID = 1910
  12.272947    SV: 3 0 0 ::CANKBD::NMT = "NMT Operational"
  12.373012 1  776             Rx   d 1 05  Length = 107898 BitCount = 58 ID = 1910
  12.373012    SV: 3 0 0 ::CANKBD::NMT = "NMT Operational"
  12.436726 1  276             Tx   d 1 FF  Length = 107987 BitCount = 57 ID = 630
  12.436726    SV: 3 0 0 ::CANKBD::LangAr = "Hardware Test Mode Selected"
  12.472976 1  776             Rx   d 1 05  Length = 107898 BitCount = 58 ID = 1910
  12.472976    SV: 3 0 0 ::CANKBD::NMT = "NMT Operational"
  12.572927 1  776             Rx   d 1 05  Length = 107898 BitCount = 58 ID = 1910
  12.572927    SV: 3 0 0 ::CANKBD::NMT = "NMT Operational"
  12.636851 1  276             Tx   d 1 FF  Length = 107987 BitCount = 57 ID = 630
  12.636851    SV: 3 0 0 ::CANKBD::LangAr = "Hardware Test Mode Selected"
  12.672994 1  776             Rx   d 1 05  Length = 107898 BitCount = 58 ID = 1910
  12.672994    SV: 3 0 0 ::CANKBD::NMT = "NMT Operational"
  12.772957 1  776             Rx   d 1 05  Length = 107898 BitCount = 58 ID = 1910
  12.772957    SV: 3 0 0 ::CANKBD::NMT = "NMT Operational"
  12.836755 1  276             Tx   d 1 FF  Length = 107987 BitCount = 57 ID = 630
  12.836755    SV: 3 0 0 ::CANKBD::LangAr = "Hardware Test Mode Selected"
  12.872911 1  776             Rx   d 1 05  Length = 107898 BitCount = 58 ID = 1910
  12.872911    SV: 3 0 0 ::CANKBD::NMT = "NMT Operational"
  12.963369 1  1F6             Rx   d 7 01 16 00 00 00 00 FF  Length = 217894 BitCount = 113 ID = 502
  12.963369    SV: 2 0 0 ::CANKBD::RxPDOCnt = 4
  12.963369    SV: 2 0 0 ::CANKBD::RawByte0 = 1
  12.963369    SV: 2 0 0 ::CANKBD::RawByte1 = 16
  12.963369    SV: 2 0 0 ::CANKBD::RawByte2 = 0
  12.963369    SV: 2 0 0 ::CANKBD::RawByte3 = 0
  12.963369    SV: 2 0 0 ::CANKBD::RawByte4 = 0
  12.963369    SV: 2 0 0 ::CANKBD::RawByte5 = 0
  12.963369    SV: 2 0 0 ::CANKBD::RawByte6 = ff
  12.963369    SV: 2 0 0 ::CANKBD::LastRawByte0 = 1
  12.963369    SV: 2 0 0 ::CANKBD::LastRawByte1 = 16
  12.963369    SV: 2 0 0 ::CANKBD::LastRawByte2 = 0
  12.963369    SV: 2 0 0 ::CANKBD::LastRawByte3 = 0
  12.963369    SV: 2 0 0 ::CANKBD::LastRawByte4 = 0
  12.963369    SV: 2 0 0 ::CANKBD::LastRawByte5 = 0
  12.963369    SV: 2 0 0 ::CANKBD::LastRawByte6 = ff
  12.972988 1  776             Rx   d 1 05  Length = 107898 BitCount = 58 ID = 1910
  12.972988    SV: 3 0 0 ::CANKBD::NMT = "NMT Operational"
  13.036882 1  276             Tx   d 1 FF  Length = 107987 BitCount = 57 ID = 630
  13.036882    SV: 3 0 0 ::CANKBD::LangAr = "Hardware Test Mode Selected"
  13.072955 1  776             Rx   d 1 05  Length = 107898 BitCount = 58 ID = 1910
  13.072955    SV: 3 0 0 ::CANKBD::NMT = "NMT Operational"
  13.172908 1  776             Rx   d 1 05  Length = 107898 BitCount = 58 ID = 1910
  13.172908    SV: 3 0 0 ::CANKBD::NMT = "NMT Operational"
  13.236762 1  276             Tx   d 1 FF  Length = 107987 BitCount = 57 ID = 630
  13.236762    SV: 3 0 0 ::CANKBD::LangAr = "Hardware Test Mode Selected"
  13.272974 1  776             Rx   d 1 05  Length = 107898 BitCount = 58 ID = 1910
  13.272974    SV: 3 0 0 ::CANKBD::NMT = "NMT Operational"
  13.372935 1  776             Rx   d 1 05  Length = 107898 BitCount = 58 ID = 1910
  13.372935    SV: 3 0 0 ::CANKBD::NMT = "NMT Operational"
  13.436801 1  276             Tx   d 1 FF  Length = 107987 BitCount = 57 ID = 630
  13.436801    SV: 3 0 0 ::CANKBD::LangAr = "Hardware Test Mode Selected"
  13.472889 1  776             Rx   d 1 05  Length = 107898 BitCount = 58 ID = 1910
  13.472889    SV: 3 0 0 ::CANKBD::NMT = "NMT Operational"
  13.572954 1  776             Rx   d 1 05  Length = 107898 BitCount = 58 ID = 1910
  13.572954    SV: 3 0 0 ::CANKBD::NMT = "NMT Operational"
  13.636840 1  276             Tx   d 1 FF  Length = 107987 BitCount = 57 ID = 630
  13.636840    SV: 3 0 0 ::CANKBD::LangAr = "Hardware Test Mode Selected"
  13.672919 1  776             Rx   d 1 05  Length = 107898 BitCount = 58 ID = 1910
  13.672919    SV: 3 0 0 ::CANKBD::NMT = "NMT Operational"
  13.743319 1  1F6             Rx   d 7 01 16 00 00 00 00 FF  Length = 217894 BitCount = 113 ID = 502
  13.743319    SV: 2 0 0 ::CANKBD::RxPDOCnt = 5
  13.743319    SV: 2 0 0 ::CANKBD::RawByte0 = 1
  13.743319    SV: 2 0 0 ::CANKBD::RawByte1 = 16
  13.743319    SV: 2 0 0 ::CANKBD::RawByte2 = 0
  13.743319    SV: 2 0 0 ::CANKBD::RawByte3 = 0
  13.743319    SV: 2 0 0 ::CANKBD::RawByte4 = 0
  13.743319    SV: 2 0 0 ::CANKBD::RawByte5 = 0
  13.743319    SV: 2 0 0 ::CANKBD::RawByte6 = ff
  13.743319    SV: 2 0 0 ::CANKBD::LastRawByte0 = 1
  13.743319    SV: 2 0 0 ::CANKBD::LastRawByte1 = 16
  13.743319    SV: 2 0 0 ::CANKBD::LastRawByte2 = 0
  13.743319    SV: 2 0 0 ::CANKBD::LastRawByte3 = 0
  13.743319    SV: 2 0 0 ::CANKBD::LastRawByte4 = 0
  13.743319    SV: 2 0 0 ::CANKBD::LastRawByte5 = 0
  13.743319    SV: 2 0 0 ::CANKBD::LastRawByte6 = ff
  13.772884 1  776             Rx   d 1 05  Length = 107898 BitCount = 58 ID = 1910
  13.772884    SV: 3 0 0 ::CANKBD::NMT = "NMT Operational"
  13.836748 1  276             Tx   d 1 FF  Length = 107987 BitCount = 57 ID = 630
  13.836748    SV: 3 0 0 ::CANKBD::LangAr = "Hardware Test Mode Selected"
  13.872848 1  776             Rx   d 1 05  Length = 107898 BitCount = 58 ID = 1910
  13.872848    SV: 3 0 0 ::CANKBD::NMT = "NMT Operational"
  13.972919 1  776             Rx   d 1 05  Length = 107898 BitCount = 58 ID = 1910
  13.972919    SV: 3 0 0 ::CANKBD::NMT = "NMT Operational"
  14.036919 1  276             Tx   d 1 FF  Length = 107987 BitCount = 57 ID = 630
  14.036919    SV: 3 0 0 ::CANKBD::LangAr = "Hardware Test Mode Selected"
  14.072874 1  776             Rx   d 1 05  Length = 107898 BitCount = 58 ID = 1910
  14.072874    SV: 3 0 0 ::CANKBD::NMT = "NMT Operational"
  14.172935 1  776             Rx   d 1 05  Length = 107898 BitCount = 58 ID = 1910
  14.172935    SV: 3 0 0 ::CANKBD::NMT = "NMT Operational"
  14.236833 1  276             Tx   d 1 FF  Length = 107987 BitCount = 57 ID = 630
  14.236833    SV: 3 0 0 ::CANKBD::LangAr = "Hardware Test Mode Selected"
  14.272899 1  776             Rx   d 1 05  Length = 107898 BitCount = 58 ID = 1910
  14.272899    SV: 3 0 0 ::CANKBD::NMT = "NMT Operational"
  14.313281 1  1F6             Rx   d 7 01 16 00 00 00 00 FF  Length = 217894 BitCount = 113 ID = 502
  14.313281    SV: 2 0 0 ::CANKBD::RxPDOCnt = 6
  14.313281    SV: 2 0 0 ::CANKBD::RawByte0 = 1
  14.313281    SV: 2 0 0 ::CANKBD::RawByte1 = 16
  14.313281    SV: 2 0 0 ::CANKBD::RawByte2 = 0
  14.313281    SV: 2 0 0 ::CANKBD::RawByte3 = 0
  14.313281    SV: 2 0 0 ::CANKBD::RawByte4 = 0
  14.313281    SV: 2 0 0 ::CANKBD::RawByte5 = 0
  14.313281    SV: 2 0 0 ::CANKBD::RawByte6 = ff
  14.313281    SV: 2 0 0 ::CANKBD::LastRawByte0 = 1
  14.313281    SV: 2 0 0 ::CANKBD::LastRawByte1 = 16
  14.313281    SV: 2 0 0 ::CANKBD::LastRawByte2 = 0
  14.313281    SV: 2 0 0 ::CANKBD::LastRawByte3 = 0
  14.313281    SV: 2 0 0 ::CANKBD::LastRawByte4 = 0
  14.313281    SV: 2 0 0 ::CANKBD::LastRawByte5 = 0
  14.313281    SV: 2 0 0 ::CANKBD::LastRawByte6 = ff
  14.372876 1  776             Rx   d 1 05  Length = 107898 BitCount = 58 ID = 1910
  14.372876    SV: 3 0 0 ::CANKBD::NMT = "NMT Operational"
  14.436706 1  276             Tx   d 1 FF  Length = 107987 BitCount = 57 ID = 630
  14.436706    SV: 3 0 0 ::CANKBD::LangAr = "Hardware Test Mode Selected"
  14.472835 1  776             Rx   d 1 05  Length = 107898 BitCount = 58 ID = 1910
  14.472835    SV: 3 0 0 ::CANKBD::NMT = "NMT Operational"
  14.553372 1  1F6             Rx   d 7 01 16 00 00 00 00 FF  Length = 217894 BitCount = 113 ID = 502
  14.553372    SV: 2 0 0 ::CANKBD::RxPDOCnt = 7
  14.553372    SV: 2 0 0 ::CANKBD::RawByte0 = 1
  14.553372    SV: 2 0 0 ::CANKBD::RawByte1 = 16
  14.553372    SV: 2 0 0 ::CANKBD::RawByte2 = 0
  14.553372    SV: 2 0 0 ::CANKBD::RawByte3 = 0
  14.553372    SV: 2 0 0 ::CANKBD::RawByte4 = 0
  14.553372    SV: 2 0 0 ::CANKBD::RawByte5 = 0
  14.553372    SV: 2 0 0 ::CANKBD::RawByte6 = ff
  14.553372    SV: 2 0 0 ::CANKBD::LastRawByte0 = 1
  14.553372    SV: 2 0 0 ::CANKBD::LastRawByte1 = 16
  14.553372    SV: 2 0 0 ::CANKBD::LastRawByte2 = 0
  14.553372    SV: 2 0 0 ::CANKBD::LastRawByte3 = 0
  14.553372    SV: 2 0 0 ::CANKBD::LastRawByte4 = 0
  14.553372    SV: 2 0 0 ::CANKBD::LastRawByte5 = 0
  14.553372    SV: 2 0 0 ::CANKBD::LastRawByte6 = ff
  14.572914 1  776             Rx   d 1 05  Length = 107898 BitCount = 58 ID = 1910
  14.572914    SV: 3 0 0 ::CANKBD::NMT = "NMT Operational"
  14.636940 1  276             Tx   d 1 FF  Length = 107987 BitCount = 57 ID = 630
  14.636940    SV: 3 0 0 ::CANKBD::LangAr = "Hardware Test Mode Selected"
  14.672872 1  776             Rx   d 1 05  Length = 107898 BitCount = 58 ID = 1910
  14.672872    SV: 3 0 0 ::CANKBD::NMT = "NMT Operational"
  14.772827 1  776             Rx   d 1 05  Length = 107898 BitCount = 58 ID = 1910
  14.772827    SV: 3 0 0 ::CANKBD::NMT = "NMT Operational"
  14.823284 1  1F6             Rx   d 7 01 16 00 00 00 00 FF  Length = 217894 BitCount = 113 ID = 502
  14.823284    SV: 2 0 0 ::CANKBD::RxPDOCnt = 8
  14.823284    SV: 2 0 0 ::CANKBD::RawByte0 = 1
  14.823284    SV: 2 0 0 ::CANKBD::RawByte1 = 16
  14.823284    SV: 2 0 0 ::CANKBD::RawByte2 = 0
  14.823284    SV: 2 0 0 ::CANKBD::RawByte3 = 0
  14.823284    SV: 2 0 0 ::CANKBD::RawByte4 = 0
  14.823284    SV: 2 0 0 ::CANKBD::RawByte5 = 0
  14.823284    SV: 2 0 0 ::CANKBD::RawByte6 = ff
  14.823284    SV: 2 0 0 ::CANKBD::LastRawByte0 = 1
  14.823284    SV: 2 0 0 ::CANKBD::LastRawByte1 = 16
  14.823284    SV: 2 0 0 ::CANKBD::LastRawByte2 = 0
  14.823284    SV: 2 0 0 ::CANKBD::LastRawByte3 = 0
  14.823284    SV: 2 0 0 ::CANKBD::LastRawByte4 = 0
  14.823284    SV: 2 0 0 ::CANKBD::LastRawByte5 = 0
  14.823284    SV: 2 0 0 ::CANKBD::LastRawByte6 = ff
  14.836730 1  276             Tx   d 1 FF  Length = 107987 BitCount = 57 ID = 630
  14.836730    SV: 3 0 0 ::CANKBD::LangAr = "Hardware Test Mode Selected"
  14.872813 1  776             Rx   d 1 05  Length = 107898 BitCount = 58 ID = 1910
  14.872813    SV: 3 0 0 ::CANKBD::NMT = "NMT Operational"
  14.972874 1  776             Rx   d 1 05  Length = 107898 BitCount = 58 ID = 1910
  14.972874    SV: 3 0 0 ::CANKBD::NMT = "NMT Operational"
  15.036840 1  276             Tx   d 1 FF  Length = 107987 BitCount = 57 ID = 630
  15.036840    SV: 3 0 0 ::CANKBD::LangAr = "Hardware Test Mode Selected"
  15.072832 1  776             Rx   d 1 05  Length = 107898 BitCount = 58 ID = 1910
  15.072832    SV: 3 0 0 ::CANKBD::NMT = "NMT Operational"
  15.172795 1  776             Rx   d 1 05  Length = 107898 BitCount = 58 ID = 1910
  15.172795    SV: 3 0 0 ::CANKBD::NMT = "NMT Operational"
  15.236893 1  276             Tx   d 1 FF  Length = 107987 BitCount = 57 ID = 630
  15.236893    SV: 3 0 0 ::CANKBD::LangAr = "Hardware Test Mode Selected"
  15.272857 1  776             Rx   d 1 05  Length = 107898 BitCount = 58 ID = 1910
  15.272857    SV: 3 0 0 ::CANKBD::NMT = "NMT Operational"
  15.372812 1  776             Rx   d 1 05  Length = 107898 BitCount = 58 ID = 1910
  15.372812    SV: 3 0 0 ::CANKBD::NMT = "NMT Operational"
  15.436708 1  276             Tx   d 1 FF  Length = 107987 BitCount = 57 ID = 630
  15.436708    SV: 3 0 0 ::CANKBD::LangAr = "Hardware Test Mode Selected"
  15.472777 1  776             Rx   d 1 05  Length = 107898 BitCount = 58 ID = 1910
  15.472777    SV: 3 0 0 ::CANKBD::NMT = "NMT Operational"
  15.572838 1  776             Rx   d 1 05  Length = 107898 BitCount = 58 ID = 1910
  15.572838    SV: 3 0 0 ::CANKBD::NMT = "NMT Operational"
  15.636816 1  276             Tx   d 1 FF  Length = 107987 BitCount = 57 ID = 630
  15.636816    SV: 3 0 0 ::CANKBD::LangAr = "Hardware Test Mode Selected"
  15.672796 1  776             Rx   d 1 05  Length = 107898 BitCount = 58 ID = 1910
  15.672796    SV: 3 0 0 ::CANKBD::NMT = "NMT Operational"
  15.772757 1  776             Rx   d 1 05  Length = 107898 BitCount = 58 ID = 1910
  15.772757    SV: 3 0 0 ::CANKBD::NMT = "NMT Operational"
  15.836791 1  276             Tx   d 1 FF  Length = 107987 BitCount = 57 ID = 630
  15.836791    SV: 3 0 0 ::CANKBD::LangAr = "Hardware Test Mode Selected"
  15.872822 1  776             Rx   d 1 05  Length = 107898 BitCount = 58 ID = 1910
  15.872822    SV: 3 0 0 ::CANKBD::NMT = "NMT Operational"
  15.972777 1  776             Rx   d 1 05  Length = 107898 BitCount = 58 ID = 1910
  15.972777    SV: 3 0 0 ::CANKBD::NMT = "NMT Operational"
  16.036809 1  276             Tx   d 1 FF  Length = 107987 BitCount = 57 ID = 630
  16.036809    SV: 3 0 0 ::CANKBD::LangAr = "Hardware Test Mode Selected"
  16.072743 1  776             Rx   d 1 05  Length = 107898 BitCount = 58 ID = 1910
  16.072743    SV: 3 0 0 ::CANKBD::NMT = "NMT Operational"
  16.172802 1  776             Rx   d 1 05  Length = 107898 BitCount = 58 ID = 1910
  16.172802    SV: 3 0 0 ::CANKBD::NMT = "NMT Operational"
  16.236770 1  276             Tx   d 1 FF  Length = 107987 BitCount = 57 ID = 630
  16.236770    SV: 3 0 0 ::CANKBD::LangAr = "Hardware Test Mode Selected"
  16.272760 1  776             Rx   d 1 05  Length = 107898 BitCount = 58 ID = 1910
  16.272760    SV: 3 0 0 ::CANKBD::NMT = "NMT Operational"
  16.372831 1  776             Rx   d 1 05  Length = 107898 BitCount = 58 ID = 1910
  16.372831    SV: 3 0 0 ::CANKBD::NMT = "NMT Operational"
  16.436699 1  276             Tx   d 1 FF  Length = 107987 BitCount = 57 ID = 630
  16.436699    SV: 3 0 0 ::CANKBD::LangAr = "Hardware Test Mode Selected"
  16.472786 1  776             Rx   d 1 05  Length = 107898 BitCount = 58 ID = 1910
  16.472786    SV: 3 0 0 ::CANKBD::NMT = "NMT Operational"
  16.572741 1  776             Rx   d 1 05  Length = 107898 BitCount = 58 ID = 1910
  16.572741    SV: 3 0 0 ::CANKBD::NMT = "NMT Operational"
  16.636937 1  276             Tx   d 1 FF  Length = 107987 BitCount = 57 ID = 630
  16.636937    SV: 3 0 0 ::CANKBD::LangAr = "Hardware Test Mode Selected"
  16.672813 1  776             Rx   d 1 05  Length = 107898 BitCount = 58 ID = 1910
  16.672813    SV: 3 0 0 ::CANKBD::NMT = "NMT Operational"
  16.772764 1  776             Rx   d 1 05  Length = 107898 BitCount = 58 ID = 1910
  16.772764    SV: 3 0 0 ::CANKBD::NMT = "NMT Operational"
  16.836776 1  276             Tx   d 1 FF  Length = 107987 BitCount = 57 ID = 630
  16.836776    SV: 3 0 0 ::CANKBD::LangAr = "Hardware Test Mode Selected"
  16.872722 1  776             Rx   d 1 05  Length = 107898 BitCount = 58 ID = 1910
  16.872722    SV: 3 0 0 ::CANKBD::NMT = "NMT Operational"
  16.972793 1  776             Rx   d 1 05  Length = 107898 BitCount = 58 ID = 1910
  16.972793    SV: 3 0 0 ::CANKBD::NMT = "NMT Operational"
  17.036819 1  276             Tx   d 1 FF  Length = 107987 BitCount = 57 ID = 630
  17.036819    SV: 3 0 0 ::CANKBD::LangAr = "Hardware Test Mode Selected"
  17.072748 1  776             Rx   d 1 05  Length = 107898 BitCount = 58 ID = 1910
  17.072748    SV: 3 0 0 ::CANKBD::NMT = "NMT Operational"
  17.172703 1  776             Rx   d 1 05  Length = 107898 BitCount = 58 ID = 1910
  17.172703    SV: 3 0 0 ::CANKBD::NMT = "NMT Operational"
  17.236817 1  276             Tx   d 1 FF  Length = 107987 BitCount = 57 ID = 630
  17.236817    SV: 3 0 0 ::CANKBD::LangAr = "Hardware Test Mode Selected"
  17.272773 1  776             Rx   d 1 05  Length = 107898 BitCount = 58 ID = 1910
  17.272773    SV: 3 0 0 ::CANKBD::NMT = "NMT Operational"
  17.372726 1  776             Rx   d 1 05  Length = 107898 BitCount = 58 ID = 1910
  17.372726    SV: 3 0 0 ::CANKBD::NMT = "NMT Operational"
  17.436794 1  276             Tx   d 1 FF  Length = 107987 BitCount = 57 ID = 630
  17.436794    SV: 3 0 0 ::CANKBD::LangAr = "Hardware Test Mode Selected"
  17.472683 1  776             Rx   d 1 05  Length = 107898 BitCount = 58 ID = 1910
  17.472683    SV: 3 0 0 ::CANKBD::NMT = "NMT Operational"
  17.572754 1  776             Rx   d 1 05  Length = 107898 BitCount = 58 ID = 1910
  17.572754    SV: 3 0 0 ::CANKBD::NMT = "NMT Operational"
  17.636784 1  276             Tx   d 1 FF  Length = 107987 BitCount = 57 ID = 630
  17.636784    SV: 3 0 0 ::CANKBD::LangAr = "Hardware Test Mode Selected"
  17.672708 1  776             Rx   d 1 05  Length = 107898 BitCount = 58 ID = 1910
  17.672708    SV: 3 0 0 ::CANKBD::NMT = "NMT Operational"
  17.772663 1  776             Rx   d 1 05  Length = 107898 BitCount = 58 ID = 1910
  17.772663    SV: 3 0 0 ::CANKBD::NMT = "NMT Operational"
  17.836741 1  276             Tx   d 1 FF  Length = 107987 BitCount = 57 ID = 630
  17.836741    SV: 3 0 0 ::CANKBD::LangAr = "Hardware Test Mode Selected"
  17.872735 1  776             Rx   d 1 05  Length = 107898 BitCount = 58 ID = 1910
  17.872735    SV: 3 0 0 ::CANKBD::NMT = "NMT Operational"
  17.972688 1  776             Rx   d 1 05  Length = 107898 BitCount = 58 ID = 1910
  17.972688    SV: 3 0 0 ::CANKBD::NMT = "NMT Operational"
  18.036862 1  276             Tx   d 1 FF  Length = 107987 BitCount = 57 ID = 630
  18.036862    SV: 3 0 0 ::CANKBD::LangAr = "Hardware Test Mode Selected"
  18.072647 1  776             Rx   d 1 05  Length = 107898 BitCount = 58 ID = 1910
  18.072647    SV: 3 0 0 ::CANKBD::NMT = "NMT Operational"
  18.172716 1  776             Rx   d 1 05  Length = 107898 BitCount = 58 ID = 1910
  18.172716    SV: 3 0 0 ::CANKBD::NMT = "NMT Operational"
  18.236750 1  276             Tx   d 1 FF  Length = 107987 BitCount = 57 ID = 630
  18.236750    SV: 3 0 0 ::CANKBD::LangAr = "Hardware Test Mode Selected"
  18.272670 1  776             Rx   d 1 05  Length = 107898 BitCount = 58 ID = 1910
  18.272670    SV: 3 0 0 ::CANKBD::NMT = "NMT Operational"
  18.372733 1  776             Rx   d 1 05  Length = 107898 BitCount = 58 ID = 1910
  18.372733    SV: 3 0 0 ::CANKBD::NMT = "NMT Operational"
  18.436705 1  276             Tx   d 1 FF  Length = 107987 BitCount = 57 ID = 630
  18.436705    SV: 3 0 0 ::CANKBD::LangAr = "Hardware Test Mode Selected"
  18.472699 1  776             Rx   d 1 05  Length = 107898 BitCount = 58 ID = 1910
  18.472699    SV: 3 0 0 ::CANKBD::NMT = "NMT Operational"
  18.572650 1  776             Rx   d 1 05  Length = 107898 BitCount = 58 ID = 1910
  18.572650    SV: 3 0 0 ::CANKBD::NMT = "NMT Operational"
  18.636840 1  276             Tx   d 1 FF  Length = 107987 BitCount = 57 ID = 630
  18.636840    SV: 3 0 0 ::CANKBD::LangAr = "Hardware Test Mode Selected"
  18.672717 1  776             Rx   d 1 05  Length = 107898 BitCount = 58 ID = 1910
  18.672717    SV: 3 0 0 ::CANKBD::NMT = "NMT Operational"
  18.772680 1  776             Rx   d 1 05  Length = 107898 BitCount = 58 ID = 1910
  18.772680    SV: 3 0 0 ::CANKBD::NMT = "NMT Operational"
  18.836776 1  276             Tx   d 1 FF  Length = 107987 BitCount = 57 ID = 630
  18.836776    SV: 3 0 0 ::CANKBD::LangAr = "Hardware Test Mode Selected"
  18.872634 1  776             Rx   d 1 05  Length = 107898 BitCount = 58 ID = 1910
  18.872634    SV: 3 0 0 ::CANKBD::NMT = "NMT Operational"
  18.972697 1  776             Rx   d 1 05  Length = 107898 BitCount = 58 ID = 1910
  18.972697    SV: 3 0 0 ::CANKBD::NMT = "NMT Operational"
  19.036839 1  276             Tx   d 1 FF  Length = 107987 BitCount = 57 ID = 630
  19.036839    SV: 3 0 0 ::CANKBD::LangAr = "Hardware Test Mode Selected"
  19.072661 1  776             Rx   d 1 05  Length = 107898 BitCount = 58 ID = 1910
  19.072661    SV: 3 0 0 ::CANKBD::NMT = "NMT Operational"
  19.172612 1  776             Rx   d 1 05  Length = 107898 BitCount = 58 ID = 1910
  19.172612    SV: 3 0 0 ::CANKBD::NMT = "NMT Operational"
  19.236782 1  276             Tx   d 1 FF  Length = 107987 BitCount = 57 ID = 630
  19.236782    SV: 3 0 0 ::CANKBD::LangAr = "Hardware Test Mode Selected"
  19.272679 1  776             Rx   d 1 05  Length = 107898 BitCount = 58 ID = 1910
  19.272679    SV: 3 0 0 ::CANKBD::NMT = "NMT Operational"
  19.372640 1  776             Rx   d 1 05  Length = 107898 BitCount = 58 ID = 1910
  19.372640    SV: 3 0 0 ::CANKBD::NMT = "NMT Operational"
  19.436752 1  276             Tx   d 1 FF  Length = 107987 BitCount = 57 ID = 630
  19.436752    SV: 3 0 0 ::CANKBD::LangAr = "Hardware Test Mode Selected"
  19.472596 1  776             Rx   d 1 05  Length = 107898 BitCount = 58 ID = 1910
  19.472596    SV: 3 0 0 ::CANKBD::NMT = "NMT Operational"
  19.572659 1  776             Rx   d 1 05  Length = 107898 BitCount = 58 ID = 1910
  19.572659    SV: 3 0 0 ::CANKBD::NMT = "NMT Operational"
  19.636849 1  276             Tx   d 1 FF  Length = 107987 BitCount = 57 ID = 630
  19.636849    SV: 3 0 0 ::CANKBD::LangAr = "Hardware Test Mode Selected"
  19.672624 1  776             Rx   d 1 05  Length = 107898 BitCount = 58 ID = 1910
  19.672624    SV: 3 0 0 ::CANKBD::NMT = "NMT Operational"
  19.772575 1  776             Rx   d 1 05  Length = 107898 BitCount = 58 ID = 1910
  19.772575    SV: 3 0 0 ::CANKBD::NMT = "NMT Operational"
  19.836713 1  276             Tx   d 1 FF  Length = 107987 BitCount = 57 ID = 630
  19.836713    SV: 3 0 0 ::CANKBD::LangAr = "Hardware Test Mode Selected"
  19.872643 1  776             Rx   d 1 05  Length = 107898 BitCount = 58 ID = 1910
  19.872643    SV: 3 0 0 ::CANKBD::NMT = "NMT Operational"
  19.972604 1  776             Rx   d 1 05  Length = 107898 BitCount = 58 ID = 1910
  19.972604    SV: 3 0 0 ::CANKBD::NMT = "NMT Operational"
  20.036866 1  276             Tx   d 1 FF  Length = 107987 BitCount = 57 ID = 630
  20.036866    SV: 3 0 0 ::CANKBD::LangAr = "Hardware Test Mode Selected"
  20.072560 1  776             Rx   d 1 05  Length = 107898 BitCount = 58 ID = 1910
  20.072560    SV: 3 0 0 ::CANKBD::NMT = "NMT Operational"
  20.172621 1  776             Rx   d 1 05  Length = 107898 BitCount = 58 ID = 1910
  20.172621    SV: 3 0 0 ::CANKBD::NMT = "NMT Operational"
  20.236817 1  276             Tx   d 1 FF  Length = 107987 BitCount = 57 ID = 630
  20.236817    SV: 3 0 0 ::CANKBD::LangAr = "Hardware Test Mode Selected"
  20.272588 1  776             Rx   d 1 05  Length = 107898 BitCount = 58 ID = 1910
  20.272588    SV: 3 0 0 ::CANKBD::NMT = "NMT Operational"
  20.372541 1  776             Rx   d 1 05  Length = 107898 BitCount = 58 ID = 1910
  20.372541    SV: 3 0 0 ::CANKBD::NMT = "NMT Operational"
  20.436739 1  276             Tx   d 1 FF  Length = 107987 BitCount = 57 ID = 630
  20.436739    SV: 3 0 0 ::CANKBD::LangAr = "Hardware Test Mode Selected"
  20.472605 1  776             Rx   d 1 05  Length = 107898 BitCount = 58 ID = 1910
  20.472605    SV: 3 0 0 ::CANKBD::NMT = "NMT Operational"
  20.572566 1  776             Rx   d 1 05  Length = 107898 BitCount = 58 ID = 1910
  20.572566    SV: 3 0 0 ::CANKBD::NMT = "NMT Operational"
  20.636900 1  276             Tx   d 1 FF  Length = 107987 BitCount = 57 ID = 630
  20.636900    SV: 3 0 0 ::CANKBD::LangAr = "Hardware Test Mode Selected"
  20.672522 1  776             Rx   d 1 05  Length = 107898 BitCount = 58 ID = 1910
  20.672522    SV: 3 0 0 ::CANKBD::NMT = "NMT Operational"
  20.772585 1  776             Rx   d 1 05  Length = 107898 BitCount = 58 ID = 1910
  20.772585    SV: 3 0 0 ::CANKBD::NMT = "NMT Operational"
  20.836737 1  276             Tx   d 1 FF  Length = 107987 BitCount = 57 ID = 630
  20.836737    SV: 3 0 0 ::CANKBD::LangAr = "Hardware Test Mode Selected"
  20.872552 1  776             Rx   d 1 05  Length = 107898 BitCount = 58 ID = 1910
  20.872552    SV: 3 0 0 ::CANKBD::NMT = "NMT Operational"
  20.972609 1  776             Rx   d 1 05  Length = 107898 BitCount = 58 ID = 1910
  20.972609    SV: 3 0 0 ::CANKBD::NMT = "NMT Operational"
  21.036873 1  276             Tx   d 1 FF  Length = 107987 BitCount = 57 ID = 630
  21.036873    SV: 3 0 0 ::CANKBD::LangAr = "Hardware Test Mode Selected"
  21.072565 1  776             Rx   d 1 05  Length = 107898 BitCount = 58 ID = 1910
  21.072565    SV: 3 0 0 ::CANKBD::NMT = "NMT Operational"
  21.172528 1  776             Rx   d 1 05  Length = 107898 BitCount = 58 ID = 1910
  21.172528    SV: 3 0 0 ::CANKBD::NMT = "NMT Operational"
  21.236910 1  276             Tx   d 1 FF  Length = 107987 BitCount = 57 ID = 630
  21.236910    SV: 3 0 0 ::CANKBD::LangAr = "Hardware Test Mode Selected"
  21.272591 1  776             Rx   d 1 05  Length = 107898 BitCount = 58 ID = 1910
  21.272591    SV: 3 0 0 ::CANKBD::NMT = "NMT Operational"
  21.372546 1  776             Rx   d 1 05  Length = 107898 BitCount = 58 ID = 1910
  21.372546    SV: 3 0 0 ::CANKBD::NMT = "NMT Operational"
  21.436728 1  276             Tx   d 1 FF  Length = 107987 BitCount = 57 ID = 630
  21.436728    SV: 3 0 0 ::CANKBD::LangAr = "Hardware Test Mode Selected"
  21.472510 1  776             Rx   d 1 05  Length = 107898 BitCount = 58 ID = 1910
  21.472510    SV: 3 0 0 ::CANKBD::NMT = "NMT Operational"
  21.572571 1  776             Rx   d 1 05  Length = 107898 BitCount = 58 ID = 1910
  21.572571    SV: 3 0 0 ::CANKBD::NMT = "NMT Operational"
  21.636933 1  276             Tx   d 1 FF  Length = 107987 BitCount = 57 ID = 630
  21.636933    SV: 3 0 0 ::CANKBD::LangAr = "Hardware Test Mode Selected"
  21.672529 1  776             Rx   d 1 05  Length = 107898 BitCount = 58 ID = 1910
  21.672529    SV: 3 0 0 ::CANKBD::NMT = "NMT Operational"
  21.772488 1  776             Rx   d 1 05  Length = 107898 BitCount = 58 ID = 1910
  21.772488    SV: 3 0 0 ::CANKBD::NMT = "NMT Operational"
  21.836802 1  276             Tx   d 1 FF  Length = 107987 BitCount = 57 ID = 630
  21.836802    SV: 3 0 0 ::CANKBD::LangAr = "Hardware Test Mode Selected"
  21.872553 1  776             Rx   d 1 05  Length = 107898 BitCount = 58 ID = 1910
  21.872553    SV: 3 0 0 ::CANKBD::NMT = "NMT Operational"
  21.972508 1  776             Rx   d 1 05  Length = 107898 BitCount = 58 ID = 1910
  21.972508    SV: 3 0 0 ::CANKBD::NMT = "NMT Operational"
  22.036876 1  276             Tx   d 1 FF  Length = 107987 BitCount = 57 ID = 630
  22.036876    SV: 3 0 0 ::CANKBD::LangAr = "Hardware Test Mode Selected"
  22.072472 1  776             Rx   d 1 05  Length = 107898 BitCount = 58 ID = 1910
  22.072472    SV: 3 0 0 ::CANKBD::NMT = "NMT Operational"
  22.172531 1  776             Rx   d 1 05  Length = 107898 BitCount = 58 ID = 1910
  22.172531    SV: 3 0 0 ::CANKBD::NMT = "NMT Operational"
  22.236891 1  276             Tx   d 1 FF  Length = 107987 BitCount = 57 ID = 630
  22.236891    SV: 3 0 0 ::CANKBD::LangAr = "Hardware Test Mode Selected"
  22.272489 1  776             Rx   d 1 05  Length = 107898 BitCount = 58 ID = 1910
  22.272489    SV: 3 0 0 ::CANKBD::NMT = "NMT Operational"
  22.372450 1  776             Rx   d 1 05  Length = 107898 BitCount = 58 ID = 1910
  22.372450    SV: 3 0 0 ::CANKBD::NMT = "NMT Operational"
  22.436768 1  276             Tx   d 1 FF  Length = 107987 BitCount = 57 ID = 630
  22.436768    SV: 3 0 0 ::CANKBD::LangAr = "Hardware Test Mode Selected"
  22.472513 1  776             Rx   d 1 05  Length = 107898 BitCount = 58 ID = 1910
  22.472513    SV: 3 0 0 ::CANKBD::NMT = "NMT Operational"
  22.572468 1  776             Rx   d 1 05  Length = 107898 BitCount = 58 ID = 1910
  22.572468    SV: 3 0 0 ::CANKBD::NMT = "NMT Operational"
  22.636854 1  276             Tx   d 1 FF  Length = 107987 BitCount = 57 ID = 630
  22.636854    SV: 3 0 0 ::CANKBD::LangAr = "Hardware Test Mode Selected"
  22.672432 1  776             Rx   d 1 05  Length = 107898 BitCount = 58 ID = 1910
  22.672432    SV: 3 0 0 ::CANKBD::NMT = "NMT Operational"
  22.772493 1  776             Rx   d 1 05  Length = 107898 BitCount = 58 ID = 1910
  22.772493    SV: 3 0 0 ::CANKBD::NMT = "NMT Operational"
  22.836821 1  276             Tx   d 1 FF  Length = 107987 BitCount = 57 ID = 630
  22.836821    SV: 3 0 0 ::CANKBD::LangAr = "Hardware Test Mode Selected"
  22.872449 1  776             Rx   d 1 05  Length = 107898 BitCount = 58 ID = 1910
  22.872449    SV: 3 0 0 ::CANKBD::NMT = "NMT Operational"
  22.972412 1  776             Rx   d 1 05  Length = 107898 BitCount = 58 ID = 1910
  22.972412    SV: 3 0 0 ::CANKBD::NMT = "NMT Operational"
  23.036862 1  276             Tx   d 1 FF  Length = 107987 BitCount = 57 ID = 630
  23.036862    SV: 3 0 0 ::CANKBD::LangAr = "Hardware Test Mode Selected"
  23.072477 1  776             Rx   d 1 05  Length = 107898 BitCount = 58 ID = 1910
  23.072477    SV: 3 0 0 ::CANKBD::NMT = "NMT Operational"
  23.172432 1  776             Rx   d 1 05  Length = 107898 BitCount = 58 ID = 1910
  23.172432    SV: 3 0 0 ::CANKBD::NMT = "NMT Operational"
  23.236844 1  276             Tx   d 1 FF  Length = 107987 BitCount = 57 ID = 630
  23.236844    SV: 3 0 0 ::CANKBD::LangAr = "Hardware Test Mode Selected"
  23.272396 1  776             Rx   d 1 05  Length = 107898 BitCount = 58 ID = 1910
  23.272396    SV: 3 0 0 ::CANKBD::NMT = "NMT Operational"
  23.372455 1  776             Rx   d 1 05  Length = 107898 BitCount = 58 ID = 1910
  23.372455    SV: 3 0 0 ::CANKBD::NMT = "NMT Operational"
  23.436741 1  276             Tx   d 1 FF  Length = 107987 BitCount = 57 ID = 630
  23.436741    SV: 3 0 0 ::CANKBD::LangAr = "Hardware Test Mode Selected"
  23.472414 1  776             Rx   d 1 05  Length = 107898 BitCount = 58 ID = 1910
  23.472414    SV: 3 0 0 ::CANKBD::NMT = "NMT Operational"
  23.572483 1  776             Rx   d 1 05  Length = 107898 BitCount = 58 ID = 1910
  23.572483    SV: 3 0 0 ::CANKBD::NMT = "NMT Operational"
  23.636835 1  276             Tx   d 1 FF  Length = 107987 BitCount = 57 ID = 630
  23.636835    SV: 3 0 0 ::CANKBD::LangAr = "Hardware Test Mode Selected"
  23.672437 1  776             Rx   d 1 05  Length = 107898 BitCount = 58 ID = 1910
  23.672437    SV: 3 0 0 ::CANKBD::NMT = "NMT Operational"
  23.772392 1  776             Rx   d 1 05  Length = 107898 BitCount = 58 ID = 1910
  23.772392    SV: 3 0 0 ::CANKBD::NMT = "NMT Operational"
  23.836764 1  276             Tx   d 1 FF  Length = 107987 BitCount = 57 ID = 630
  23.836764    SV: 3 0 0 ::CANKBD::LangAr = "Hardware Test Mode Selected"
  23.872464 1  776             Rx   d 1 05  Length = 107898 BitCount = 58 ID = 1910
  23.872464    SV: 3 0 0 ::CANKBD::NMT = "NMT Operational"
  23.972417 1  776             Rx   d 1 05  Length = 107898 BitCount = 58 ID = 1910
  23.972417    SV: 3 0 0 ::CANKBD::NMT = "NMT Operational"
  24.036887 1  276             Tx   d 1 FF  Length = 107987 BitCount = 57 ID = 630
  24.036887    SV: 3 0 0 ::CANKBD::LangAr = "Hardware Test Mode Selected"
  24.072374 1  776             Rx   d 1 05  Length = 107898 BitCount = 58 ID = 1910
  24.072374    SV: 3 0 0 ::CANKBD::NMT = "NMT Operational"
  24.172445 1  776             Rx   d 1 05  Length = 107898 BitCount = 58 ID = 1910
  24.172445    SV: 3 0 0 ::CANKBD::NMT = "NMT Operational"
  24.236743 1  276             Tx   d 1 FF  Length = 107987 BitCount = 57 ID = 630
  24.236743    SV: 3 0 0 ::CANKBD::LangAr = "Hardware Test Mode Selected"
  24.272399 1  776             Rx   d 1 05  Length = 107898 BitCount = 58 ID = 1910
  24.272399    SV: 3 0 0 ::CANKBD::NMT = "NMT Operational"
  24.372356 1  776             Rx   d 1 05  Length = 107898 BitCount = 58 ID = 1910
  24.372356    SV: 3 0 0 ::CANKBD::NMT = "NMT Operational"
  24.436726 1  276             Tx   d 1 FF  Length = 107987 BitCount = 57 ID = 630
  24.436726    SV: 3 0 0 ::CANKBD::LangAr = "Hardware Test Mode Selected"
  24.472426 1  776             Rx   d 1 05  Length = 107898 BitCount = 58 ID = 1910
  24.472426    SV: 3 0 0 ::CANKBD::NMT = "NMT Operational"
  24.572379 1  776             Rx   d 1 05  Length = 107898 BitCount = 58 ID = 1910
  24.572379    SV: 3 0 0 ::CANKBD::NMT = "NMT Operational"
  24.636883 1  276             Tx   d 1 FF  Length = 107987 BitCount = 57 ID = 630
  24.636883    SV: 3 0 0 ::CANKBD::LangAr = "Hardware Test Mode Selected"
  24.672338 1  776             Rx   d 1 05  Length = 107898 BitCount = 58 ID = 1910
  24.672338    SV: 3 0 0 ::CANKBD::NMT = "NMT Operational"
  24.772407 1  776             Rx   d 1 05  Length = 107898 BitCount = 58 ID = 1910
  24.772407    SV: 3 0 0 ::CANKBD::NMT = "NMT Operational"
  24.836799 1  276             Tx   d 1 FF  Length = 107987 BitCount = 57 ID = 630
  24.836799    SV: 3 0 0 ::CANKBD::LangAr = "Hardware Test Mode Selected"
  24.872361 1  776             Rx   d 1 05  Length = 107898 BitCount = 58 ID = 1910
  24.872361    SV: 3 0 0 ::CANKBD::NMT = "NMT Operational"
  24.972318 1  776             Rx   d 1 05  Length = 107898 BitCount = 58 ID = 1910
  24.972318    SV: 3 0 0 ::CANKBD::NMT = "NMT Operational"
  25.036908 1  276             Tx   d 1 FF  Length = 107987 BitCount = 57 ID = 630
  25.036908    SV: 3 0 0 ::CANKBD::LangAr = "Hardware Test Mode Selected"
  25.072388 1  776             Rx   d 1 05  Length = 107898 BitCount = 58 ID = 1910
  25.072388    SV: 3 0 0 ::CANKBD::NMT = "NMT Operational"
  25.172341 1  776             Rx   d 1 05  Length = 107898 BitCount = 58 ID = 1910
  25.172341    SV: 3 0 0 ::CANKBD::NMT = "NMT Operational"
  25.236747 1  276             Tx   d 1 FF  Length = 107987 BitCount = 57 ID = 630
  25.236747    SV: 3 0 0 ::CANKBD::LangAr = "Hardware Test Mode Selected"
  25.272300 1  776             Rx   d 1 05  Length = 107898 BitCount = 58 ID = 1910
  25.272300    SV: 3 0 0 ::CANKBD::NMT = "NMT Operational"
  25.372369 1  776             Rx   d 1 05  Length = 107898 BitCount = 58 ID = 1910
  25.372369    SV: 3 0 0 ::CANKBD::NMT = "NMT Operational"
  25.436723 1  276             Tx   d 1 FF  Length = 107987 BitCount = 57 ID = 630
  25.436723    SV: 3 0 0 ::CANKBD::LangAr = "Hardware Test Mode Selected"
  25.472325 1  776             Rx   d 1 05  Length = 107898 BitCount = 58 ID = 1910
  25.472325    SV: 3 0 0 ::CANKBD::NMT = "NMT Operational"
  25.572280 1  776             Rx   d 1 05  Length = 107898 BitCount = 58 ID = 1910
  25.572280    SV: 3 0 0 ::CANKBD::NMT = "NMT Operational"
  25.636878 1  276             Tx   d 1 FF  Length = 107987 BitCount = 57 ID = 630
  25.636878    SV: 3 0 0 ::CANKBD::LangAr = "Hardware Test Mode Selected"
  25.672353 1  776             Rx   d 1 05  Length = 107898 BitCount = 58 ID = 1910
  25.672353    SV: 3 0 0 ::CANKBD::NMT = "NMT Operational"
  25.772303 1  776             Rx   d 1 05  Length = 107898 BitCount = 58 ID = 1910
  25.772303    SV: 3 0 0 ::CANKBD::NMT = "NMT Operational"
  25.836741 1  276             Tx   d 1 FF  Length = 107987 BitCount = 57 ID = 630
  25.836741    SV: 3 0 0 ::CANKBD::LangAr = "Hardware Test Mode Selected"
