date Thu Aug 27 02:28:12 pm 2015
base hex  timestamps absolute
no internal events logged
// version 8.2.0
   0.000000    SV: 3 0 0 ::CANKBD::MonAr = "Monitor Mode Off"
   0.000000    SV: 3 0 0 ::CANKBD::LangAr = "No Language selected Selected"
   0.000000    SV: 2 0 0 ::CANKBD::RxPDOCnt = 0
   0.000000    SV: 3 0 0 ::CANKBD::NMT = "Inactive"
   0.000000    SV: 2 0 0 ::CANKBD::WriteBtn = 0
   0.000000    SV: 3 0 0 ::CANKBD::Env = "No Environment Selected"
   0.000000    SV: 2 0 0 ::CANKBD::RawByte0 = 0
   0.000000    SV: 2 0 0 ::CANKBD::RawByte1 = 0
   0.000000    SV: 2 0 0 ::CANKBD::RawByte2 = 0
   0.000000    SV: 2 0 0 ::CANKBD::RawByte3 = 0
   0.000000    SV: 2 0 0 ::CANKBD::RawByte4 = 0
   0.000000    SV: 2 0 0 ::CANKBD::RawByte5 = 0
   0.000000    SV: 2 0 0 ::CANKBD::RawByte6 = 0
   0.000000    SV: 2 0 0 ::CANKBD::LastRawByte0 = 0
   0.000000    SV: 2 0 0 ::CANKBD::LastRawByte1 = 0
   0.000000    SV: 2 0 0 ::CANKBD::LastRawByte2 = 0
   0.000000    SV: 2 0 0 ::CANKBD::LastRawByte3 = 0
   0.000000    SV: 2 0 0 ::CANKBD::LastRawByte4 = 0
   0.000000    SV: 2 0 0 ::CANKBD::LastRawByte5 = 0
   0.000000    SV: 2 0 0 ::CANKBD::LastRawByte6 = 0
   0.001119 1  F6              Rx   d 8 20 81 11 00 00 00 00 00  Length = 235894 BitCount = 122 ID = 246
   0.001233 1  776             Rx   d 1 7F  Length = 105898 BitCount = 57 ID = 1910
   0.001233    SV: 3 0 0 ::CANKBD::NMT = "NMT Pre Operational"
   0.001365 1  776             Rx   d 1 7F  Length = 105898 BitCount = 57 ID = 1910
   0.001365    SV: 3 0 0 ::CANKBD::NMT = "NMT Pre Operational"
   0.049397 1  776             Rx   d 1 7F  Length = 105898 BitCount = 57 ID = 1910
   0.049397    SV: 3 0 0 ::CANKBD::NMT = "NMT Pre Operational"
   0.149390 1  776             Rx   d 1 7F  Length = 105898 BitCount = 57 ID = 1910
   0.149390    SV: 3 0 0 ::CANKBD::NMT = "NMT Pre Operational"
   0.249389 1  776             Rx   d 1 7F  Length = 105898 BitCount = 57 ID = 1910
   0.249389    SV: 3 0 0 ::CANKBD::NMT = "NMT Pre Operational"
   0.349382 1  776             Rx   d 1 7F  Length = 105898 BitCount = 57 ID = 1910
   0.349382    SV: 3 0 0 ::CANKBD::NMT = "NMT Pre Operational"
   0.449379 1  776             Rx   d 1 7F  Length = 105898 BitCount = 57 ID = 1910
   0.449379    SV: 3 0 0 ::CANKBD::NMT = "NMT Pre Operational"
   0.549378 1  776             Rx   d 1 7F  Length = 105898 BitCount = 57 ID = 1910
   0.549378    SV: 3 0 0 ::CANKBD::NMT = "NMT Pre Operational"
   0.649371 1  776             Rx   d 1 7F  Length = 105898 BitCount = 57 ID = 1910
   0.649371    SV: 3 0 0 ::CANKBD::NMT = "NMT Pre Operational"
   0.749366 1  776             Rx   d 1 7F  Length = 105898 BitCount = 57 ID = 1910
   0.749366    SV: 3 0 0 ::CANKBD::NMT = "NMT Pre Operational"
   0.849365 1  776             Rx   d 1 7F  Length = 105898 BitCount = 57 ID = 1910
   0.849365    SV: 3 0 0 ::CANKBD::NMT = "NMT Pre Operational"
   0.949358 1  776             Rx   d 1 7F  Length = 105898 BitCount = 57 ID = 1910
   0.949358    SV: 3 0 0 ::CANKBD::NMT = "NMT Pre Operational"
   1.049353 1  776             Rx   d 1 7F  Length = 105898 BitCount = 57 ID = 1910
   1.049353    SV: 3 0 0 ::CANKBD::NMT = "NMT Pre Operational"
   1.149350 1  776             Rx   d 1 7F  Length = 105898 BitCount = 57 ID = 1910
   1.149350    SV: 3 0 0 ::CANKBD::NMT = "NMT Pre Operational"
   1.249347 1  776             Rx   d 1 7F  Length = 105898 BitCount = 57 ID = 1910
   1.249347    SV: 3 0 0 ::CANKBD::NMT = "NMT Pre Operational"
   1.349342 1  776             Rx   d 1 7F  Length = 105898 BitCount = 57 ID = 1910
   1.349342    SV: 3 0 0 ::CANKBD::NMT = "NMT Pre Operational"
   1.449339 1  776             Rx   d 1 7F  Length = 105898 BitCount = 57 ID = 1910
   1.449339    SV: 3 0 0 ::CANKBD::NMT = "NMT Pre Operational"
   1.549332 1  776             Rx   d 1 7F  Length = 105898 BitCount = 57 ID = 1910
   1.549332    SV: 3 0 0 ::CANKBD::NMT = "NMT Pre Operational"
   1.649329 1  776             Rx   d 1 7F  Length = 105898 BitCount = 57 ID = 1910
   1.649329    SV: 3 0 0 ::CANKBD::NMT = "NMT Pre Operational"
   1.749300 1  776             Rx   d 1 7F  Length = 105898 BitCount = 57 ID = 1910
   1.749300    SV: 3 0 0 ::CANKBD::NMT = "NMT Pre Operational"
   1.849295 1  776             Rx   d 1 7F  Length = 105898 BitCount = 57 ID = 1910
   1.849295    SV: 3 0 0 ::CANKBD::NMT = "NMT Pre Operational"
   1.949290 1  776             Rx   d 1 7F  Length = 105898 BitCount = 57 ID = 1910
   1.949290    SV: 3 0 0 ::CANKBD::NMT = "NMT Pre Operational"
   2.049289 1  776             Rx   d 1 7F  Length = 105898 BitCount = 57 ID = 1910
   2.049289    SV: 3 0 0 ::CANKBD::NMT = "NMT Pre Operational"
   2.149282 1  776             Rx   d 1 7F  Length = 105898 BitCount = 57 ID = 1910
   2.149282    SV: 3 0 0 ::CANKBD::NMT = "NMT Pre Operational"
   2.249277 1  776             Rx   d 1 7F  Length = 105898 BitCount = 57 ID = 1910
   2.249277    SV: 3 0 0 ::CANKBD::NMT = "NMT Pre Operational"
   2.349274 1  776             Rx   d 1 7F  Length = 105898 BitCount = 57 ID = 1910
   2.349274    SV: 3 0 0 ::CANKBD::NMT = "NMT Pre Operational"
   2.449271 1  776             Rx   d 1 7F  Length = 105898 BitCount = 57 ID = 1910
   2.449271    SV: 3 0 0 ::CANKBD::NMT = "NMT Pre Operational"
   2.549271 1  776             Rx   d 1 7F  Length = 105898 BitCount = 57 ID = 1910
   2.549271    SV: 3 0 0 ::CANKBD::NMT = "NMT Pre Operational"
   2.649278 1  776             Rx   d 1 7F  Length = 105898 BitCount = 57 ID = 1910
   2.649278    SV: 3 0 0 ::CANKBD::NMT = "NMT Pre Operational"
   2.749251 1  776             Rx   d 1 7F  Length = 105898 BitCount = 57 ID = 1910
   2.749251    SV: 3 0 0 ::CANKBD::NMT = "NMT Pre Operational"
   2.849248 1  776             Rx   d 1 7F  Length = 105898 BitCount = 57 ID = 1910
   2.849248    SV: 3 0 0 ::CANKBD::NMT = "NMT Pre Operational"
   2.949245 1  776             Rx   d 1 7F  Length = 105898 BitCount = 57 ID = 1910
   2.949245    SV: 3 0 0 ::CANKBD::NMT = "NMT Pre Operational"
   2.949559 1  F6              Rx   d 8 00 00 00 00 00 00 00 00  Length = 241894 BitCount = 125 ID = 246
   3.049262 1  776             Rx   d 1 7F  Length = 105898 BitCount = 57 ID = 1910
   3.049262    SV: 3 0 0 ::CANKBD::NMT = "NMT Pre Operational"
   3.149235 1  776             Rx   d 1 7F  Length = 105898 BitCount = 57 ID = 1910
   3.149235    SV: 3 0 0 ::CANKBD::NMT = "NMT Pre Operational"
   3.249254 1  776             Rx   d 1 7F  Length = 105898 BitCount = 57 ID = 1910
   3.249254    SV: 3 0 0 ::CANKBD::NMT = "NMT Pre Operational"
   3.349241 1  776             Rx   d 1 7F  Length = 105898 BitCount = 57 ID = 1910
   3.349241    SV: 3 0 0 ::CANKBD::NMT = "NMT Pre Operational"
   3.449228 1  776             Rx   d 1 7F  Length = 105898 BitCount = 57 ID = 1910
   3.449228    SV: 3 0 0 ::CANKBD::NMT = "NMT Pre Operational"
   3.549221 1  776             Rx   d 1 7F  Length = 105898 BitCount = 57 ID = 1910
   3.549221    SV: 3 0 0 ::CANKBD::NMT = "NMT Pre Operational"
   3.649209 1  776             Rx   d 1 7F  Length = 105898 BitCount = 57 ID = 1910
   3.649209    SV: 3 0 0 ::CANKBD::NMT = "NMT Pre Operational"
   3.749225 1  776             Rx   d 1 7F  Length = 105898 BitCount = 57 ID = 1910
   3.749225    SV: 3 0 0 ::CANKBD::NMT = "NMT Pre Operational"
   3.849218 1  776             Rx   d 1 7F  Length = 105898 BitCount = 57 ID = 1910
   3.849218    SV: 3 0 0 ::CANKBD::NMT = "NMT Pre Operational"
   3.949206 1  776             Rx   d 1 7F  Length = 105898 BitCount = 57 ID = 1910
   3.949206    SV: 3 0 0 ::CANKBD::NMT = "NMT Pre Operational"
   4.049195 1  776             Rx   d 1 7F  Length = 105898 BitCount = 57 ID = 1910
   4.049195    SV: 3 0 0 ::CANKBD::NMT = "NMT Pre Operational"
   4.149188 1  776             Rx   d 1 7F  Length = 105898 BitCount = 57 ID = 1910
   4.149188    SV: 3 0 0 ::CANKBD::NMT = "NMT Pre Operational"
   4.249201 1  776             Rx   d 1 7F  Length = 105898 BitCount = 57 ID = 1910
   4.249201    SV: 3 0 0 ::CANKBD::NMT = "NMT Pre Operational"
   4.349190 1  776             Rx   d 1 7F  Length = 105898 BitCount = 57 ID = 1910
   4.349190    SV: 3 0 0 ::CANKBD::NMT = "NMT Pre Operational"
   4.449183 1  776             Rx   d 1 7F  Length = 105898 BitCount = 57 ID = 1910
   4.449183    SV: 3 0 0 ::CANKBD::NMT = "NMT Pre Operational"
   4.549170 1  776             Rx   d 1 7F  Length = 105898 BitCount = 57 ID = 1910
   4.549170    SV: 3 0 0 ::CANKBD::NMT = "NMT Pre Operational"
   4.649185 1  776             Rx   d 1 7F  Length = 105898 BitCount = 57 ID = 1910
   4.649185    SV: 3 0 0 ::CANKBD::NMT = "NMT Pre Operational"
   4.749176 1  776             Rx   d 1 7F  Length = 105898 BitCount = 57 ID = 1910
   4.749176    SV: 3 0 0 ::CANKBD::NMT = "NMT Pre Operational"
   4.849165 1  776             Rx   d 1 7F  Length = 105898 BitCount = 57 ID = 1910
   4.849165    SV: 3 0 0 ::CANKBD::NMT = "NMT Pre Operational"
   4.949154 1  776             Rx   d 1 7F  Length = 105898 BitCount = 57 ID = 1910
   4.949154    SV: 3 0 0 ::CANKBD::NMT = "NMT Pre Operational"
   5.049143 1  776             Rx   d 1 7F  Length = 105898 BitCount = 57 ID = 1910
   5.049143    SV: 3 0 0 ::CANKBD::NMT = "NMT Pre Operational"
   5.149156 1  776             Rx   d 1 7F  Length = 105898 BitCount = 57 ID = 1910
   5.149156    SV: 3 0 0 ::CANKBD::NMT = "NMT Pre Operational"
   5.249147 1  776             Rx   d 1 7F  Length = 105898 BitCount = 57 ID = 1910
   5.249147    SV: 3 0 0 ::CANKBD::NMT = "NMT Pre Operational"
   5.349138 1  776             Rx   d 1 7F  Length = 105898 BitCount = 57 ID = 1910
   5.349138    SV: 3 0 0 ::CANKBD::NMT = "NMT Pre Operational"
   5.449127 1  776             Rx   d 1 7F  Length = 105898 BitCount = 57 ID = 1910
   5.449127    SV: 3 0 0 ::CANKBD::NMT = "NMT Pre Operational"
   5.464485    SV: 3 0 0 ::CANKBD::Env = "Bench Simulation Selected"
   5.549142 1  776             Rx   d 1 7F  Length = 105898 BitCount = 57 ID = 1910
   5.549142    SV: 3 0 0 ::CANKBD::NMT = "NMT Pre Operational"
   5.649135 1  776             Rx   d 1 7F  Length = 105898 BitCount = 57 ID = 1910
   5.649135    SV: 3 0 0 ::CANKBD::NMT = "NMT Pre Operational"
   5.749122 1  776             Rx   d 1 7F  Length = 105898 BitCount = 57 ID = 1910
   5.749122    SV: 3 0 0 ::CANKBD::NMT = "NMT Pre Operational"
   5.849111 1  776             Rx   d 1 7F  Length = 105898 BitCount = 57 ID = 1910
   5.849111    SV: 3 0 0 ::CANKBD::NMT = "NMT Pre Operational"
   5.949104 1  776             Rx   d 1 7F  Length = 105898 BitCount = 57 ID = 1910
   5.949104    SV: 3 0 0 ::CANKBD::NMT = "NMT Pre Operational"
   5.965126 1  0               Tx   d 2 01 76  Length = 127987 BitCount = 67 ID = 0
   5.966000 1  276             Tx   d 1 00  Length = 107987 BitCount = 57 ID = 630
   6.039880 1  1F6             Rx   d 7 00 00 00 00 00 00 01  Length = 225894 BitCount = 117 ID = 502
   6.039880    SV: 2 0 0 ::CANKBD::RxPDOCnt = 0
   6.039880    SV: 2 0 0 ::CANKBD::RawByte0 = 0
   6.039880    SV: 2 0 0 ::CANKBD::RawByte1 = 0
   6.039880    SV: 2 0 0 ::CANKBD::RawByte2 = 0
   6.039880    SV: 2 0 0 ::CANKBD::RawByte3 = 0
   6.039880    SV: 2 0 0 ::CANKBD::RawByte4 = 0
   6.039880    SV: 2 0 0 ::CANKBD::RawByte5 = 0
   6.039880    SV: 2 0 0 ::CANKBD::RawByte6 = 1
   6.039880    SV: 2 0 0 ::CANKBD::LastRawByte0 = 0
   6.039880    SV: 2 0 0 ::CANKBD::LastRawByte1 = 0
   6.039880    SV: 2 0 0 ::CANKBD::LastRawByte2 = 0
   6.039880    SV: 2 0 0 ::CANKBD::LastRawByte3 = 0
   6.039880    SV: 2 0 0 ::CANKBD::LastRawByte4 = 0
   6.039880    SV: 2 0 0 ::CANKBD::LastRawByte5 = 0
   6.039880    SV: 2 0 0 ::CANKBD::LastRawByte6 = 0
   6.049246 1  776             Rx   d 1 05  Length = 107898 BitCount = 58 ID = 1910
   6.049246    SV: 3 0 0 ::CANKBD::NMT = "NMT Operational"
   6.119901 1  1F6             Rx   d 7 00 00 00 00 00 00 01  Length = 225894 BitCount = 117 ID = 502
   6.119901    SV: 2 0 0 ::CANKBD::RxPDOCnt = 1
   6.119901    SV: 2 0 0 ::CANKBD::RawByte0 = 0
   6.119901    SV: 2 0 0 ::CANKBD::RawByte1 = 0
   6.119901    SV: 2 0 0 ::CANKBD::RawByte2 = 0
   6.119901    SV: 2 0 0 ::CANKBD::RawByte3 = 0
   6.119901    SV: 2 0 0 ::CANKBD::RawByte4 = 0
   6.119901    SV: 2 0 0 ::CANKBD::RawByte5 = 0
   6.119901    SV: 2 0 0 ::CANKBD::RawByte6 = 1
   6.119901    SV: 2 0 0 ::CANKBD::LastRawByte0 = 0
   6.119901    SV: 2 0 0 ::CANKBD::LastRawByte1 = 0
   6.119901    SV: 2 0 0 ::CANKBD::LastRawByte2 = 0
   6.119901    SV: 2 0 0 ::CANKBD::LastRawByte3 = 0
   6.119901    SV: 2 0 0 ::CANKBD::LastRawByte4 = 0
   6.119901    SV: 2 0 0 ::CANKBD::LastRawByte5 = 0
   6.119901    SV: 2 0 0 ::CANKBD::LastRawByte6 = 1
   6.149260 1  776             Rx   d 1 05  Length = 107898 BitCount = 58 ID = 1910
   6.149260    SV: 3 0 0 ::CANKBD::NMT = "NMT Operational"
   6.165970 1  276             Tx   d 1 01  Length = 109987 BitCount = 58 ID = 630
   6.165970    SV: 3 0 0 ::CANKBD::LangAr = "English Selected"
   6.199854 1  1F6             Rx   d 7 00 00 00 00 00 00 01  Length = 225894 BitCount = 117 ID = 502
   6.199854    SV: 2 0 0 ::CANKBD::RxPDOCnt = 2
   6.199854    SV: 2 0 0 ::CANKBD::RawByte0 = 0
   6.199854    SV: 2 0 0 ::CANKBD::RawByte1 = 0
   6.199854    SV: 2 0 0 ::CANKBD::RawByte2 = 0
   6.199854    SV: 2 0 0 ::CANKBD::RawByte3 = 0
   6.199854    SV: 2 0 0 ::CANKBD::RawByte4 = 0
   6.199854    SV: 2 0 0 ::CANKBD::RawByte5 = 0
   6.199854    SV: 2 0 0 ::CANKBD::RawByte6 = 1
   6.199854    SV: 2 0 0 ::CANKBD::LastRawByte0 = 0
   6.199854    SV: 2 0 0 ::CANKBD::LastRawByte1 = 0
   6.199854    SV: 2 0 0 ::CANKBD::LastRawByte2 = 0
   6.199854    SV: 2 0 0 ::CANKBD::LastRawByte3 = 0
   6.199854    SV: 2 0 0 ::CANKBD::LastRawByte4 = 0
   6.199854    SV: 2 0 0 ::CANKBD::LastRawByte5 = 0
   6.199854    SV: 2 0 0 ::CANKBD::LastRawByte6 = 1
   6.249214 1  776             Rx   d 1 05  Length = 107898 BitCount = 58 ID = 1910
   6.249214    SV: 3 0 0 ::CANKBD::NMT = "NMT Operational"
   6.279870 1  1F6             Rx   d 7 00 00 00 00 00 00 01  Length = 225894 BitCount = 117 ID = 502
   6.279870    SV: 2 0 0 ::CANKBD::RxPDOCnt = 3
   6.279870    SV: 2 0 0 ::CANKBD::RawByte0 = 0
   6.279870    SV: 2 0 0 ::CANKBD::RawByte1 = 0
   6.279870    SV: 2 0 0 ::CANKBD::RawByte2 = 0
   6.279870    SV: 2 0 0 ::CANKBD::RawByte3 = 0
   6.279870    SV: 2 0 0 ::CANKBD::RawByte4 = 0
   6.279870    SV: 2 0 0 ::CANKBD::RawByte5 = 0
   6.279870    SV: 2 0 0 ::CANKBD::RawByte6 = 1
   6.279870    SV: 2 0 0 ::CANKBD::LastRawByte0 = 0
   6.279870    SV: 2 0 0 ::CANKBD::LastRawByte1 = 0
   6.279870    SV: 2 0 0 ::CANKBD::LastRawByte2 = 0
   6.279870    SV: 2 0 0 ::CANKBD::LastRawByte3 = 0
   6.279870    SV: 2 0 0 ::CANKBD::LastRawByte4 = 0
   6.279870    SV: 2 0 0 ::CANKBD::LastRawByte5 = 0
   6.279870    SV: 2 0 0 ::CANKBD::LastRawByte6 = 1
   6.349225 1  776             Rx   d 1 05  Length = 107898 BitCount = 58 ID = 1910
   6.349225    SV: 3 0 0 ::CANKBD::NMT = "NMT Operational"
   6.359891 1  1F6             Rx   d 7 00 00 00 00 00 00 01  Length = 225894 BitCount = 117 ID = 502
   6.359891    SV: 2 0 0 ::CANKBD::RxPDOCnt = 4
   6.359891    SV: 2 0 0 ::CANKBD::RawByte0 = 0
   6.359891    SV: 2 0 0 ::CANKBD::RawByte1 = 0
   6.359891    SV: 2 0 0 ::CANKBD::RawByte2 = 0
   6.359891    SV: 2 0 0 ::CANKBD::RawByte3 = 0
   6.359891    SV: 2 0 0 ::CANKBD::RawByte4 = 0
   6.359891    SV: 2 0 0 ::CANKBD::RawByte5 = 0
   6.359891    SV: 2 0 0 ::CANKBD::RawByte6 = 1
   6.359891    SV: 2 0 0 ::CANKBD::LastRawByte0 = 0
   6.359891    SV: 2 0 0 ::CANKBD::LastRawByte1 = 0
   6.359891    SV: 2 0 0 ::CANKBD::LastRawByte2 = 0
   6.359891    SV: 2 0 0 ::CANKBD::LastRawByte3 = 0
   6.359891    SV: 2 0 0 ::CANKBD::LastRawByte4 = 0
   6.359891    SV: 2 0 0 ::CANKBD::LastRawByte5 = 0
   6.359891    SV: 2 0 0 ::CANKBD::LastRawByte6 = 1
   6.365753 1  276             Tx   d 1 01  Length = 109987 BitCount = 58 ID = 630
   6.365753    SV: 3 0 0 ::CANKBD::LangAr = "English Selected"
   6.370485    SV: 3 0 0 ::CANKBD::MonAr = "String Continious Monitor Mode"
   6.439891 1  1F6             Rx   d 7 00 00 00 00 00 00 01  Length = 225894 BitCount = 117 ID = 502
   6.439891    SV: 2 0 0 ::CANKBD::RxPDOCnt = 5
   6.439891    SV: 2 0 0 ::CANKBD::RawByte0 = 0
   6.439891    SV: 2 0 0 ::CANKBD::RawByte1 = 0
   6.439891    SV: 2 0 0 ::CANKBD::RawByte2 = 0
   6.439891    SV: 2 0 0 ::CANKBD::RawByte3 = 0
   6.439891    SV: 2 0 0 ::CANKBD::RawByte4 = 0
   6.439891    SV: 2 0 0 ::CANKBD::RawByte5 = 0
   6.439891    SV: 2 0 0 ::CANKBD::RawByte6 = 1
   6.439891    SV: 2 0 0 ::CANKBD::LastRawByte0 = 0
   6.439891    SV: 2 0 0 ::CANKBD::LastRawByte1 = 0
   6.439891    SV: 2 0 0 ::CANKBD::LastRawByte2 = 0
   6.439891    SV: 2 0 0 ::CANKBD::LastRawByte3 = 0
   6.439891    SV: 2 0 0 ::CANKBD::LastRawByte4 = 0
   6.439891    SV: 2 0 0 ::CANKBD::LastRawByte5 = 0
   6.439891    SV: 2 0 0 ::CANKBD::LastRawByte6 = 1
   6.449259 1  776             Rx   d 1 05  Length = 107898 BitCount = 58 ID = 1910
   6.449259    SV: 3 0 0 ::CANKBD::NMT = "NMT Operational"
   6.519910 1  1F6             Rx   d 7 00 00 00 00 00 00 01  Length = 225894 BitCount = 117 ID = 502
   6.519910    SV: 2 0 0 ::CANKBD::RxPDOCnt = 6
   6.519910    SV: 2 0 0 ::CANKBD::RawByte0 = 0
   6.519910    SV: 2 0 0 ::CANKBD::RawByte1 = 0
   6.519910    SV: 2 0 0 ::CANKBD::RawByte2 = 0
   6.519910    SV: 2 0 0 ::CANKBD::RawByte3 = 0
   6.519910    SV: 2 0 0 ::CANKBD::RawByte4 = 0
   6.519910    SV: 2 0 0 ::CANKBD::RawByte5 = 0
   6.519910    SV: 2 0 0 ::CANKBD::RawByte6 = 1
   6.519910    SV: 2 0 0 ::CANKBD::LastRawByte0 = 0
   6.519910    SV: 2 0 0 ::CANKBD::LastRawByte1 = 0
   6.519910    SV: 2 0 0 ::CANKBD::LastRawByte2 = 0
   6.519910    SV: 2 0 0 ::CANKBD::LastRawByte3 = 0
   6.519910    SV: 2 0 0 ::CANKBD::LastRawByte4 = 0
   6.519910    SV: 2 0 0 ::CANKBD::LastRawByte5 = 0
   6.519910    SV: 2 0 0 ::CANKBD::LastRawByte6 = 1
   6.549274 1  776             Rx   d 1 05  Length = 107898 BitCount = 58 ID = 1910
   6.549274    SV: 3 0 0 ::CANKBD::NMT = "NMT Operational"
   6.565836 1  276             Tx   d 1 01  Length = 109987 BitCount = 58 ID = 630
   6.565836    SV: 3 0 0 ::CANKBD::LangAr = "English Selected"
   6.599827 1  1F6             Rx   d 7 00 00 00 00 00 00 01  Length = 225894 BitCount = 117 ID = 502
   6.599827    SV: 2 0 0 ::CANKBD::RxPDOCnt = 7
   6.599827    SV: 2 0 0 ::CANKBD::RawByte0 = 0
   6.599827    SV: 2 0 0 ::CANKBD::RawByte1 = 0
   6.599827    SV: 2 0 0 ::CANKBD::RawByte2 = 0
   6.599827    SV: 2 0 0 ::CANKBD::RawByte3 = 0
   6.599827    SV: 2 0 0 ::CANKBD::RawByte4 = 0
   6.599827    SV: 2 0 0 ::CANKBD::RawByte5 = 0
   6.599827    SV: 2 0 0 ::CANKBD::RawByte6 = 1
   6.599827    SV: 2 0 0 ::CANKBD::LastRawByte0 = 0
   6.599827    SV: 2 0 0 ::CANKBD::LastRawByte1 = 0
   6.599827    SV: 2 0 0 ::CANKBD::LastRawByte2 = 0
   6.599827    SV: 2 0 0 ::CANKBD::LastRawByte3 = 0
   6.599827    SV: 2 0 0 ::CANKBD::LastRawByte4 = 0
   6.599827    SV: 2 0 0 ::CANKBD::LastRawByte5 = 0
   6.599827    SV: 2 0 0 ::CANKBD::LastRawByte6 = 1
   6.649181 1  776             Rx   d 1 05  Length = 107898 BitCount = 58 ID = 1910
   6.649181    SV: 3 0 0 ::CANKBD::NMT = "NMT Operational"
   6.679837 1  1F6             Rx   d 7 00 00 00 00 00 00 01  Length = 225894 BitCount = 117 ID = 502
   6.679837    SV: 2 0 0 ::CANKBD::RxPDOCnt = 8
   6.679837    SV: 2 0 0 ::CANKBD::RawByte0 = 0
   6.679837    SV: 2 0 0 ::CANKBD::RawByte1 = 0
   6.679837    SV: 2 0 0 ::CANKBD::RawByte2 = 0
   6.679837    SV: 2 0 0 ::CANKBD::RawByte3 = 0
   6.679837    SV: 2 0 0 ::CANKBD::RawByte4 = 0
   6.679837    SV: 2 0 0 ::CANKBD::RawByte5 = 0
   6.679837    SV: 2 0 0 ::CANKBD::RawByte6 = 1
   6.679837    SV: 2 0 0 ::CANKBD::LastRawByte0 = 0
   6.679837    SV: 2 0 0 ::CANKBD::LastRawByte1 = 0
   6.679837    SV: 2 0 0 ::CANKBD::LastRawByte2 = 0
   6.679837    SV: 2 0 0 ::CANKBD::LastRawByte3 = 0
   6.679837    SV: 2 0 0 ::CANKBD::LastRawByte4 = 0
   6.679837    SV: 2 0 0 ::CANKBD::LastRawByte5 = 0
   6.679837    SV: 2 0 0 ::CANKBD::LastRawByte6 = 1
   6.749194 1  776             Rx   d 1 05  Length = 107898 BitCount = 58 ID = 1910
   6.749194    SV: 3 0 0 ::CANKBD::NMT = "NMT Operational"
   6.759856 1  1F6             Rx   d 7 00 00 00 00 00 00 01  Length = 225894 BitCount = 117 ID = 502
   6.759856    SV: 2 0 0 ::CANKBD::RxPDOCnt = 9
   6.759856    SV: 2 0 0 ::CANKBD::RawByte0 = 0
   6.759856    SV: 2 0 0 ::CANKBD::RawByte1 = 0
   6.759856    SV: 2 0 0 ::CANKBD::RawByte2 = 0
   6.759856    SV: 2 0 0 ::CANKBD::RawByte3 = 0
   6.759856    SV: 2 0 0 ::CANKBD::RawByte4 = 0
   6.759856    SV: 2 0 0 ::CANKBD::RawByte5 = 0
   6.759856    SV: 2 0 0 ::CANKBD::RawByte6 = 1
   6.759856    SV: 2 0 0 ::CANKBD::LastRawByte0 = 0
   6.759856    SV: 2 0 0 ::CANKBD::LastRawByte1 = 0
   6.759856    SV: 2 0 0 ::CANKBD::LastRawByte2 = 0
   6.759856    SV: 2 0 0 ::CANKBD::LastRawByte3 = 0
   6.759856    SV: 2 0 0 ::CANKBD::LastRawByte4 = 0
   6.759856    SV: 2 0 0 ::CANKBD::LastRawByte5 = 0
   6.759856    SV: 2 0 0 ::CANKBD::LastRawByte6 = 1
   6.765892 1  276             Tx   d 1 01  Length = 109987 BitCount = 58 ID = 630
   6.765892    SV: 3 0 0 ::CANKBD::LangAr = "English Selected"
   6.839866 1  1F6             Rx   d 7 00 00 00 00 00 00 01  Length = 225894 BitCount = 117 ID = 502
   6.839866    SV: 2 0 0 ::CANKBD::RxPDOCnt = a
   6.839866    SV: 2 0 0 ::CANKBD::RawByte0 = 0
   6.839866    SV: 2 0 0 ::CANKBD::RawByte1 = 0
   6.839866    SV: 2 0 0 ::CANKBD::RawByte2 = 0
   6.839866    SV: 2 0 0 ::CANKBD::RawByte3 = 0
   6.839866    SV: 2 0 0 ::CANKBD::RawByte4 = 0
   6.839866    SV: 2 0 0 ::CANKBD::RawByte5 = 0
   6.839866    SV: 2 0 0 ::CANKBD::RawByte6 = 1
   6.839866    SV: 2 0 0 ::CANKBD::LastRawByte0 = 0
   6.839866    SV: 2 0 0 ::CANKBD::LastRawByte1 = 0
   6.839866    SV: 2 0 0 ::CANKBD::LastRawByte2 = 0
   6.839866    SV: 2 0 0 ::CANKBD::LastRawByte3 = 0
   6.839866    SV: 2 0 0 ::CANKBD::LastRawByte4 = 0
   6.839866    SV: 2 0 0 ::CANKBD::LastRawByte5 = 0
   6.839866    SV: 2 0 0 ::CANKBD::LastRawByte6 = 1
   6.849228 1  776             Rx   d 1 05  Length = 107898 BitCount = 58 ID = 1910
   6.849228    SV: 3 0 0 ::CANKBD::NMT = "NMT Operational"
   6.919876 1  1F6             Rx   d 7 00 00 00 00 00 00 01  Length = 225894 BitCount = 117 ID = 502
   6.919876    SV: 2 0 0 ::CANKBD::RxPDOCnt = b
   6.919876    SV: 2 0 0 ::CANKBD::RawByte0 = 0
   6.919876    SV: 2 0 0 ::CANKBD::RawByte1 = 0
   6.919876    SV: 2 0 0 ::CANKBD::RawByte2 = 0
   6.919876    SV: 2 0 0 ::CANKBD::RawByte3 = 0
   6.919876    SV: 2 0 0 ::CANKBD::RawByte4 = 0
   6.919876    SV: 2 0 0 ::CANKBD::RawByte5 = 0
   6.919876    SV: 2 0 0 ::CANKBD::RawByte6 = 1
   6.919876    SV: 2 0 0 ::CANKBD::LastRawByte0 = 0
   6.919876    SV: 2 0 0 ::CANKBD::LastRawByte1 = 0
   6.919876    SV: 2 0 0 ::CANKBD::LastRawByte2 = 0
   6.919876    SV: 2 0 0 ::CANKBD::LastRawByte3 = 0
   6.919876    SV: 2 0 0 ::CANKBD::LastRawByte4 = 0
   6.919876    SV: 2 0 0 ::CANKBD::LastRawByte5 = 0
   6.919876    SV: 2 0 0 ::CANKBD::LastRawByte6 = 1
   6.949239 1  776             Rx   d 1 05  Length = 107898 BitCount = 58 ID = 1910
   6.949239    SV: 3 0 0 ::CANKBD::NMT = "NMT Operational"
   6.966095 1  276             Tx   d 1 01  Length = 109987 BitCount = 58 ID = 630
   6.966095    SV: 3 0 0 ::CANKBD::LangAr = "English Selected"
   6.999898 1  1F6             Rx   d 7 00 00 00 00 00 00 01  Length = 225894 BitCount = 117 ID = 502
   6.999898    SV: 2 0 0 ::CANKBD::RxPDOCnt = c
   6.999898    SV: 2 0 0 ::CANKBD::RawByte0 = 0
   6.999898    SV: 2 0 0 ::CANKBD::RawByte1 = 0
   6.999898    SV: 2 0 0 ::CANKBD::RawByte2 = 0
   6.999898    SV: 2 0 0 ::CANKBD::RawByte3 = 0
   6.999898    SV: 2 0 0 ::CANKBD::RawByte4 = 0
   6.999898    SV: 2 0 0 ::CANKBD::RawByte5 = 0
   6.999898    SV: 2 0 0 ::CANKBD::RawByte6 = 1
   6.999898    SV: 2 0 0 ::CANKBD::LastRawByte0 = 0
   6.999898    SV: 2 0 0 ::CANKBD::LastRawByte1 = 0
   6.999898    SV: 2 0 0 ::CANKBD::LastRawByte2 = 0
   6.999898    SV: 2 0 0 ::CANKBD::LastRawByte3 = 0
   6.999898    SV: 2 0 0 ::CANKBD::LastRawByte4 = 0
   6.999898    SV: 2 0 0 ::CANKBD::LastRawByte5 = 0
   6.999898    SV: 2 0 0 ::CANKBD::LastRawByte6 = 1
   7.049255 1  776             Rx   d 1 05  Length = 107898 BitCount = 58 ID = 1910
   7.049255    SV: 3 0 0 ::CANKBD::NMT = "NMT Operational"
   7.079810 1  1F6             Rx   d 7 00 00 00 00 00 00 01  Length = 225894 BitCount = 117 ID = 502
   7.079810    SV: 2 0 0 ::CANKBD::RxPDOCnt = d
   7.079810    SV: 2 0 0 ::CANKBD::RawByte0 = 0
   7.079810    SV: 2 0 0 ::CANKBD::RawByte1 = 0
   7.079810    SV: 2 0 0 ::CANKBD::RawByte2 = 0
   7.079810    SV: 2 0 0 ::CANKBD::RawByte3 = 0
   7.079810    SV: 2 0 0 ::CANKBD::RawByte4 = 0
   7.079810    SV: 2 0 0 ::CANKBD::RawByte5 = 0
   7.079810    SV: 2 0 0 ::CANKBD::RawByte6 = 1
   7.079810    SV: 2 0 0 ::CANKBD::LastRawByte0 = 0
   7.079810    SV: 2 0 0 ::CANKBD::LastRawByte1 = 0
   7.079810    SV: 2 0 0 ::CANKBD::LastRawByte2 = 0
   7.079810    SV: 2 0 0 ::CANKBD::LastRawByte3 = 0
   7.079810    SV: 2 0 0 ::CANKBD::LastRawByte4 = 0
   7.079810    SV: 2 0 0 ::CANKBD::LastRawByte5 = 0
   7.079810    SV: 2 0 0 ::CANKBD::LastRawByte6 = 1
   7.149163 1  776             Rx   d 1 05  Length = 107898 BitCount = 58 ID = 1910
   7.149163    SV: 3 0 0 ::CANKBD::NMT = "NMT Operational"
   7.159822 1  1F6             Rx   d 7 00 00 00 00 00 00 01  Length = 225894 BitCount = 117 ID = 502
   7.159822    SV: 2 0 0 ::CANKBD::RxPDOCnt = e
   7.159822    SV: 2 0 0 ::CANKBD::RawByte0 = 0
   7.159822    SV: 2 0 0 ::CANKBD::RawByte1 = 0
   7.159822    SV: 2 0 0 ::CANKBD::RawByte2 = 0
   7.159822    SV: 2 0 0 ::CANKBD::RawByte3 = 0
   7.159822    SV: 2 0 0 ::CANKBD::RawByte4 = 0
   7.159822    SV: 2 0 0 ::CANKBD::RawByte5 = 0
   7.159822    SV: 2 0 0 ::CANKBD::RawByte6 = 1
   7.159822    SV: 2 0 0 ::CANKBD::LastRawByte0 = 0
   7.159822    SV: 2 0 0 ::CANKBD::LastRawByte1 = 0
   7.159822    SV: 2 0 0 ::CANKBD::LastRawByte2 = 0
   7.159822    SV: 2 0 0 ::CANKBD::LastRawByte3 = 0
   7.159822    SV: 2 0 0 ::CANKBD::LastRawByte4 = 0
   7.159822    SV: 2 0 0 ::CANKBD::LastRawByte5 = 0
   7.159822    SV: 2 0 0 ::CANKBD::LastRawByte6 = 1
   7.165954 1  276             Tx   d 1 01  Length = 109987 BitCount = 58 ID = 630
   7.165954    SV: 3 0 0 ::CANKBD::LangAr = "English Selected"
   7.239829 1  1F6             Rx   d 7 00 00 00 00 00 00 01  Length = 225894 BitCount = 117 ID = 502
   7.239829    SV: 2 0 0 ::CANKBD::RxPDOCnt = f
   7.239829    SV: 2 0 0 ::CANKBD::RawByte0 = 0
   7.239829    SV: 2 0 0 ::CANKBD::RawByte1 = 0
   7.239829    SV: 2 0 0 ::CANKBD::RawByte2 = 0
   7.239829    SV: 2 0 0 ::CANKBD::RawByte3 = 0
   7.239829    SV: 2 0 0 ::CANKBD::RawByte4 = 0
   7.239829    SV: 2 0 0 ::CANKBD::RawByte5 = 0
   7.239829    SV: 2 0 0 ::CANKBD::RawByte6 = 1
   7.239829    SV: 2 0 0 ::CANKBD::LastRawByte0 = 0
   7.239829    SV: 2 0 0 ::CANKBD::LastRawByte1 = 0
   7.239829    SV: 2 0 0 ::CANKBD::LastRawByte2 = 0
   7.239829    SV: 2 0 0 ::CANKBD::LastRawByte3 = 0
   7.239829    SV: 2 0 0 ::CANKBD::LastRawByte4 = 0
   7.239829    SV: 2 0 0 ::CANKBD::LastRawByte5 = 0
   7.239829    SV: 2 0 0 ::CANKBD::LastRawByte6 = 1
   7.249195 1  776             Rx   d 1 05  Length = 107898 BitCount = 58 ID = 1910
   7.249195    SV: 3 0 0 ::CANKBD::NMT = "NMT Operational"
   7.319847 1  1F6             Rx   d 7 01 69 00 00 00 00 01  Length = 217894 BitCount = 113 ID = 502
   7.319847    SV: 2 0 0 ::CANKBD::RxPDOCnt = 10
   7.319847    SV: 2 0 0 ::CANKBD::RawByte0 = 1
   7.319847    SV: 2 0 0 ::CANKBD::RawByte1 = 69
   7.319847    SV: 2 0 0 ::CANKBD::RawByte2 = 0
   7.319847    SV: 2 0 0 ::CANKBD::RawByte3 = 0
   7.319847    SV: 2 0 0 ::CANKBD::RawByte4 = 0
   7.319847    SV: 2 0 0 ::CANKBD::RawByte5 = 0
   7.319847    SV: 2 0 0 ::CANKBD::RawByte6 = 1
   7.319847    SV: 2 0 0 ::CANKBD::LastRawByte0 = 1
   7.319847    SV: 2 0 0 ::CANKBD::LastRawByte1 = 69
   7.319847    SV: 2 0 0 ::CANKBD::LastRawByte2 = 0
   7.319847    SV: 2 0 0 ::CANKBD::LastRawByte3 = 0
   7.319847    SV: 2 0 0 ::CANKBD::LastRawByte4 = 0
   7.319847    SV: 2 0 0 ::CANKBD::LastRawByte5 = 0
   7.319847    SV: 2 0 0 ::CANKBD::LastRawByte6 = 1
   7.349212 1  776             Rx   d 1 05  Length = 107898 BitCount = 58 ID = 1910
   7.349212    SV: 3 0 0 ::CANKBD::NMT = "NMT Operational"
   7.365836 1  276             Tx   d 1 01  Length = 109987 BitCount = 58 ID = 630
   7.365836    SV: 3 0 0 ::CANKBD::LangAr = "English Selected"
   7.399866 1  1F6             Rx   d 7 00 00 00 00 00 00 01  Length = 225894 BitCount = 117 ID = 502
   7.399866    SV: 2 0 0 ::CANKBD::RxPDOCnt = 11
   7.399866    SV: 2 0 0 ::CANKBD::RawByte0 = 0
   7.399866    SV: 2 0 0 ::CANKBD::RawByte1 = 0
   7.399866    SV: 2 0 0 ::CANKBD::RawByte2 = 0
   7.399866    SV: 2 0 0 ::CANKBD::RawByte3 = 0
   7.399866    SV: 2 0 0 ::CANKBD::RawByte4 = 0
   7.399866    SV: 2 0 0 ::CANKBD::RawByte5 = 0
   7.399866    SV: 2 0 0 ::CANKBD::RawByte6 = 1
   7.399866    SV: 2 0 0 ::CANKBD::LastRawByte0 = 1
   7.399866    SV: 2 0 0 ::CANKBD::LastRawByte1 = 69
   7.399866    SV: 2 0 0 ::CANKBD::LastRawByte2 = 0
   7.399866    SV: 2 0 0 ::CANKBD::LastRawByte3 = 0
   7.399866    SV: 2 0 0 ::CANKBD::LastRawByte4 = 0
   7.399866    SV: 2 0 0 ::CANKBD::LastRawByte5 = 0
   7.399866    SV: 2 0 0 ::CANKBD::LastRawByte6 = 1
   7.449228 1  776             Rx   d 1 05  Length = 107898 BitCount = 58 ID = 1910
   7.449228    SV: 3 0 0 ::CANKBD::NMT = "NMT Operational"
   7.479779 1  1F6             Rx   d 7 01 69 00 00 00 00 01  Length = 217894 BitCount = 113 ID = 502
   7.479779    SV: 2 0 0 ::CANKBD::RxPDOCnt = 12
   7.479779    SV: 2 0 0 ::CANKBD::RawByte0 = 1
   7.479779    SV: 2 0 0 ::CANKBD::RawByte1 = 69
   7.479779    SV: 2 0 0 ::CANKBD::RawByte2 = 0
   7.479779    SV: 2 0 0 ::CANKBD::RawByte3 = 0
   7.479779    SV: 2 0 0 ::CANKBD::RawByte4 = 0
   7.479779    SV: 2 0 0 ::CANKBD::RawByte5 = 0
   7.479779    SV: 2 0 0 ::CANKBD::RawByte6 = 1
   7.479779    SV: 2 0 0 ::CANKBD::LastRawByte0 = 1
   7.479779    SV: 2 0 0 ::CANKBD::LastRawByte1 = 69
   7.479779    SV: 2 0 0 ::CANKBD::LastRawByte2 = 0
   7.479779    SV: 2 0 0 ::CANKBD::LastRawByte3 = 0
   7.479779    SV: 2 0 0 ::CANKBD::LastRawByte4 = 0
   7.479779    SV: 2 0 0 ::CANKBD::LastRawByte5 = 0
   7.479779    SV: 2 0 0 ::CANKBD::LastRawByte6 = 1
   7.549144 1  776             Rx   d 1 05  Length = 107898 BitCount = 58 ID = 1910
   7.549144    SV: 3 0 0 ::CANKBD::NMT = "NMT Operational"
   7.559809 1  1F6             Rx   d 7 00 00 00 00 00 00 01  Length = 225894 BitCount = 117 ID = 502
   7.559809    SV: 2 0 0 ::CANKBD::RxPDOCnt = 13
   7.559809    SV: 2 0 0 ::CANKBD::RawByte0 = 0
   7.559809    SV: 2 0 0 ::CANKBD::RawByte1 = 0
   7.559809    SV: 2 0 0 ::CANKBD::RawByte2 = 0
   7.559809    SV: 2 0 0 ::CANKBD::RawByte3 = 0
   7.559809    SV: 2 0 0 ::CANKBD::RawByte4 = 0
   7.559809    SV: 2 0 0 ::CANKBD::RawByte5 = 0
   7.559809    SV: 2 0 0 ::CANKBD::RawByte6 = 1
   7.559809    SV: 2 0 0 ::CANKBD::LastRawByte0 = 1
   7.559809    SV: 2 0 0 ::CANKBD::LastRawByte1 = 69
   7.559809    SV: 2 0 0 ::CANKBD::LastRawByte2 = 0
   7.559809    SV: 2 0 0 ::CANKBD::LastRawByte3 = 0
   7.559809    SV: 2 0 0 ::CANKBD::LastRawByte4 = 0
   7.559809    SV: 2 0 0 ::CANKBD::LastRawByte5 = 0
   7.559809    SV: 2 0 0 ::CANKBD::LastRawByte6 = 1
   7.565891 1  276             Tx   d 1 01  Length = 109987 BitCount = 58 ID = 630
   7.565891    SV: 3 0 0 ::CANKBD::LangAr = "English Selected"
   7.639810 1  1F6             Rx   d 7 01 69 00 00 00 00 01  Length = 217894 BitCount = 113 ID = 502
   7.639810    SV: 2 0 0 ::CANKBD::RxPDOCnt = 14
   7.639810    SV: 2 0 0 ::CANKBD::RawByte0 = 1
   7.639810    SV: 2 0 0 ::CANKBD::RawByte1 = 69
   7.639810    SV: 2 0 0 ::CANKBD::RawByte2 = 0
   7.639810    SV: 2 0 0 ::CANKBD::RawByte3 = 0
   7.639810    SV: 2 0 0 ::CANKBD::RawByte4 = 0
   7.639810    SV: 2 0 0 ::CANKBD::RawByte5 = 0
   7.639810    SV: 2 0 0 ::CANKBD::RawByte6 = 1
   7.639810    SV: 2 0 0 ::CANKBD::LastRawByte0 = 1
   7.639810    SV: 2 0 0 ::CANKBD::LastRawByte1 = 69
   7.639810    SV: 2 0 0 ::CANKBD::LastRawByte2 = 0
   7.639810    SV: 2 0 0 ::CANKBD::LastRawByte3 = 0
   7.639810    SV: 2 0 0 ::CANKBD::LastRawByte4 = 0
   7.639810    SV: 2 0 0 ::CANKBD::LastRawByte5 = 0
   7.639810    SV: 2 0 0 ::CANKBD::LastRawByte6 = 1
   7.649185 1  776             Rx   d 1 05  Length = 107898 BitCount = 58 ID = 1910
   7.649185    SV: 3 0 0 ::CANKBD::NMT = "NMT Operational"
   7.719836 1  1F6             Rx   d 7 00 00 00 00 00 00 01  Length = 225894 BitCount = 117 ID = 502
   7.719836    SV: 2 0 0 ::CANKBD::RxPDOCnt = 15
   7.719836    SV: 2 0 0 ::CANKBD::RawByte0 = 0
   7.719836    SV: 2 0 0 ::CANKBD::RawByte1 = 0
   7.719836    SV: 2 0 0 ::CANKBD::RawByte2 = 0
   7.719836    SV: 2 0 0 ::CANKBD::RawByte3 = 0
   7.719836    SV: 2 0 0 ::CANKBD::RawByte4 = 0
   7.719836    SV: 2 0 0 ::CANKBD::RawByte5 = 0
   7.719836    SV: 2 0 0 ::CANKBD::RawByte6 = 1
   7.719836    SV: 2 0 0 ::CANKBD::LastRawByte0 = 1
   7.719836    SV: 2 0 0 ::CANKBD::LastRawByte1 = 69
   7.719836    SV: 2 0 0 ::CANKBD::LastRawByte2 = 0
   7.719836    SV: 2 0 0 ::CANKBD::LastRawByte3 = 0
   7.719836    SV: 2 0 0 ::CANKBD::LastRawByte4 = 0
   7.719836    SV: 2 0 0 ::CANKBD::LastRawByte5 = 0
   7.719836    SV: 2 0 0 ::CANKBD::LastRawByte6 = 1
   7.749201 1  776             Rx   d 1 05  Length = 107898 BitCount = 58 ID = 1910
   7.749201    SV: 3 0 0 ::CANKBD::NMT = "NMT Operational"
   7.765763 1  276             Tx   d 1 01  Length = 109987 BitCount = 58 ID = 630
   7.765763    SV: 3 0 0 ::CANKBD::LangAr = "English Selected"
   7.799853 1  1F6             Rx   d 7 01 69 00 00 00 00 01  Length = 217894 BitCount = 113 ID = 502
   7.799853    SV: 2 0 0 ::CANKBD::RxPDOCnt = 16
   7.799853    SV: 2 0 0 ::CANKBD::RawByte0 = 1
   7.799853    SV: 2 0 0 ::CANKBD::RawByte1 = 69
   7.799853    SV: 2 0 0 ::CANKBD::RawByte2 = 0
   7.799853    SV: 2 0 0 ::CANKBD::RawByte3 = 0
   7.799853    SV: 2 0 0 ::CANKBD::RawByte4 = 0
   7.799853    SV: 2 0 0 ::CANKBD::RawByte5 = 0
   7.799853    SV: 2 0 0 ::CANKBD::RawByte6 = 1
   7.799853    SV: 2 0 0 ::CANKBD::LastRawByte0 = 1
   7.799853    SV: 2 0 0 ::CANKBD::LastRawByte1 = 69
   7.799853    SV: 2 0 0 ::CANKBD::LastRawByte2 = 0
   7.799853    SV: 2 0 0 ::CANKBD::LastRawByte3 = 0
   7.799853    SV: 2 0 0 ::CANKBD::LastRawByte4 = 0
   7.799853    SV: 2 0 0 ::CANKBD::LastRawByte5 = 0
   7.799853    SV: 2 0 0 ::CANKBD::LastRawByte6 = 1
   7.849115 1  776             Rx   d 1 05  Length = 107898 BitCount = 58 ID = 1910
   7.849115    SV: 3 0 0 ::CANKBD::NMT = "NMT Operational"
   7.879772 1  1F6             Rx   d 7 00 00 00 00 00 00 01  Length = 225894 BitCount = 117 ID = 502
   7.879772    SV: 2 0 0 ::CANKBD::RxPDOCnt = 17
   7.879772    SV: 2 0 0 ::CANKBD::RawByte0 = 0
   7.879772    SV: 2 0 0 ::CANKBD::RawByte1 = 0
   7.879772    SV: 2 0 0 ::CANKBD::RawByte2 = 0
   7.879772    SV: 2 0 0 ::CANKBD::RawByte3 = 0
   7.879772    SV: 2 0 0 ::CANKBD::RawByte4 = 0
   7.879772    SV: 2 0 0 ::CANKBD::RawByte5 = 0
   7.879772    SV: 2 0 0 ::CANKBD::RawByte6 = 1
   7.879772    SV: 2 0 0 ::CANKBD::LastRawByte0 = 1
   7.879772    SV: 2 0 0 ::CANKBD::LastRawByte1 = 69
   7.879772    SV: 2 0 0 ::CANKBD::LastRawByte2 = 0
   7.879772    SV: 2 0 0 ::CANKBD::LastRawByte3 = 0
   7.879772    SV: 2 0 0 ::CANKBD::LastRawByte4 = 0
   7.879772    SV: 2 0 0 ::CANKBD::LastRawByte5 = 0
   7.879772    SV: 2 0 0 ::CANKBD::LastRawByte6 = 1
   7.949122 1  776             Rx   d 1 05  Length = 107898 BitCount = 58 ID = 1910
   7.949122    SV: 3 0 0 ::CANKBD::NMT = "NMT Operational"
   7.959784 1  1F6             Rx   d 7 00 00 00 00 00 00 01  Length = 225894 BitCount = 117 ID = 502
   7.959784    SV: 2 0 0 ::CANKBD::RxPDOCnt = 18
   7.959784    SV: 2 0 0 ::CANKBD::RawByte0 = 0
   7.959784    SV: 2 0 0 ::CANKBD::RawByte1 = 0
   7.959784    SV: 2 0 0 ::CANKBD::RawByte2 = 0
   7.959784    SV: 2 0 0 ::CANKBD::RawByte3 = 0
   7.959784    SV: 2 0 0 ::CANKBD::RawByte4 = 0
   7.959784    SV: 2 0 0 ::CANKBD::RawByte5 = 0
   7.959784    SV: 2 0 0 ::CANKBD::RawByte6 = 1
   7.959784    SV: 2 0 0 ::CANKBD::LastRawByte0 = 1
   7.959784    SV: 2 0 0 ::CANKBD::LastRawByte1 = 69
   7.959784    SV: 2 0 0 ::CANKBD::LastRawByte2 = 0
   7.959784    SV: 2 0 0 ::CANKBD::LastRawByte3 = 0
   7.959784    SV: 2 0 0 ::CANKBD::LastRawByte4 = 0
   7.959784    SV: 2 0 0 ::CANKBD::LastRawByte5 = 0
   7.959784    SV: 2 0 0 ::CANKBD::LastRawByte6 = 1
   7.965920 1  276             Tx   d 1 01  Length = 109987 BitCount = 58 ID = 630
   7.965920    SV: 3 0 0 ::CANKBD::LangAr = "English Selected"
   8.039795 1  1F6             Rx   d 7 00 00 00 00 00 00 01  Length = 225894 BitCount = 117 ID = 502
   8.039795    SV: 2 0 0 ::CANKBD::RxPDOCnt = 19
   8.039795    SV: 2 0 0 ::CANKBD::RawByte0 = 0
   8.039795    SV: 2 0 0 ::CANKBD::RawByte1 = 0
   8.039795    SV: 2 0 0 ::CANKBD::RawByte2 = 0
   8.039795    SV: 2 0 0 ::CANKBD::RawByte3 = 0
   8.039795    SV: 2 0 0 ::CANKBD::RawByte4 = 0
   8.039795    SV: 2 0 0 ::CANKBD::RawByte5 = 0
   8.039795    SV: 2 0 0 ::CANKBD::RawByte6 = 1
   8.039795    SV: 2 0 0 ::CANKBD::LastRawByte0 = 1
   8.039795    SV: 2 0 0 ::CANKBD::LastRawByte1 = 69
   8.039795    SV: 2 0 0 ::CANKBD::LastRawByte2 = 0
   8.039795    SV: 2 0 0 ::CANKBD::LastRawByte3 = 0
   8.039795    SV: 2 0 0 ::CANKBD::LastRawByte4 = 0
   8.039795    SV: 2 0 0 ::CANKBD::LastRawByte5 = 0
   8.039795    SV: 2 0 0 ::CANKBD::LastRawByte6 = 1
   8.049158 1  776             Rx   d 1 05  Length = 107898 BitCount = 58 ID = 1910
   8.049158    SV: 3 0 0 ::CANKBD::NMT = "NMT Operational"
   8.119807 1  1F6             Rx   d 7 01 69 00 00 00 00 01  Length = 217894 BitCount = 113 ID = 502
   8.119807    SV: 2 0 0 ::CANKBD::RxPDOCnt = 1a
   8.119807    SV: 2 0 0 ::CANKBD::RawByte0 = 1
   8.119807    SV: 2 0 0 ::CANKBD::RawByte1 = 69
   8.119807    SV: 2 0 0 ::CANKBD::RawByte2 = 0
   8.119807    SV: 2 0 0 ::CANKBD::RawByte3 = 0
   8.119807    SV: 2 0 0 ::CANKBD::RawByte4 = 0
   8.119807    SV: 2 0 0 ::CANKBD::RawByte5 = 0
   8.119807    SV: 2 0 0 ::CANKBD::RawByte6 = 1
   8.119807    SV: 2 0 0 ::CANKBD::LastRawByte0 = 1
   8.119807    SV: 2 0 0 ::CANKBD::LastRawByte1 = 69
   8.119807    SV: 2 0 0 ::CANKBD::LastRawByte2 = 0
   8.119807    SV: 2 0 0 ::CANKBD::LastRawByte3 = 0
   8.119807    SV: 2 0 0 ::CANKBD::LastRawByte4 = 0
   8.119807    SV: 2 0 0 ::CANKBD::LastRawByte5 = 0
   8.119807    SV: 2 0 0 ::CANKBD::LastRawByte6 = 1
   8.149178 1  776             Rx   d 1 05  Length = 107898 BitCount = 58 ID = 1910
   8.149178    SV: 3 0 0 ::CANKBD::NMT = "NMT Operational"
   8.165832 1  276             Tx   d 1 01  Length = 109987 BitCount = 58 ID = 630
   8.165832    SV: 3 0 0 ::CANKBD::LangAr = "English Selected"
   8.199836 1  1F6             Rx   d 7 00 00 00 00 00 00 01  Length = 225894 BitCount = 117 ID = 502
   8.199836    SV: 2 0 0 ::CANKBD::RxPDOCnt = 1b
   8.199836    SV: 2 0 0 ::CANKBD::RawByte0 = 0
   8.199836    SV: 2 0 0 ::CANKBD::RawByte1 = 0
   8.199836    SV: 2 0 0 ::CANKBD::RawByte2 = 0
   8.199836    SV: 2 0 0 ::CANKBD::RawByte3 = 0
   8.199836    SV: 2 0 0 ::CANKBD::RawByte4 = 0
   8.199836    SV: 2 0 0 ::CANKBD::RawByte5 = 0
   8.199836    SV: 2 0 0 ::CANKBD::RawByte6 = 1
   8.199836    SV: 2 0 0 ::CANKBD::LastRawByte0 = 1
   8.199836    SV: 2 0 0 ::CANKBD::LastRawByte1 = 69
   8.199836    SV: 2 0 0 ::CANKBD::LastRawByte2 = 0
   8.199836    SV: 2 0 0 ::CANKBD::LastRawByte3 = 0
   8.199836    SV: 2 0 0 ::CANKBD::LastRawByte4 = 0
   8.199836    SV: 2 0 0 ::CANKBD::LastRawByte5 = 0
   8.199836    SV: 2 0 0 ::CANKBD::LastRawByte6 = 1
   8.249194 1  776             Rx   d 1 05  Length = 107898 BitCount = 58 ID = 1910
   8.249194    SV: 3 0 0 ::CANKBD::NMT = "NMT Operational"
   8.279748 1  1F6             Rx   d 7 00 00 00 00 00 00 01  Length = 225894 BitCount = 117 ID = 502
   8.279748    SV: 2 0 0 ::CANKBD::RxPDOCnt = 1c
   8.279748    SV: 2 0 0 ::CANKBD::RawByte0 = 0
   8.279748    SV: 2 0 0 ::CANKBD::RawByte1 = 0
   8.279748    SV: 2 0 0 ::CANKBD::RawByte2 = 0
   8.279748    SV: 2 0 0 ::CANKBD::RawByte3 = 0
   8.279748    SV: 2 0 0 ::CANKBD::RawByte4 = 0
   8.279748    SV: 2 0 0 ::CANKBD::RawByte5 = 0
   8.279748    SV: 2 0 0 ::CANKBD::RawByte6 = 1
   8.279748    SV: 2 0 0 ::CANKBD::LastRawByte0 = 1
   8.279748    SV: 2 0 0 ::CANKBD::LastRawByte1 = 69
   8.279748    SV: 2 0 0 ::CANKBD::LastRawByte2 = 0
   8.279748    SV: 2 0 0 ::CANKBD::LastRawByte3 = 0
   8.279748    SV: 2 0 0 ::CANKBD::LastRawByte4 = 0
   8.279748    SV: 2 0 0 ::CANKBD::LastRawByte5 = 0
   8.279748    SV: 2 0 0 ::CANKBD::LastRawByte6 = 1
   8.349101 1  776             Rx   d 1 05  Length = 107898 BitCount = 58 ID = 1910
   8.349101    SV: 3 0 0 ::CANKBD::NMT = "NMT Operational"
   8.359759 1  1F6             Rx   d 7 00 00 00 00 00 00 01  Length = 225894 BitCount = 117 ID = 502
   8.359759    SV: 2 0 0 ::CANKBD::RxPDOCnt = 1d
   8.359759    SV: 2 0 0 ::CANKBD::RawByte0 = 0
   8.359759    SV: 2 0 0 ::CANKBD::RawByte1 = 0
   8.359759    SV: 2 0 0 ::CANKBD::RawByte2 = 0
   8.359759    SV: 2 0 0 ::CANKBD::RawByte3 = 0
   8.359759    SV: 2 0 0 ::CANKBD::RawByte4 = 0
   8.359759    SV: 2 0 0 ::CANKBD::RawByte5 = 0
   8.359759    SV: 2 0 0 ::CANKBD::RawByte6 = 1
   8.359759    SV: 2 0 0 ::CANKBD::LastRawByte0 = 1
   8.359759    SV: 2 0 0 ::CANKBD::LastRawByte1 = 69
   8.359759    SV: 2 0 0 ::CANKBD::LastRawByte2 = 0
   8.359759    SV: 2 0 0 ::CANKBD::LastRawByte3 = 0
   8.359759    SV: 2 0 0 ::CANKBD::LastRawByte4 = 0
   8.359759    SV: 2 0 0 ::CANKBD::LastRawByte5 = 0
   8.359759    SV: 2 0 0 ::CANKBD::LastRawByte6 = 1
   8.365893 1  276             Tx   d 1 01  Length = 109987 BitCount = 58 ID = 630
   8.365893    SV: 3 0 0 ::CANKBD::LangAr = "English Selected"
   8.439765 1  1F6             Rx   d 7 00 00 00 00 00 00 01  Length = 225894 BitCount = 117 ID = 502
   8.439765    SV: 2 0 0 ::CANKBD::RxPDOCnt = 1e
   8.439765    SV: 2 0 0 ::CANKBD::RawByte0 = 0
   8.439765    SV: 2 0 0 ::CANKBD::RawByte1 = 0
   8.439765    SV: 2 0 0 ::CANKBD::RawByte2 = 0
   8.439765    SV: 2 0 0 ::CANKBD::RawByte3 = 0
   8.439765    SV: 2 0 0 ::CANKBD::RawByte4 = 0
   8.439765    SV: 2 0 0 ::CANKBD::RawByte5 = 0
   8.439765    SV: 2 0 0 ::CANKBD::RawByte6 = 1
   8.439765    SV: 2 0 0 ::CANKBD::LastRawByte0 = 1
   8.439765    SV: 2 0 0 ::CANKBD::LastRawByte1 = 69
   8.439765    SV: 2 0 0 ::CANKBD::LastRawByte2 = 0
   8.439765    SV: 2 0 0 ::CANKBD::LastRawByte3 = 0
   8.439765    SV: 2 0 0 ::CANKBD::LastRawByte4 = 0
   8.439765    SV: 2 0 0 ::CANKBD::LastRawByte5 = 0
   8.439765    SV: 2 0 0 ::CANKBD::LastRawByte6 = 1
   8.449131 1  776             Rx   d 1 05  Length = 107898 BitCount = 58 ID = 1910
   8.449131    SV: 3 0 0 ::CANKBD::NMT = "NMT Operational"
   8.519786 1  1F6             Rx   d 7 00 00 00 00 00 00 01  Length = 225894 BitCount = 117 ID = 502
   8.519786    SV: 2 0 0 ::CANKBD::RxPDOCnt = 1f
   8.519786    SV: 2 0 0 ::CANKBD::RawByte0 = 0
   8.519786    SV: 2 0 0 ::CANKBD::RawByte1 = 0
   8.519786    SV: 2 0 0 ::CANKBD::RawByte2 = 0
   8.519786    SV: 2 0 0 ::CANKBD::RawByte3 = 0
   8.519786    SV: 2 0 0 ::CANKBD::RawByte4 = 0
   8.519786    SV: 2 0 0 ::CANKBD::RawByte5 = 0
   8.519786    SV: 2 0 0 ::CANKBD::RawByte6 = 1
   8.519786    SV: 2 0 0 ::CANKBD::LastRawByte0 = 1
   8.519786    SV: 2 0 0 ::CANKBD::LastRawByte1 = 69
   8.519786    SV: 2 0 0 ::CANKBD::LastRawByte2 = 0
   8.519786    SV: 2 0 0 ::CANKBD::LastRawByte3 = 0
   8.519786    SV: 2 0 0 ::CANKBD::LastRawByte4 = 0
   8.519786    SV: 2 0 0 ::CANKBD::LastRawByte5 = 0
   8.519786    SV: 2 0 0 ::CANKBD::LastRawByte6 = 1
   8.549144 1  776             Rx   d 1 05  Length = 107898 BitCount = 58 ID = 1910
   8.549144    SV: 3 0 0 ::CANKBD::NMT = "NMT Operational"
   8.565952 1  276             Tx   d 1 01  Length = 109987 BitCount = 58 ID = 630
   8.565952    SV: 3 0 0 ::CANKBD::LangAr = "English Selected"
   8.599801 1  1F6             Rx   d 7 00 00 00 00 00 00 01  Length = 225894 BitCount = 117 ID = 502
   8.599801    SV: 2 0 0 ::CANKBD::RxPDOCnt = 20
   8.599801    SV: 2 0 0 ::CANKBD::RawByte0 = 0
   8.599801    SV: 2 0 0 ::CANKBD::RawByte1 = 0
   8.599801    SV: 2 0 0 ::CANKBD::RawByte2 = 0
   8.599801    SV: 2 0 0 ::CANKBD::RawByte3 = 0
   8.599801    SV: 2 0 0 ::CANKBD::RawByte4 = 0
   8.599801    SV: 2 0 0 ::CANKBD::RawByte5 = 0
   8.599801    SV: 2 0 0 ::CANKBD::RawByte6 = 1
   8.599801    SV: 2 0 0 ::CANKBD::LastRawByte0 = 1
   8.599801    SV: 2 0 0 ::CANKBD::LastRawByte1 = 69
   8.599801    SV: 2 0 0 ::CANKBD::LastRawByte2 = 0
   8.599801    SV: 2 0 0 ::CANKBD::LastRawByte3 = 0
   8.599801    SV: 2 0 0 ::CANKBD::LastRawByte4 = 0
   8.599801    SV: 2 0 0 ::CANKBD::LastRawByte5 = 0
   8.599801    SV: 2 0 0 ::CANKBD::LastRawByte6 = 1
   8.649162 1  776             Rx   d 1 05  Length = 107898 BitCount = 58 ID = 1910
   8.649162    SV: 3 0 0 ::CANKBD::NMT = "NMT Operational"
   8.679711 1  1F6             Rx   d 7 00 00 00 00 00 00 01  Length = 225894 BitCount = 117 ID = 502
   8.679711    SV: 2 0 0 ::CANKBD::RxPDOCnt = 21
   8.679711    SV: 2 0 0 ::CANKBD::RawByte0 = 0
   8.679711    SV: 2 0 0 ::CANKBD::RawByte1 = 0
   8.679711    SV: 2 0 0 ::CANKBD::RawByte2 = 0
   8.679711    SV: 2 0 0 ::CANKBD::RawByte3 = 0
   8.679711    SV: 2 0 0 ::CANKBD::RawByte4 = 0
   8.679711    SV: 2 0 0 ::CANKBD::RawByte5 = 0
   8.679711    SV: 2 0 0 ::CANKBD::RawByte6 = 1
   8.679711    SV: 2 0 0 ::CANKBD::LastRawByte0 = 1
   8.679711    SV: 2 0 0 ::CANKBD::LastRawByte1 = 69
   8.679711    SV: 2 0 0 ::CANKBD::LastRawByte2 = 0
   8.679711    SV: 2 0 0 ::CANKBD::LastRawByte3 = 0
   8.679711    SV: 2 0 0 ::CANKBD::LastRawByte4 = 0
   8.679711    SV: 2 0 0 ::CANKBD::LastRawByte5 = 0
   8.679711    SV: 2 0 0 ::CANKBD::LastRawByte6 = 1
   8.749174 1  776             Rx   d 1 05  Length = 107898 BitCount = 58 ID = 1910
   8.749174    SV: 3 0 0 ::CANKBD::NMT = "NMT Operational"
   8.759732 1  1F6             Rx   d 7 00 00 00 00 00 00 01  Length = 225894 BitCount = 117 ID = 502
   8.759732    SV: 2 0 0 ::CANKBD::RxPDOCnt = 22
   8.759732    SV: 2 0 0 ::CANKBD::RawByte0 = 0
   8.759732    SV: 2 0 0 ::CANKBD::RawByte1 = 0
   8.759732    SV: 2 0 0 ::CANKBD::RawByte2 = 0
   8.759732    SV: 2 0 0 ::CANKBD::RawByte3 = 0
   8.759732    SV: 2 0 0 ::CANKBD::RawByte4 = 0
   8.759732    SV: 2 0 0 ::CANKBD::RawByte5 = 0
   8.759732    SV: 2 0 0 ::CANKBD::RawByte6 = 1
   8.759732    SV: 2 0 0 ::CANKBD::LastRawByte0 = 1
   8.759732    SV: 2 0 0 ::CANKBD::LastRawByte1 = 69
   8.759732    SV: 2 0 0 ::CANKBD::LastRawByte2 = 0
   8.759732    SV: 2 0 0 ::CANKBD::LastRawByte3 = 0
   8.759732    SV: 2 0 0 ::CANKBD::LastRawByte4 = 0
   8.759732    SV: 2 0 0 ::CANKBD::LastRawByte5 = 0
   8.759732    SV: 2 0 0 ::CANKBD::LastRawByte6 = 1
   8.765788 1  276             Tx   d 1 01  Length = 109987 BitCount = 58 ID = 630
   8.765788    SV: 3 0 0 ::CANKBD::LangAr = "English Selected"
   8.839732 1  1F6             Rx   d 7 00 00 00 00 00 00 01  Length = 225894 BitCount = 117 ID = 502
   8.839732    SV: 2 0 0 ::CANKBD::RxPDOCnt = 23
   8.839732    SV: 2 0 0 ::CANKBD::RawByte0 = 0
   8.839732    SV: 2 0 0 ::CANKBD::RawByte1 = 0
   8.839732    SV: 2 0 0 ::CANKBD::RawByte2 = 0
   8.839732    SV: 2 0 0 ::CANKBD::RawByte3 = 0
   8.839732    SV: 2 0 0 ::CANKBD::RawByte4 = 0
   8.839732    SV: 2 0 0 ::CANKBD::RawByte5 = 0
   8.839732    SV: 2 0 0 ::CANKBD::RawByte6 = 1
   8.839732    SV: 2 0 0 ::CANKBD::LastRawByte0 = 1
   8.839732    SV: 2 0 0 ::CANKBD::LastRawByte1 = 69
   8.839732    SV: 2 0 0 ::CANKBD::LastRawByte2 = 0
   8.839732    SV: 2 0 0 ::CANKBD::LastRawByte3 = 0
   8.839732    SV: 2 0 0 ::CANKBD::LastRawByte4 = 0
   8.839732    SV: 2 0 0 ::CANKBD::LastRawByte5 = 0
   8.839732    SV: 2 0 0 ::CANKBD::LastRawByte6 = 1
   8.849098 1  776             Rx   d 1 05  Length = 107898 BitCount = 58 ID = 1910
   8.849098    SV: 3 0 0 ::CANKBD::NMT = "NMT Operational"
   8.919748 1  1F6             Rx   d 7 00 00 00 00 00 00 01  Length = 225894 BitCount = 117 ID = 502
   8.919748    SV: 2 0 0 ::CANKBD::RxPDOCnt = 24
   8.919748    SV: 2 0 0 ::CANKBD::RawByte0 = 0
   8.919748    SV: 2 0 0 ::CANKBD::RawByte1 = 0
   8.919748    SV: 2 0 0 ::CANKBD::RawByte2 = 0
   8.919748    SV: 2 0 0 ::CANKBD::RawByte3 = 0
   8.919748    SV: 2 0 0 ::CANKBD::RawByte4 = 0
   8.919748    SV: 2 0 0 ::CANKBD::RawByte5 = 0
   8.919748    SV: 2 0 0 ::CANKBD::RawByte6 = 1
   8.919748    SV: 2 0 0 ::CANKBD::LastRawByte0 = 1
   8.919748    SV: 2 0 0 ::CANKBD::LastRawByte1 = 69
   8.919748    SV: 2 0 0 ::CANKBD::LastRawByte2 = 0
   8.919748    SV: 2 0 0 ::CANKBD::LastRawByte3 = 0
   8.919748    SV: 2 0 0 ::CANKBD::LastRawByte4 = 0
   8.919748    SV: 2 0 0 ::CANKBD::LastRawByte5 = 0
   8.919748    SV: 2 0 0 ::CANKBD::LastRawByte6 = 1
   8.949111 1  776             Rx   d 1 05  Length = 107898 BitCount = 58 ID = 1910
   8.949111    SV: 3 0 0 ::CANKBD::NMT = "NMT Operational"
   8.965897 1  276             Tx   d 1 01  Length = 109987 BitCount = 58 ID = 630
   8.965897    SV: 3 0 0 ::CANKBD::LangAr = "English Selected"
   8.999772 1  1F6             Rx   d 7 00 00 00 00 00 00 01  Length = 225894 BitCount = 117 ID = 502
   8.999772    SV: 2 0 0 ::CANKBD::RxPDOCnt = 25
   8.999772    SV: 2 0 0 ::CANKBD::RawByte0 = 0
   8.999772    SV: 2 0 0 ::CANKBD::RawByte1 = 0
   8.999772    SV: 2 0 0 ::CANKBD::RawByte2 = 0
   8.999772    SV: 2 0 0 ::CANKBD::RawByte3 = 0
   8.999772    SV: 2 0 0 ::CANKBD::RawByte4 = 0
   8.999772    SV: 2 0 0 ::CANKBD::RawByte5 = 0
   8.999772    SV: 2 0 0 ::CANKBD::RawByte6 = 1
   8.999772    SV: 2 0 0 ::CANKBD::LastRawByte0 = 1
   8.999772    SV: 2 0 0 ::CANKBD::LastRawByte1 = 69
   8.999772    SV: 2 0 0 ::CANKBD::LastRawByte2 = 0
   8.999772    SV: 2 0 0 ::CANKBD::LastRawByte3 = 0
   8.999772    SV: 2 0 0 ::CANKBD::LastRawByte4 = 0
   8.999772    SV: 2 0 0 ::CANKBD::LastRawByte5 = 0
   8.999772    SV: 2 0 0 ::CANKBD::LastRawByte6 = 1
   9.049127 1  776             Rx   d 1 05  Length = 107898 BitCount = 58 ID = 1910
   9.049127    SV: 3 0 0 ::CANKBD::NMT = "NMT Operational"
   9.079784 1  1F6             Rx   d 7 00 00 00 00 00 00 01  Length = 225894 BitCount = 117 ID = 502
   9.079784    SV: 2 0 0 ::CANKBD::RxPDOCnt = 26
   9.079784    SV: 2 0 0 ::CANKBD::RawByte0 = 0
   9.079784    SV: 2 0 0 ::CANKBD::RawByte1 = 0
   9.079784    SV: 2 0 0 ::CANKBD::RawByte2 = 0
   9.079784    SV: 2 0 0 ::CANKBD::RawByte3 = 0
   9.079784    SV: 2 0 0 ::CANKBD::RawByte4 = 0
   9.079784    SV: 2 0 0 ::CANKBD::RawByte5 = 0
   9.079784    SV: 2 0 0 ::CANKBD::RawByte6 = 1
   9.079784    SV: 2 0 0 ::CANKBD::LastRawByte0 = 1
   9.079784    SV: 2 0 0 ::CANKBD::LastRawByte1 = 69
   9.079784    SV: 2 0 0 ::CANKBD::LastRawByte2 = 0
   9.079784    SV: 2 0 0 ::CANKBD::LastRawByte3 = 0
   9.079784    SV: 2 0 0 ::CANKBD::LastRawByte4 = 0
   9.079784    SV: 2 0 0 ::CANKBD::LastRawByte5 = 0
   9.079784    SV: 2 0 0 ::CANKBD::LastRawByte6 = 1
   9.149139 1  776             Rx   d 1 05  Length = 107898 BitCount = 58 ID = 1910
   9.149139    SV: 3 0 0 ::CANKBD::NMT = "NMT Operational"
   9.159694 1  1F6             Rx   d 7 00 00 00 00 00 00 01  Length = 225894 BitCount = 117 ID = 502
   9.159694    SV: 2 0 0 ::CANKBD::RxPDOCnt = 27
   9.159694    SV: 2 0 0 ::CANKBD::RawByte0 = 0
   9.159694    SV: 2 0 0 ::CANKBD::RawByte1 = 0
   9.159694    SV: 2 0 0 ::CANKBD::RawByte2 = 0
   9.159694    SV: 2 0 0 ::CANKBD::RawByte3 = 0
   9.159694    SV: 2 0 0 ::CANKBD::RawByte4 = 0
   9.159694    SV: 2 0 0 ::CANKBD::RawByte5 = 0
   9.159694    SV: 2 0 0 ::CANKBD::RawByte6 = 1
   9.159694    SV: 2 0 0 ::CANKBD::LastRawByte0 = 1
   9.159694    SV: 2 0 0 ::CANKBD::LastRawByte1 = 69
   9.159694    SV: 2 0 0 ::CANKBD::LastRawByte2 = 0
   9.159694    SV: 2 0 0 ::CANKBD::LastRawByte3 = 0
   9.159694    SV: 2 0 0 ::CANKBD::LastRawByte4 = 0
   9.159694    SV: 2 0 0 ::CANKBD::LastRawByte5 = 0
   9.159694    SV: 2 0 0 ::CANKBD::LastRawByte6 = 1
   9.165874 1  276             Tx   d 1 01  Length = 109987 BitCount = 58 ID = 630
   9.165874    SV: 3 0 0 ::CANKBD::LangAr = "English Selected"
   9.239705 1  1F6             Rx   d 7 00 00 00 00 00 00 01  Length = 225894 BitCount = 117 ID = 502
   9.239705    SV: 2 0 0 ::CANKBD::RxPDOCnt = 28
   9.239705    SV: 2 0 0 ::CANKBD::RawByte0 = 0
   9.239705    SV: 2 0 0 ::CANKBD::RawByte1 = 0
   9.239705    SV: 2 0 0 ::CANKBD::RawByte2 = 0
   9.239705    SV: 2 0 0 ::CANKBD::RawByte3 = 0
   9.239705    SV: 2 0 0 ::CANKBD::RawByte4 = 0
   9.239705    SV: 2 0 0 ::CANKBD::RawByte5 = 0
   9.239705    SV: 2 0 0 ::CANKBD::RawByte6 = 1
   9.239705    SV: 2 0 0 ::CANKBD::LastRawByte0 = 1
   9.239705    SV: 2 0 0 ::CANKBD::LastRawByte1 = 69
   9.239705    SV: 2 0 0 ::CANKBD::LastRawByte2 = 0
   9.239705    SV: 2 0 0 ::CANKBD::LastRawByte3 = 0
   9.239705    SV: 2 0 0 ::CANKBD::LastRawByte4 = 0
   9.239705    SV: 2 0 0 ::CANKBD::LastRawByte5 = 0
   9.239705    SV: 2 0 0 ::CANKBD::LastRawByte6 = 1
   9.249069 1  776             Rx   d 1 05  Length = 107898 BitCount = 58 ID = 1910
   9.249069    SV: 3 0 0 ::CANKBD::NMT = "NMT Operational"
   9.319715 1  1F6             Rx   d 7 00 00 00 00 00 00 01  Length = 225894 BitCount = 117 ID = 502
   9.319715    SV: 2 0 0 ::CANKBD::RxPDOCnt = 29
   9.319715    SV: 2 0 0 ::CANKBD::RawByte0 = 0
   9.319715    SV: 2 0 0 ::CANKBD::RawByte1 = 0
   9.319715    SV: 2 0 0 ::CANKBD::RawByte2 = 0
   9.319715    SV: 2 0 0 ::CANKBD::RawByte3 = 0
   9.319715    SV: 2 0 0 ::CANKBD::RawByte4 = 0
   9.319715    SV: 2 0 0 ::CANKBD::RawByte5 = 0
   9.319715    SV: 2 0 0 ::CANKBD::RawByte6 = 1
   9.319715    SV: 2 0 0 ::CANKBD::LastRawByte0 = 1
   9.319715    SV: 2 0 0 ::CANKBD::LastRawByte1 = 69
   9.319715    SV: 2 0 0 ::CANKBD::LastRawByte2 = 0
   9.319715    SV: 2 0 0 ::CANKBD::LastRawByte3 = 0
   9.319715    SV: 2 0 0 ::CANKBD::LastRawByte4 = 0
   9.319715    SV: 2 0 0 ::CANKBD::LastRawByte5 = 0
   9.319715    SV: 2 0 0 ::CANKBD::LastRawByte6 = 1
   9.349078 1  776             Rx   d 1 05  Length = 107898 BitCount = 58 ID = 1910
   9.349078    SV: 3 0 0 ::CANKBD::NMT = "NMT Operational"
   9.365710 1  276             Tx   d 1 01  Length = 109987 BitCount = 58 ID = 630
   9.365710    SV: 3 0 0 ::CANKBD::LangAr = "English Selected"
   9.399736 1  1F6             Rx   d 7 00 00 00 00 00 00 01  Length = 225894 BitCount = 117 ID = 502
   9.399736    SV: 2 0 0 ::CANKBD::RxPDOCnt = 2a
   9.399736    SV: 2 0 0 ::CANKBD::RawByte0 = 0
   9.399736    SV: 2 0 0 ::CANKBD::RawByte1 = 0
   9.399736    SV: 2 0 0 ::CANKBD::RawByte2 = 0
   9.399736    SV: 2 0 0 ::CANKBD::RawByte3 = 0
   9.399736    SV: 2 0 0 ::CANKBD::RawByte4 = 0
   9.399736    SV: 2 0 0 ::CANKBD::RawByte5 = 0
   9.399736    SV: 2 0 0 ::CANKBD::RawByte6 = 1
   9.399736    SV: 2 0 0 ::CANKBD::LastRawByte0 = 1
   9.399736    SV: 2 0 0 ::CANKBD::LastRawByte1 = 69
   9.399736    SV: 2 0 0 ::CANKBD::LastRawByte2 = 0
   9.399736    SV: 2 0 0 ::CANKBD::LastRawByte3 = 0
   9.399736    SV: 2 0 0 ::CANKBD::LastRawByte4 = 0
   9.399736    SV: 2 0 0 ::CANKBD::LastRawByte5 = 0
   9.399736    SV: 2 0 0 ::CANKBD::LastRawByte6 = 1
   9.449094 1  776             Rx   d 1 05  Length = 107898 BitCount = 58 ID = 1910
   9.449094    SV: 3 0 0 ::CANKBD::NMT = "NMT Operational"
   9.479757 1  1F6             Rx   d 7 00 00 00 00 00 00 01  Length = 225894 BitCount = 117 ID = 502
   9.479757    SV: 2 0 0 ::CANKBD::RxPDOCnt = 2b
   9.479757    SV: 2 0 0 ::CANKBD::RawByte0 = 0
   9.479757    SV: 2 0 0 ::CANKBD::RawByte1 = 0
   9.479757    SV: 2 0 0 ::CANKBD::RawByte2 = 0
   9.479757    SV: 2 0 0 ::CANKBD::RawByte3 = 0
   9.479757    SV: 2 0 0 ::CANKBD::RawByte4 = 0
   9.479757    SV: 2 0 0 ::CANKBD::RawByte5 = 0
   9.479757    SV: 2 0 0 ::CANKBD::RawByte6 = 1
   9.479757    SV: 2 0 0 ::CANKBD::LastRawByte0 = 1
   9.479757    SV: 2 0 0 ::CANKBD::LastRawByte1 = 69
   9.479757    SV: 2 0 0 ::CANKBD::LastRawByte2 = 0
   9.479757    SV: 2 0 0 ::CANKBD::LastRawByte3 = 0
   9.479757    SV: 2 0 0 ::CANKBD::LastRawByte4 = 0
   9.479757    SV: 2 0 0 ::CANKBD::LastRawByte5 = 0
   9.479757    SV: 2 0 0 ::CANKBD::LastRawByte6 = 1
   9.549111 1  776             Rx   d 1 05  Length = 107898 BitCount = 58 ID = 1910
   9.549111    SV: 3 0 0 ::CANKBD::NMT = "NMT Operational"
   9.559769 1  1F6             Rx   d 7 00 00 00 00 00 00 01  Length = 225894 BitCount = 117 ID = 502
   9.559769    SV: 2 0 0 ::CANKBD::RxPDOCnt = 2c
   9.559769    SV: 2 0 0 ::CANKBD::RawByte0 = 0
   9.559769    SV: 2 0 0 ::CANKBD::RawByte1 = 0
   9.559769    SV: 2 0 0 ::CANKBD::RawByte2 = 0
   9.559769    SV: 2 0 0 ::CANKBD::RawByte3 = 0
   9.559769    SV: 2 0 0 ::CANKBD::RawByte4 = 0
   9.559769    SV: 2 0 0 ::CANKBD::RawByte5 = 0
   9.559769    SV: 2 0 0 ::CANKBD::RawByte6 = 1
   9.559769    SV: 2 0 0 ::CANKBD::LastRawByte0 = 1
   9.559769    SV: 2 0 0 ::CANKBD::LastRawByte1 = 69
   9.559769    SV: 2 0 0 ::CANKBD::LastRawByte2 = 0
   9.559769    SV: 2 0 0 ::CANKBD::LastRawByte3 = 0
   9.559769    SV: 2 0 0 ::CANKBD::LastRawByte4 = 0
   9.559769    SV: 2 0 0 ::CANKBD::LastRawByte5 = 0
   9.559769    SV: 2 0 0 ::CANKBD::LastRawByte6 = 1
   9.565905 1  276             Tx   d 1 01  Length = 109987 BitCount = 58 ID = 630
   9.565905    SV: 3 0 0 ::CANKBD::LangAr = "English Selected"
   9.639668 1  1F6             Rx   d 7 00 00 00 00 00 00 01  Length = 225894 BitCount = 117 ID = 502
   9.639668    SV: 2 0 0 ::CANKBD::RxPDOCnt = 2d
   9.639668    SV: 2 0 0 ::CANKBD::RawByte0 = 0
   9.639668    SV: 2 0 0 ::CANKBD::RawByte1 = 0
   9.639668    SV: 2 0 0 ::CANKBD::RawByte2 = 0
   9.639668    SV: 2 0 0 ::CANKBD::RawByte3 = 0
   9.639668    SV: 2 0 0 ::CANKBD::RawByte4 = 0
   9.639668    SV: 2 0 0 ::CANKBD::RawByte5 = 0
   9.639668    SV: 2 0 0 ::CANKBD::RawByte6 = 1
   9.639668    SV: 2 0 0 ::CANKBD::LastRawByte0 = 1
   9.639668    SV: 2 0 0 ::CANKBD::LastRawByte1 = 69
   9.639668    SV: 2 0 0 ::CANKBD::LastRawByte2 = 0
   9.639668    SV: 2 0 0 ::CANKBD::LastRawByte3 = 0
   9.639668    SV: 2 0 0 ::CANKBD::LastRawByte4 = 0
   9.639668    SV: 2 0 0 ::CANKBD::LastRawByte5 = 0
   9.639668    SV: 2 0 0 ::CANKBD::LastRawByte6 = 1
   9.649033 1  776             Rx   d 1 05  Length = 107898 BitCount = 58 ID = 1910
   9.649033    SV: 3 0 0 ::CANKBD::NMT = "NMT Operational"
   9.719690 1  1F6             Rx   d 7 00 00 00 00 00 00 01  Length = 225894 BitCount = 117 ID = 502
   9.719690    SV: 2 0 0 ::CANKBD::RxPDOCnt = 2e
   9.719690    SV: 2 0 0 ::CANKBD::RawByte0 = 0
   9.719690    SV: 2 0 0 ::CANKBD::RawByte1 = 0
   9.719690    SV: 2 0 0 ::CANKBD::RawByte2 = 0
   9.719690    SV: 2 0 0 ::CANKBD::RawByte3 = 0
   9.719690    SV: 2 0 0 ::CANKBD::RawByte4 = 0
   9.719690    SV: 2 0 0 ::CANKBD::RawByte5 = 0
   9.719690    SV: 2 0 0 ::CANKBD::RawByte6 = 1
   9.719690    SV: 2 0 0 ::CANKBD::LastRawByte0 = 1
   9.719690    SV: 2 0 0 ::CANKBD::LastRawByte1 = 69
   9.719690    SV: 2 0 0 ::CANKBD::LastRawByte2 = 0
   9.719690    SV: 2 0 0 ::CANKBD::LastRawByte3 = 0
   9.719690    SV: 2 0 0 ::CANKBD::LastRawByte4 = 0
   9.719690    SV: 2 0 0 ::CANKBD::LastRawByte5 = 0
   9.719690    SV: 2 0 0 ::CANKBD::LastRawByte6 = 1
   9.749047 1  776             Rx   d 1 05  Length = 107898 BitCount = 58 ID = 1910
   9.749047    SV: 3 0 0 ::CANKBD::NMT = "NMT Operational"
   9.765803 1  276             Tx   d 1 01  Length = 109987 BitCount = 58 ID = 630
   9.765803    SV: 3 0 0 ::CANKBD::LangAr = "English Selected"
   9.799703 1  1F6             Rx   d 7 00 00 00 00 00 00 01  Length = 225894 BitCount = 117 ID = 502
   9.799703    SV: 2 0 0 ::CANKBD::RxPDOCnt = 2f
   9.799703    SV: 2 0 0 ::CANKBD::RawByte0 = 0
   9.799703    SV: 2 0 0 ::CANKBD::RawByte1 = 0
   9.799703    SV: 2 0 0 ::CANKBD::RawByte2 = 0
   9.799703    SV: 2 0 0 ::CANKBD::RawByte3 = 0
   9.799703    SV: 2 0 0 ::CANKBD::RawByte4 = 0
   9.799703    SV: 2 0 0 ::CANKBD::RawByte5 = 0
   9.799703    SV: 2 0 0 ::CANKBD::RawByte6 = 1
   9.799703    SV: 2 0 0 ::CANKBD::LastRawByte0 = 1
   9.799703    SV: 2 0 0 ::CANKBD::LastRawByte1 = 69
   9.799703    SV: 2 0 0 ::CANKBD::LastRawByte2 = 0
   9.799703    SV: 2 0 0 ::CANKBD::LastRawByte3 = 0
   9.799703    SV: 2 0 0 ::CANKBD::LastRawByte4 = 0
   9.799703    SV: 2 0 0 ::CANKBD::LastRawByte5 = 0
   9.799703    SV: 2 0 0 ::CANKBD::LastRawByte6 = 1
   9.849065 1  776             Rx   d 1 05  Length = 107898 BitCount = 58 ID = 1910
   9.849065    SV: 3 0 0 ::CANKBD::NMT = "NMT Operational"
   9.879722 1  1F6             Rx   d 7 00 00 00 00 00 00 01  Length = 225894 BitCount = 117 ID = 502
   9.879722    SV: 2 0 0 ::CANKBD::RxPDOCnt = 30
   9.879722    SV: 2 0 0 ::CANKBD::RawByte0 = 0
   9.879722    SV: 2 0 0 ::CANKBD::RawByte1 = 0
   9.879722    SV: 2 0 0 ::CANKBD::RawByte2 = 0
   9.879722    SV: 2 0 0 ::CANKBD::RawByte3 = 0
   9.879722    SV: 2 0 0 ::CANKBD::RawByte4 = 0
   9.879722    SV: 2 0 0 ::CANKBD::RawByte5 = 0
   9.879722    SV: 2 0 0 ::CANKBD::RawByte6 = 1
   9.879722    SV: 2 0 0 ::CANKBD::LastRawByte0 = 1
   9.879722    SV: 2 0 0 ::CANKBD::LastRawByte1 = 69
   9.879722    SV: 2 0 0 ::CANKBD::LastRawByte2 = 0
   9.879722    SV: 2 0 0 ::CANKBD::LastRawByte3 = 0
   9.879722    SV: 2 0 0 ::CANKBD::LastRawByte4 = 0
   9.879722    SV: 2 0 0 ::CANKBD::LastRawByte5 = 0
   9.879722    SV: 2 0 0 ::CANKBD::LastRawByte6 = 1
   9.949076 1  776             Rx   d 1 05  Length = 107898 BitCount = 58 ID = 1910
   9.949076    SV: 3 0 0 ::CANKBD::NMT = "NMT Operational"
   9.959742 1  1F6             Rx   d 7 00 00 00 00 00 00 01  Length = 225894 BitCount = 117 ID = 502
   9.959742    SV: 2 0 0 ::CANKBD::RxPDOCnt = 31
   9.959742    SV: 2 0 0 ::CANKBD::RawByte0 = 0
   9.959742    SV: 2 0 0 ::CANKBD::RawByte1 = 0
   9.959742    SV: 2 0 0 ::CANKBD::RawByte2 = 0
   9.959742    SV: 2 0 0 ::CANKBD::RawByte3 = 0
   9.959742    SV: 2 0 0 ::CANKBD::RawByte4 = 0
   9.959742    SV: 2 0 0 ::CANKBD::RawByte5 = 0
   9.959742    SV: 2 0 0 ::CANKBD::RawByte6 = 1
   9.959742    SV: 2 0 0 ::CANKBD::LastRawByte0 = 1
   9.959742    SV: 2 0 0 ::CANKBD::LastRawByte1 = 69
   9.959742    SV: 2 0 0 ::CANKBD::LastRawByte2 = 0
   9.959742    SV: 2 0 0 ::CANKBD::LastRawByte3 = 0
   9.959742    SV: 2 0 0 ::CANKBD::LastRawByte4 = 0
   9.959742    SV: 2 0 0 ::CANKBD::LastRawByte5 = 0
   9.959742    SV: 2 0 0 ::CANKBD::LastRawByte6 = 1
   9.965904 1  276             Tx   d 1 01  Length = 109987 BitCount = 58 ID = 630
   9.965904    SV: 3 0 0 ::CANKBD::LangAr = "English Selected"
  10.039742 1  1F6             Rx   d 7 00 00 00 00 00 00 01  Length = 225894 BitCount = 117 ID = 502
  10.039742    SV: 2 0 0 ::CANKBD::RxPDOCnt = 32
  10.039742    SV: 2 0 0 ::CANKBD::RawByte0 = 0
  10.039742    SV: 2 0 0 ::CANKBD::RawByte1 = 0
  10.039742    SV: 2 0 0 ::CANKBD::RawByte2 = 0
  10.039742    SV: 2 0 0 ::CANKBD::RawByte3 = 0
  10.039742    SV: 2 0 0 ::CANKBD::RawByte4 = 0
  10.039742    SV: 2 0 0 ::CANKBD::RawByte5 = 0
  10.039742    SV: 2 0 0 ::CANKBD::RawByte6 = 1
  10.039742    SV: 2 0 0 ::CANKBD::LastRawByte0 = 1
  10.039742    SV: 2 0 0 ::CANKBD::LastRawByte1 = 69
  10.039742    SV: 2 0 0 ::CANKBD::LastRawByte2 = 0
  10.039742    SV: 2 0 0 ::CANKBD::LastRawByte3 = 0
  10.039742    SV: 2 0 0 ::CANKBD::LastRawByte4 = 0
  10.039742    SV: 2 0 0 ::CANKBD::LastRawByte5 = 0
  10.039742    SV: 2 0 0 ::CANKBD::LastRawByte6 = 1
  10.049108 1  776             Rx   d 1 05  Length = 107898 BitCount = 58 ID = 1910
  10.049108    SV: 3 0 0 ::CANKBD::NMT = "NMT Operational"
  10.119651 1  1F6             Rx   d 7 00 00 00 00 00 00 01  Length = 225894 BitCount = 117 ID = 502
  10.119651    SV: 2 0 0 ::CANKBD::RxPDOCnt = 33
  10.119651    SV: 2 0 0 ::CANKBD::RawByte0 = 0
  10.119651    SV: 2 0 0 ::CANKBD::RawByte1 = 0
  10.119651    SV: 2 0 0 ::CANKBD::RawByte2 = 0
  10.119651    SV: 2 0 0 ::CANKBD::RawByte3 = 0
  10.119651    SV: 2 0 0 ::CANKBD::RawByte4 = 0
  10.119651    SV: 2 0 0 ::CANKBD::RawByte5 = 0
  10.119651    SV: 2 0 0 ::CANKBD::RawByte6 = 1
  10.119651    SV: 2 0 0 ::CANKBD::LastRawByte0 = 1
  10.119651    SV: 2 0 0 ::CANKBD::LastRawByte1 = 69
  10.119651    SV: 2 0 0 ::CANKBD::LastRawByte2 = 0
  10.119651    SV: 2 0 0 ::CANKBD::LastRawByte3 = 0
  10.119651    SV: 2 0 0 ::CANKBD::LastRawByte4 = 0
  10.119651    SV: 2 0 0 ::CANKBD::LastRawByte5 = 0
  10.119651    SV: 2 0 0 ::CANKBD::LastRawByte6 = 1
  10.149016 1  776             Rx   d 1 05  Length = 107898 BitCount = 58 ID = 1910
  10.149016    SV: 3 0 0 ::CANKBD::NMT = "NMT Operational"
  10.165858 1  276             Tx   d 1 01  Length = 109987 BitCount = 58 ID = 630
  10.165858    SV: 3 0 0 ::CANKBD::LangAr = "English Selected"
  10.199676 1  1F6             Rx   d 7 00 00 00 00 00 00 01  Length = 225894 BitCount = 117 ID = 502
  10.199676    SV: 2 0 0 ::CANKBD::RxPDOCnt = 34
  10.199676    SV: 2 0 0 ::CANKBD::RawByte0 = 0
  10.199676    SV: 2 0 0 ::CANKBD::RawByte1 = 0
  10.199676    SV: 2 0 0 ::CANKBD::RawByte2 = 0
  10.199676    SV: 2 0 0 ::CANKBD::RawByte3 = 0
  10.199676    SV: 2 0 0 ::CANKBD::RawByte4 = 0
  10.199676    SV: 2 0 0 ::CANKBD::RawByte5 = 0
  10.199676    SV: 2 0 0 ::CANKBD::RawByte6 = 1
  10.199676    SV: 2 0 0 ::CANKBD::LastRawByte0 = 1
  10.199676    SV: 2 0 0 ::CANKBD::LastRawByte1 = 69
  10.199676    SV: 2 0 0 ::CANKBD::LastRawByte2 = 0
  10.199676    SV: 2 0 0 ::CANKBD::LastRawByte3 = 0
  10.199676    SV: 2 0 0 ::CANKBD::LastRawByte4 = 0
  10.199676    SV: 2 0 0 ::CANKBD::LastRawByte5 = 0
  10.199676    SV: 2 0 0 ::CANKBD::LastRawByte6 = 1
  10.249030 1  776             Rx   d 1 05  Length = 107898 BitCount = 58 ID = 1910
  10.249030    SV: 3 0 0 ::CANKBD::NMT = "NMT Operational"
  10.279686 1  1F6             Rx   d 7 00 00 00 00 00 00 01  Length = 225894 BitCount = 117 ID = 502
  10.279686    SV: 2 0 0 ::CANKBD::RxPDOCnt = 35
  10.279686    SV: 2 0 0 ::CANKBD::RawByte0 = 0
  10.279686    SV: 2 0 0 ::CANKBD::RawByte1 = 0
  10.279686    SV: 2 0 0 ::CANKBD::RawByte2 = 0
  10.279686    SV: 2 0 0 ::CANKBD::RawByte3 = 0
  10.279686    SV: 2 0 0 ::CANKBD::RawByte4 = 0
  10.279686    SV: 2 0 0 ::CANKBD::RawByte5 = 0
  10.279686    SV: 2 0 0 ::CANKBD::RawByte6 = 1
  10.279686    SV: 2 0 0 ::CANKBD::LastRawByte0 = 1
  10.279686    SV: 2 0 0 ::CANKBD::LastRawByte1 = 69
  10.279686    SV: 2 0 0 ::CANKBD::LastRawByte2 = 0
  10.279686    SV: 2 0 0 ::CANKBD::LastRawByte3 = 0
  10.279686    SV: 2 0 0 ::CANKBD::LastRawByte4 = 0
  10.279686    SV: 2 0 0 ::CANKBD::LastRawByte5 = 0
  10.279686    SV: 2 0 0 ::CANKBD::LastRawByte6 = 1
  10.349041 1  776             Rx   d 1 05  Length = 107898 BitCount = 58 ID = 1910
  10.349041    SV: 3 0 0 ::CANKBD::NMT = "NMT Operational"
  10.359703 1  1F6             Rx   d 7 00 00 00 00 00 00 01  Length = 225894 BitCount = 117 ID = 502
  10.359703    SV: 2 0 0 ::CANKBD::RxPDOCnt = 36
  10.359703    SV: 2 0 0 ::CANKBD::RawByte0 = 0
  10.359703    SV: 2 0 0 ::CANKBD::RawByte1 = 0
  10.359703    SV: 2 0 0 ::CANKBD::RawByte2 = 0
  10.359703    SV: 2 0 0 ::CANKBD::RawByte3 = 0
  10.359703    SV: 2 0 0 ::CANKBD::RawByte4 = 0
  10.359703    SV: 2 0 0 ::CANKBD::RawByte5 = 0
  10.359703    SV: 2 0 0 ::CANKBD::RawByte6 = 1
  10.359703    SV: 2 0 0 ::CANKBD::LastRawByte0 = 1
  10.359703    SV: 2 0 0 ::CANKBD::LastRawByte1 = 69
  10.359703    SV: 2 0 0 ::CANKBD::LastRawByte2 = 0
  10.359703    SV: 2 0 0 ::CANKBD::LastRawByte3 = 0
  10.359703    SV: 2 0 0 ::CANKBD::LastRawByte4 = 0
  10.359703    SV: 2 0 0 ::CANKBD::LastRawByte5 = 0
  10.359703    SV: 2 0 0 ::CANKBD::LastRawByte6 = 1
  10.365749 1  276             Tx   d 1 01  Length = 109987 BitCount = 58 ID = 630
  10.365749    SV: 3 0 0 ::CANKBD::LangAr = "English Selected"
  10.439713 1  1F6             Rx   d 7 00 00 00 00 00 00 01  Length = 225894 BitCount = 117 ID = 502
  10.439713    SV: 2 0 0 ::CANKBD::RxPDOCnt = 37
  10.439713    SV: 2 0 0 ::CANKBD::RawByte0 = 0
  10.439713    SV: 2 0 0 ::CANKBD::RawByte1 = 0
  10.439713    SV: 2 0 0 ::CANKBD::RawByte2 = 0
  10.439713    SV: 2 0 0 ::CANKBD::RawByte3 = 0
  10.439713    SV: 2 0 0 ::CANKBD::RawByte4 = 0
  10.439713    SV: 2 0 0 ::CANKBD::RawByte5 = 0
  10.439713    SV: 2 0 0 ::CANKBD::RawByte6 = 1
  10.439713    SV: 2 0 0 ::CANKBD::LastRawByte0 = 1
  10.439713    SV: 2 0 0 ::CANKBD::LastRawByte1 = 69
  10.439713    SV: 2 0 0 ::CANKBD::LastRawByte2 = 0
  10.439713    SV: 2 0 0 ::CANKBD::LastRawByte3 = 0
  10.439713    SV: 2 0 0 ::CANKBD::LastRawByte4 = 0
  10.439713    SV: 2 0 0 ::CANKBD::LastRawByte5 = 0
  10.439713    SV: 2 0 0 ::CANKBD::LastRawByte6 = 1
  10.449077 1  776             Rx   d 1 05  Length = 107898 BitCount = 58 ID = 1910
  10.449077    SV: 3 0 0 ::CANKBD::NMT = "NMT Operational"
  10.519618 1  1F6             Rx   d 7 00 00 00 00 00 00 01  Length = 225894 BitCount = 117 ID = 502
  10.519618    SV: 2 0 0 ::CANKBD::RxPDOCnt = 38
  10.519618    SV: 2 0 0 ::CANKBD::RawByte0 = 0
  10.519618    SV: 2 0 0 ::CANKBD::RawByte1 = 0
  10.519618    SV: 2 0 0 ::CANKBD::RawByte2 = 0
  10.519618    SV: 2 0 0 ::CANKBD::RawByte3 = 0
  10.519618    SV: 2 0 0 ::CANKBD::RawByte4 = 0
  10.519618    SV: 2 0 0 ::CANKBD::RawByte5 = 0
  10.519618    SV: 2 0 0 ::CANKBD::RawByte6 = 1
  10.519618    SV: 2 0 0 ::CANKBD::LastRawByte0 = 1
  10.519618    SV: 2 0 0 ::CANKBD::LastRawByte1 = 69
  10.519618    SV: 2 0 0 ::CANKBD::LastRawByte2 = 0
  10.519618    SV: 2 0 0 ::CANKBD::LastRawByte3 = 0
  10.519618    SV: 2 0 0 ::CANKBD::LastRawByte4 = 0
  10.519618    SV: 2 0 0 ::CANKBD::LastRawByte5 = 0
  10.519618    SV: 2 0 0 ::CANKBD::LastRawByte6 = 1
  10.549088 1  776             Rx   d 1 05  Length = 107898 BitCount = 58 ID = 1910
  10.549088    SV: 3 0 0 ::CANKBD::NMT = "NMT Operational"
  10.565948 1  276             Tx   d 1 01  Length = 109987 BitCount = 58 ID = 630
  10.565948    SV: 3 0 0 ::CANKBD::LangAr = "English Selected"
  10.599637 1  1F6             Rx   d 7 00 00 00 00 00 00 01  Length = 225894 BitCount = 117 ID = 502
  10.599637    SV: 2 0 0 ::CANKBD::RxPDOCnt = 39
  10.599637    SV: 2 0 0 ::CANKBD::RawByte0 = 0
  10.599637    SV: 2 0 0 ::CANKBD::RawByte1 = 0
  10.599637    SV: 2 0 0 ::CANKBD::RawByte2 = 0
  10.599637    SV: 2 0 0 ::CANKBD::RawByte3 = 0
  10.599637    SV: 2 0 0 ::CANKBD::RawByte4 = 0
  10.599637    SV: 2 0 0 ::CANKBD::RawByte5 = 0
  10.599637    SV: 2 0 0 ::CANKBD::RawByte6 = 1
  10.599637    SV: 2 0 0 ::CANKBD::LastRawByte0 = 1
  10.599637    SV: 2 0 0 ::CANKBD::LastRawByte1 = 69
  10.599637    SV: 2 0 0 ::CANKBD::LastRawByte2 = 0
  10.599637    SV: 2 0 0 ::CANKBD::LastRawByte3 = 0
  10.599637    SV: 2 0 0 ::CANKBD::LastRawByte4 = 0
  10.599637    SV: 2 0 0 ::CANKBD::LastRawByte5 = 0
  10.599637    SV: 2 0 0 ::CANKBD::LastRawByte6 = 1
  10.648995 1  776             Rx   d 1 05  Length = 107898 BitCount = 58 ID = 1910
  10.648995    SV: 3 0 0 ::CANKBD::NMT = "NMT Operational"
  10.679657 1  1F6             Rx   d 7 00 00 00 00 00 00 01  Length = 225894 BitCount = 117 ID = 502
  10.679657    SV: 2 0 0 ::CANKBD::RxPDOCnt = 3a
  10.679657    SV: 2 0 0 ::CANKBD::RawByte0 = 0
  10.679657    SV: 2 0 0 ::CANKBD::RawByte1 = 0
  10.679657    SV: 2 0 0 ::CANKBD::RawByte2 = 0
  10.679657    SV: 2 0 0 ::CANKBD::RawByte3 = 0
  10.679657    SV: 2 0 0 ::CANKBD::RawByte4 = 0
  10.679657    SV: 2 0 0 ::CANKBD::RawByte5 = 0
  10.679657    SV: 2 0 0 ::CANKBD::RawByte6 = 1
  10.679657    SV: 2 0 0 ::CANKBD::LastRawByte0 = 1
  10.679657    SV: 2 0 0 ::CANKBD::LastRawByte1 = 69
  10.679657    SV: 2 0 0 ::CANKBD::LastRawByte2 = 0
  10.679657    SV: 2 0 0 ::CANKBD::LastRawByte3 = 0
  10.679657    SV: 2 0 0 ::CANKBD::LastRawByte4 = 0
  10.679657    SV: 2 0 0 ::CANKBD::LastRawByte5 = 0
  10.679657    SV: 2 0 0 ::CANKBD::LastRawByte6 = 1
