

HI-TECH Software PIC LITE Macro Assembler V9.80 build 6738 
                                                                                               Wed Jul 06 14:03:49 2016

HI-TECH Software Omniscient Code Generator (Lite mode) build 6738
     1  0000                     opt subtitle "HI-TECH Software Omniscient Code Generator (Lite mode) build 6738"
     2                           
     3                           opt pagewidth 120
     4                           
     5                           	opt lm
     6                           
     7                           	processor	16F887
     8                           clrc	macro
     9                           	bcf	3,0
    10  0000                     	endm
    11                           clrz	macro
    12                           	bcf	3,2
    13  0000                     	endm
    14                           setc	macro
    15                           	bsf	3,0
    16  0000                     	endm
    17                           setz	macro
    18                           	bsf	3,2
    19  0000                     	endm
    20                           skipc	macro
    21                           	btfss	3,0
    22  0000                     	endm
    23                           skipz	macro
    24                           	btfss	3,2
    25  0000                     	endm
    26                           skipnc	macro
    27                           	btfsc	3,0
    28  0000                     	endm
    29                           skipnz	macro
    30                           	btfsc	3,2
    31  0000                     	endm
    32  0000                     indf	equ	0
    33  0000                     indf0	equ	0
    34  0002                     pc	equ	2
    35  0002                     pcl	equ	2
    36  0003                     status	equ	3
    37  0004                     fsr	equ	4
    38  0004                     fsr0	equ	4
    39  0001                     c	equ	1
    40  0000                     z	equ	0
    41  000A                     pclath	equ	10
    42                           # 6 "C:\Users\t0028919\Desktop\Flash_Drive_Backup\Removable Disk\pic_projects\TML issue 
                                 with Vector Cast ti SYSBIOS include issue\main.c"
    43                           	psect config,class=CONFIG,delta=2 ;#
    44                           # 6 "C:\Users\t0028919\Desktop\Flash_Drive_Backup\Removable Disk\pic_projects\TML issue 
                                 with Vector Cast ti SYSBIOS include issue\main.c"
    45  2007  1AE5               	dw 0x1FFF & 0x3FFF & 0x3FFF & 0x3BFF & 0x3EFF & 0x3FFF & 0x3FFF & 0x3FFF & 0x3FEF & 0x3
                                 FF7 & 0x3FFD ;#
    46                           # 7 "C:\Users\t0028919\Desktop\Flash_Drive_Backup\Removable Disk\pic_projects\TML issue 
                                 with Vector Cast ti SYSBIOS include issue\main.c"
    47                           	psect config,class=CONFIG,delta=2 ;#
    48                           # 7 "C:\Users\t0028919\Desktop\Flash_Drive_Backup\Removable Disk\pic_projects\TML issue 
                                 with Vector Cast ti SYSBIOS include issue\main.c"
    49  2008  3FFF               	dw 0x3FFF ;#
    50                           	FNCALL	_main,_gADCAverageRead
    51                           	FNCALL	_main,_Schedule
    52                           	FNCALL	_main,_PostSchedule
    53                           	FNCALL	_gADCAverageRead,___lwdiv
    54                           	FNROOT	_main
    55                           	global	_Week1Out
    56                           	global	_Week1OutPtr
    57                           	global	gADCAverageRead@uwAggregateCnt
    58                           	global	_toms_variable
    59                           	global	gADCAverageRead@ubDivideByCnt
    60                           	global	gADCAverageRead@ubResult
    61                           	global	_Week1In
    62                           	global	_persistent_watch_dog_count
    63                           psect	nvBANK0,class=BANK0,space=1
    64                           global __pnvBANK0
    65  0067                     __pnvBANK0:
    66  0067                     _persistent_watch_dog_count:
    67  0067                            ds      2
    68                           
    69                           	global	_Pknl_Semaphore_Handle
    70  0069                     _Pknl_Semaphore_Handle:
    71  0069                            ds      1
    72                           
    73                           	file	"TML issue with Vector Cast ti SYSBIOS include issue.as"
    74                           	line	#
    75                           psect cinit,class=CODE,delta=2
    76                           global start_initialization
    77  06A0                     start_initialization:
    78                           
    79                           psect	bssCOMMON,class=COMMON,space=1
    80                           global __pbssCOMMON
    81  007B                     __pbssCOMMON:
    82  007B                     _toms_variable:
    83  007B                            ds      1
    84                           
    85  007C                     gADCAverageRead@ubDivideByCnt:
    86  007C                            ds      1
    87                           
    88  007D                     gADCAverageRead@ubResult:
    89  007D                            ds      1
    90                           
    91                           psect	bssBANK0,class=BANK0,space=1
    92                           global __pbssBANK0
    93  0020                     __pbssBANK0:
    94  0020                     _Week1Out:
    95  0020                            ds      14
    96                           
    97  002E                     _Week1OutPtr:
    98  002E                            ds      14
    99                           
   100  003C                     gADCAverageRead@uwAggregateCnt:
   101  003C                            ds      2
   102                           
   103  003E                     _Week1In:
   104  003E                            ds      14
   105                           
   106                           psect clrtext,class=CODE,delta=2
   107                           global clear_ram
   108                           ;	Called with FSR containing the base address, and
   109                           ;	W with the last address+1
   110  0698                     clear_ram:
   111  0698  0064               	clrwdt			;clear the watchdog before getting into this loop
   112  0699                     clrloop:
   113  0699  0180               	clrf	indf		;clear RAM location pointed to by FSR
   114  069A  0A84               	incf	fsr,f		;increment pointer
   115  069B  0604               	xorwf	fsr,w		;XOR with final address
   116  069C  1903               	btfsc	status,2	;have we reached the end yet?
   117  069D  3400               	retlw	0		;all done for this memory range, return
   118  069E  0604               	xorwf	fsr,w		;XOR again to restore value
   119  069F  2E99               	goto	clrloop		;do the next byte
   120                           
   121                           ; Clear objects allocated to COMMON
   122                           psect cinit,class=CODE,delta=2
   123  06A0  01FB               	clrf	((__pbssCOMMON)+0)&07Fh
   124  06A1  01FC               	clrf	((__pbssCOMMON)+1)&07Fh
   125  06A2  01FD               	clrf	((__pbssCOMMON)+2)&07Fh
   126                           ; Clear objects allocated to BANK0
   127                           psect cinit,class=CODE,delta=2
   128  06A3  1383               	bcf	status, 7	;select IRP bank0
   129  06A4  3020               	movlw	low(__pbssBANK0)
   130  06A5  0084               	movwf	fsr
   131  06A6  304C               	movlw	low((__pbssBANK0)+02Ch)
   132  06A7  120A  118A  2698   	fcall	clear_ram
              120A  118A         
   133                           psect cinit,class=CODE,delta=2
   134                           global end_of_initialization
   135                           
   136                           ;End of C runtime variable initialization code
   137                           
   138  06AC                     end_of_initialization:
   139  06AC  0183               clrf status
   140  06AD  120A  118A  2EB0   ljmp _main	;jump to C main() function
   141                           psect	cstackCOMMON,class=COMMON,space=1
   142                           global __pcstackCOMMON
   143  0070                     __pcstackCOMMON:
   144                           	global	?_Schedule
   145  0070                     ?_Schedule:	; 0 bytes @ 0x0
   146                           	global	??_Schedule
   147  0070                     ??_Schedule:	; 0 bytes @ 0x0
   148                           	global	?_PostSchedule
   149  0070                     ?_PostSchedule:	; 0 bytes @ 0x0
   150                           	global	?_gADCAverageRead
   151  0070                     ?_gADCAverageRead:	; 1 bytes @ 0x0
   152                           	global	?_main
   153  0070                     ?_main:	; 2 bytes @ 0x0
   154                           	global	?___lwdiv
   155  0070                     ?___lwdiv:	; 2 bytes @ 0x0
   156                           	global	PostSchedule@Size
   157  0070                     PostSchedule@Size:	; 1 bytes @ 0x0
   158                           	global	___lwdiv@divisor
   159  0070                     ___lwdiv@divisor:	; 2 bytes @ 0x0
   160  0070                     	ds	1
   161                           	global	??_PostSchedule
   162  0071                     ??_PostSchedule:	; 0 bytes @ 0x1
   163                           	global	Schedule@StaffPtr
   164  0071                     Schedule@StaffPtr:	; 1 bytes @ 0x1
   165  0071                     	ds	1
   166                           	global	___lwdiv@dividend
   167  0072                     ___lwdiv@dividend:	; 2 bytes @ 0x2
   168  0072                     	ds	2
   169                           	global	??___lwdiv
   170  0074                     ??___lwdiv:	; 0 bytes @ 0x4
   171  0074                     	ds	1
   172                           	global	___lwdiv@quotient
   173  0075                     ___lwdiv@quotient:	; 2 bytes @ 0x5
   174  0075                     	ds	2
   175                           	global	___lwdiv@counter
   176  0077                     ___lwdiv@counter:	; 1 bytes @ 0x7
   177  0077                     	ds	1
   178                           	global	??_gADCAverageRead
   179  0078                     ??_gADCAverageRead:	; 0 bytes @ 0x8
   180  0078                     	ds	1
   181                           	global	gADCAverageRead@ADCIn
   182  0079                     gADCAverageRead@ADCIn:	; 1 bytes @ 0x9
   183  0079                     	ds	1
   184                           	global	??_main
   185  007A                     ??_main:	; 0 bytes @ 0xA
   186  007A                     	ds	1
   187                           psect	cstackBANK0,class=BANK0,space=1
   188                           global __pcstackBANK0
   189  004C                     __pcstackBANK0:
   190                           	global	PostSchedule@Week1In
   191  004C                     PostSchedule@Week1In:	; 14 bytes @ 0x0
   192  004C                     	ds	14
   193                           	global	PostSchedule@StaffPtr
   194  005A                     PostSchedule@StaffPtr:	; 1 bytes @ 0xE
   195  005A                     	ds	1
   196                           	global	PostSchedule@i
   197  005B                     PostSchedule@i:	; 1 bytes @ 0xF
   198  005B                     	ds	1
   199                           	global	main@ADCtest
   200  005C                     main@ADCtest:	; 1 bytes @ 0x10
   201  005C                     	ds	1
   202                           	global	main@Semaphore
   203  005D                     main@Semaphore:	; 10 bytes @ 0x11
   204  005D                     	ds	10
   205 ;;Data sizes: Strings 0, constant 0, data 0, bss 47, persistent 3 stack 0
   206 ;;Auto spaces:   Size  Autos    Used
   207 ;; COMMON          14     11      14
   208 ;; BANK0           80     27      74
   209 ;; BANK1           80      0       0
   210 ;; BANK3           96      0       0
   211 ;; BANK2           96      0       0
   212                           
   213 ;;
   214 ;; Pointer list with targets:
   215                           
   216 ;; ?___lwdiv	unsigned int  size(1) Largest target is 0
   217 ;;
   218 ;; PostSchedule@StaffPtr	PTR struct . size(1) Largest target is 14
   219 ;;		 -> Week1In(BANK0[14]), 
   220 ;;
   221 ;; Schedule@StaffPtr	PTR struct . size(1) Largest target is 14
   222 ;;		 -> Week1In(BANK0[14]), 
   223 ;;
   224 ;; Pknl_Semaphore_Handle	PTR volatile struct knl_Semaphore_Object size(1) Largest target is 10
   225 ;;		 -> NULL(NULL[0]), main@Semaphore(BANK0[10]), 
   226 ;;
   227                           
   228                           
   229 ;;
   230 ;; Critical Paths under _main in COMMON
   231 ;;
   232 ;;   _main->_gADCAverageRead
   233 ;;   _gADCAverageRead->___lwdiv
   234 ;;
   235 ;; Critical Paths under _main in BANK0
   236 ;;
   237 ;;   _main->_PostSchedule
   238 ;;
   239 ;; Critical Paths under _main in BANK1
   240 ;;
   241 ;;   None.
   242 ;;
   243 ;; Critical Paths under _main in BANK3
   244 ;;
   245 ;;   None.
   246 ;;
   247 ;; Critical Paths under _main in BANK2
   248 ;;
   249 ;;   None.
   250                           
   251 ;;
   252 ;;Main: autosize = 0, tempsize = 1, incstack = 0, save=0
   253 ;;
   254                           
   255 ;;
   256 ;;Call Graph Tables:
   257 ;;
   258 ;; ---------------------------------------------------------------------------------
   259 ;; (Depth) Function   	        Calls       Base Space   Used Autos Params    Refs
   260 ;; ---------------------------------------------------------------------------------
   261 ;; (0) _main                                                12    12      0     660
   262 ;;                                             10 COMMON     1     1      0
   263 ;;                                             16 BANK0     11    11      0
   264 ;;                    _gADCAverageRead
   265 ;;                           _Schedule
   266 ;;                       _PostSchedule
   267 ;; ---------------------------------------------------------------------------------
   268 ;; (1) _gADCAverageRead                                      2     2      0     184
   269 ;;                                              8 COMMON     2     2      0
   270 ;;                            ___lwdiv
   271 ;; ---------------------------------------------------------------------------------
   272 ;; (2) ___lwdiv                                              8     4      4     162
   273 ;;                                              0 COMMON     8     4      4
   274 ;; ---------------------------------------------------------------------------------
   275 ;; (1) _PostSchedule                                        20    19      1     115
   276 ;;                                              0 COMMON     4     3      1
   277 ;;                                              0 BANK0     16    16      0
   278 ;; ---------------------------------------------------------------------------------
   279 ;; (1) _Schedule                                             2     2      0     314
   280 ;;                                              0 COMMON     2     2      0
   281 ;; ---------------------------------------------------------------------------------
   282 ;; Estimated maximum stack depth 2
   283 ;; ---------------------------------------------------------------------------------
   284                           
   285 ;; Call Graph Graphs:
   286                           
   287 ;; _main (ROOT)
   288 ;;   _gADCAverageRead
   289 ;;     ___lwdiv
   290 ;;   _Schedule
   291 ;;   _PostSchedule
   292 ;;
   293                           
   294 ;; Address spaces:
   295                           
   296 ;;Name               Size   Autos  Total    Cost      Usage
   297 ;;BITCOMMON            E      0       0       0        0.0%
   298 ;;EEDATA             100      0       0       0        0.0%
   299 ;;NULL                 0      0       0       0        0.0%
   300 ;;CODE                 0      0       0       0        0.0%
   301 ;;COMMON               E      B       E       1      100.0%
   302 ;;BITSFR0              0      0       0       1        0.0%
   303 ;;SFR0                 0      0       0       1        0.0%
   304 ;;BITSFR1              0      0       0       2        0.0%
   305 ;;SFR1                 0      0       0       2        0.0%
   306 ;;STACK                0      0       2       2        0.0%
   307 ;;ABS                  0      0      58       3        0.0%
   308 ;;BITBANK0            50      0       0       4        0.0%
   309 ;;BITSFR3              0      0       0       4        0.0%
   310 ;;SFR3                 0      0       0       4        0.0%
   311 ;;BANK0               50     1B      4A       5       92.5%
   312 ;;BITSFR2              0      0       0       5        0.0%
   313 ;;SFR2                 0      0       0       5        0.0%
   314 ;;BITBANK1            50      0       0       6        0.0%
   315 ;;BANK1               50      0       0       7        0.0%
   316 ;;BITBANK3            60      0       0       8        0.0%
   317 ;;BANK3               60      0       0       9        0.0%
   318 ;;BITBANK2            60      0       0      10        0.0%
   319 ;;BANK2               60      0       0      11        0.0%
   320 ;;DATA                 0      0      5A      12        0.0%
   321                           
   322                           	global	_main
   323                           psect	maintext,global,class=CODE,delta=2
   324                           global __pmaintext
   325  06B0                     __pmaintext:
   326                           
   327 ;; *************** function _main *****************
   328 ;; Defined at:
   329 ;;		line 33 in file "C:\Users\t0028919\Desktop\Flash_Drive_Backup\Removable Disk\pic_projects\TML issue with Vector Cast
        ti SYSBIOS include issue\main.c"
   330 ;; Parameters:    Size  Location     Type
   331 ;;		None
   332 ;; Auto vars:     Size  Location     Type
   333 ;;  Semaphore      10   17[BANK0 ] volatile struct knl_Sema
   334 ;;  ADCtest         1   16[BANK0 ] unsigned char 
   335 ;; Return value:  Size  Location     Type
   336 ;;                  2  852[COMMON] int 
   337 ;; Registers used:
   338 ;;		wreg, fsr0l, fsr0h, status,2, status,0, pclath, cstack
   339 ;; Tracked objects:
   340 ;;		On entry : 17F/0
   341 ;;		On exit  : 0/0
   342 ;;		Unchanged: 0/0
   343 ;; Data sizes:     COMMON   BANK0   BANK1   BANK3   BANK2
   344 ;;      Params:         0       0       0       0       0
   345 ;;      Locals:         0      11       0       0       0
   346 ;;      Temps:          1       0       0       0       0
   347 ;;      Totals:         1      11       0       0       0
   348 ;;Total ram usage:       12 bytes
   349 ;; Hardware stack levels required when called:    2
   350 ;; This function calls:
   351 ;;		_gADCAverageRead
   352 ;;		_Schedule
   353 ;;		_PostSchedule
   354 ;; This function is called by:
   355 ;;		Startup code after reset
   356 ;; This function uses a non-reentrant model
   357 ;;
   358                           psect	maintext
   359                           	file	"C:\Users\t0028919\Desktop\Flash_Drive_Backup\Removable Disk\pic_projects\TML issu
                                 e with Vector Cast ti SYSBIOS include issue\main.c"
   360                           	line	33
   361                           	global	__size_of_main
   362  002B                     	__size_of_main	equ	__end_of_main-_main
   363                           	
   364  06B0                     _main:	
   365                           	opt	stack 6
   366                           ; Regs used in _main: [wreg-fsr0h+status,2+status,0+pclath+cstack]
   367                           	line	35
   368                           	
   369  06B0                     l2198:	
   370                           ;main.c: 34: knl_Semaphore_Object_t Semaphore;
   371                           ;main.c: 35: Pknl_Semaphore_Handle = &Semaphore;
   372  06B0  305D               	movlw	(main@Semaphore)&0ffh
   373  06B1  00FA               	movwf	(??_main+0)+0
   374  06B2  087A               	movf	(??_main+0)+0,w
   375  06B3  1283               	bcf	status, 5	;RP0=0, select bank0
   376  06B4  1303               	bcf	status, 6	;RP1=0, select bank0
   377  06B5  00E9               	movwf	(_Pknl_Semaphore_Handle)
   378                           	line	36
   379                           	
   380  06B6                     l2200:	
   381                           ;main.c: 36: Pknl_Semaphore_Handle->event = 1;
   382  06B6  3001               	movlw	(01h)
   383  06B7  00FA               	movwf	(??_main+0)+0
   384  06B8  0869               	movf	(_Pknl_Semaphore_Handle),w
   385  06B9  0084               	movwf	fsr0
   386  06BA  087A               	movf	(??_main+0)+0,w
   387  06BB  1383               	bcf	status, 7	;select IRP bank0
   388  06BC  0080               	movwf	indf
   389                           	line	39
   390                           	
   391  06BD                     l2202:	
   392                           ;main.c: 37: uint8_t ADCtest;
   393                           ;main.c: 39: ADCtest = gADCAverageRead(ADCtest);
   394  06BD  085C               	movf	(main@ADCtest),w
   395  06BE  120A  118A  2707   	fcall	_gADCAverageRead
              120A  118A         
   396  06C3  00FA               	movwf	(??_main+0)+0
   397  06C4  087A               	movf	(??_main+0)+0,w
   398  06C5  1283               	bcf	status, 5	;RP0=0, select bank0
   399  06C6  1303               	bcf	status, 6	;RP1=0, select bank0
   400  06C7  00DC               	movwf	(main@ADCtest)
   401                           	line	42
   402                           ;main.c: 42: Schedule(&Week1In[0]);
   403  06C8  303E               	movlw	(_Week1In)&0ffh
   404  06C9  120A  118A  278A   	fcall	_Schedule
              120A  118A         
   405                           	line	45
   406                           ;main.c: 45: PostSchedule(&Week1In[0], (sizeof(Week1In)/sizeof(Staff_t)) );
   407  06CE  3007               	movlw	(07h)
   408  06CF  00FA               	movwf	(??_main+0)+0
   409  06D0  087A               	movf	(??_main+0)+0,w
   410  06D1  00F0               	movwf	(?_PostSchedule)
   411  06D2  303E               	movlw	(_Week1In)&0ffh
   412  06D3  120A  118A  26DB   	fcall	_PostSchedule
              120A  118A         
   413                           	line	47
   414                           	
   415  06D8                     l853:	
   416                           	global	start
   417  06D8  120A  118A  2800   	ljmp	start
   418                           	opt stack 0
   419                           GLOBAL	__end_of_main
   420  06DB                     	__end_of_main:
   421 ;; =============== function _main ends ============
   422                           
   423                           	signat	_main,90
   424                           	global	_gADCAverageRead
   425                           psect	text132,local,class=CODE,delta=2
   426                           global __ptext132
   427  0707                     __ptext132:
   428                           
   429 ;; *************** function _gADCAverageRead *****************
   430 ;; Defined at:
   431 ;;		line 65 in file "C:\Users\t0028919\Desktop\Flash_Drive_Backup\Removable Disk\pic_projects\TML issue with Vector Cast
        ti SYSBIOS include issue\main.c"
   432 ;; Parameters:    Size  Location     Type
   433 ;;  ADCIn           1    wreg     unsigned char 
   434 ;; Auto vars:     Size  Location     Type
   435 ;;  ADCIn           1    9[COMMON] unsigned char 
   436 ;; Return value:  Size  Location     Type
   437 ;;                  1    wreg      unsigned char 
   438 ;; Registers used:
   439 ;;		wreg, status,2, status,0, pclath, cstack
   440 ;; Tracked objects:
   441 ;;		On entry : 0/0
   442 ;;		On exit  : 0/0
   443 ;;		Unchanged: 0/0
   444 ;; Data sizes:     COMMON   BANK0   BANK1   BANK3   BANK2
   445 ;;      Params:         0       0       0       0       0
   446 ;;      Locals:         1       0       0       0       0
   447 ;;      Temps:          1       0       0       0       0
   448 ;;      Totals:         2       0       0       0       0
   449 ;;Total ram usage:        2 bytes
   450 ;; Hardware stack levels used:    1
   451 ;; Hardware stack levels required when called:    1
   452 ;; This function calls:
   453 ;;		___lwdiv
   454 ;; This function is called by:
   455 ;;		_main
   456 ;; This function uses a non-reentrant model
   457 ;;
   458                           psect	text132
   459                           	file	"C:\Users\t0028919\Desktop\Flash_Drive_Backup\Removable Disk\pic_projects\TML issu
                                 e with Vector Cast ti SYSBIOS include issue\main.c"
   460                           	line	65
   461                           	global	__size_of_gADCAverageRead
   462  0033                     	__size_of_gADCAverageRead	equ	__end_of_gADCAverageRead-_gADCAverageRead
   463                           	
   464  0707                     _gADCAverageRead:	
   465                           	opt	stack 6
   466                           ; Regs used in _gADCAverageRead: [wreg+status,2+status,0+pclath+cstack]
   467                           ;gADCAverageRead@ADCIn stored from wreg
   468                           	line	70
   469  0707  00F9               	movwf	(gADCAverageRead@ADCIn)
   470                           	
   471  0708                     l2184:	
   472                           ;main.c: 66: static uint16_t uwAggregateCnt;
   473                           ;main.c: 67: static uint8_t ubDivideByCnt;
   474                           ;main.c: 68: static uint8_t ubResult;
   475                           ;main.c: 70: if ( ubDivideByCnt < 6 )
   476  0708  3006               	movlw	(06h)
   477  0709  027C               	subwf	(gADCAverageRead@ubDivideByCnt),w
   478  070A  1803               	skipnc
   479  070B  2F0D               	goto	u2241
   480  070C  2F0E               	goto	u2240
   481  070D                     u2241:
   482  070D  2F1C               	goto	l2190
   483  070E                     u2240:
   484                           	line	73
   485                           	
   486  070E                     l2186:	
   487                           ;main.c: 71: {
   488                           ;main.c: 73: uwAggregateCnt = (uwAggregateCnt + ADCIn);
   489  070E  0879               	movf	(gADCAverageRead@ADCIn),w
   490  070F  1283               	bcf	status, 5	;RP0=0, select bank0
   491  0710  1303               	bcf	status, 6	;RP1=0, select bank0
   492  0711  073C               	addwf	(gADCAverageRead@uwAggregateCnt),w
   493  0712  00BC               	movwf	(gADCAverageRead@uwAggregateCnt)
   494  0713  083D               	movf	(gADCAverageRead@uwAggregateCnt+1),w
   495  0714  1803               	skipnc
   496  0715  0A3D               	incf	(gADCAverageRead@uwAggregateCnt+1),w
   497  0716  00BD               	movwf	((gADCAverageRead@uwAggregateCnt))+1
   498                           	line	76
   499                           	
   500  0717                     l2188:	
   501                           ;main.c: 76: ubDivideByCnt++;
   502  0717  3001               	movlw	(01h)
   503  0718  00F8               	movwf	(??_gADCAverageRead+0)+0
   504  0719  0878               	movf	(??_gADCAverageRead+0)+0,w
   505  071A  07FC               	addwf	(gADCAverageRead@ubDivideByCnt),f
   506                           	line	77
   507                           ;main.c: 77: }
   508  071B  2F37               	goto	l2194
   509                           	line	78
   510                           	
   511  071C                     l862:	
   512                           	line	81
   513                           	
   514  071C                     l2190:	
   515                           ;main.c: 78: else
   516                           ;main.c: 79: {
   517                           ;main.c: 81: ubResult = (uwAggregateCnt / 6);
   518  071C  3006               	movlw	low(06h)
   519  071D  00F0               	movwf	(?___lwdiv)
   520  071E  3000               	movlw	high(06h)
   521  071F  00F1               	movwf	((?___lwdiv))+1
   522  0720  1283               	bcf	status, 5	;RP0=0, select bank0
   523  0721  1303               	bcf	status, 6	;RP1=0, select bank0
   524  0722  083D               	movf	(gADCAverageRead@uwAggregateCnt+1),w
   525  0723  01F3               	clrf	1+(?___lwdiv)+02h
   526  0724  07F3               	addwf	1+(?___lwdiv)+02h
   527  0725  083C               	movf	(gADCAverageRead@uwAggregateCnt),w
   528  0726  01F2               	clrf	0+(?___lwdiv)+02h
   529  0727  07F2               	addwf	0+(?___lwdiv)+02h
   530                           
   531  0728  120A  118A  273A   	fcall	___lwdiv
              120A  118A         
   532  072D  0870               	movf	(0+(?___lwdiv)),w
   533  072E  00F8               	movwf	(??_gADCAverageRead+0)+0
   534  072F  0878               	movf	(??_gADCAverageRead+0)+0,w
   535  0730  00FD               	movwf	(gADCAverageRead@ubResult)
   536                           	line	84
   537                           	
   538  0731                     l2192:	
   539                           ;main.c: 84: ubDivideByCnt = 0;
   540  0731  1003               	clrc
   541  0732  3000               	movlw	0
   542  0733  1803               	btfsc	status,0
   543  0734  3001               	movlw	1
   544  0735  00FC               	movwf	(gADCAverageRead@ubDivideByCnt)
   545  0736  2F37               	goto	l2194
   546                           	line	85
   547                           	
   548  0737                     l863:	
   549                           	line	86
   550                           	
   551  0737                     l2194:	
   552                           ;main.c: 85: }
   553                           ;main.c: 86: return(ubResult);
   554  0737  087D               	movf	(gADCAverageRead@ubResult),w
   555  0738  2F39               	goto	l864
   556                           	
   557  0739                     l2196:	
   558                           	line	87
   559                           	
   560  0739                     l864:	
   561  0739  0008               	return
   562                           	opt stack 0
   563                           GLOBAL	__end_of_gADCAverageRead
   564  073A                     	__end_of_gADCAverageRead:
   565 ;; =============== function _gADCAverageRead ends ============
   566                           
   567                           	signat	_gADCAverageRead,4217
   568                           	global	___lwdiv
   569                           psect	text133,local,class=CODE,delta=2
   570                           global __ptext133
   571  073A                     __ptext133:
   572                           
   573 ;; *************** function ___lwdiv *****************
   574 ;; Defined at:
   575 ;;		line 5 in file "C:\Program Files (x86)\HI-TECH Software\PICC\9.80\sources\lwdiv.c"
   576 ;; Parameters:    Size  Location     Type
   577 ;;  divisor         2    0[COMMON] unsigned int 
   578 ;;  dividend        2    2[COMMON] unsigned int 
   579 ;; Auto vars:     Size  Location     Type
   580 ;;  quotient        2    5[COMMON] unsigned int 
   581 ;;  counter         1    7[COMMON] unsigned char 
   582 ;; Return value:  Size  Location     Type
   583 ;;                  2    0[COMMON] unsigned int 
   584 ;; Registers used:
   585 ;;		wreg, status,2, status,0
   586 ;; Tracked objects:
   587 ;;		On entry : 0/0
   588 ;;		On exit  : 0/0
   589 ;;		Unchanged: 0/0
   590 ;; Data sizes:     COMMON   BANK0   BANK1   BANK3   BANK2
   591 ;;      Params:         4       0       0       0       0
   592 ;;      Locals:         3       0       0       0       0
   593 ;;      Temps:          1       0       0       0       0
   594 ;;      Totals:         8       0       0       0       0
   595 ;;Total ram usage:        8 bytes
   596 ;; Hardware stack levels used:    1
   597 ;; This function calls:
   598 ;;		Nothing
   599 ;; This function is called by:
   600 ;;		_gADCAverageRead
   601 ;; This function uses a non-reentrant model
   602 ;;
   603                           psect	text133
   604                           	file	"C:\Program Files (x86)\HI-TECH Software\PICC\9.80\sources\lwdiv.c"
   605                           	line	5
   606                           	global	__size_of___lwdiv
   607  0050                     	__size_of___lwdiv	equ	__end_of___lwdiv-___lwdiv
   608                           	
   609  073A                     ___lwdiv:	
   610                           	opt	stack 6
   611                           ; Regs used in ___lwdiv: [wreg+status,2+status,0]
   612                           	line	9
   613                           	
   614  073A                     l2160:	
   615  073A  3000               	movlw	low(0)
   616  073B  00F5               	movwf	(___lwdiv@quotient)
   617  073C  3000               	movlw	high(0)
   618  073D  00F6               	movwf	((___lwdiv@quotient))+1
   619                           	line	10
   620  073E  0871               	movf	(___lwdiv@divisor+1),w
   621  073F  0470               	iorwf	(___lwdiv@divisor),w
   622  0740  1903               	skipnz
   623  0741  2F43               	goto	u2171
   624  0742  2F44               	goto	u2170
   625  0743                     u2171:
   626  0743  2F82               	goto	l2180
   627  0744                     u2170:
   628                           	line	11
   629                           	
   630  0744                     l2162:	
   631  0744  01F7               	clrf	(___lwdiv@counter)
   632  0745  1403               	bsf	status,0
   633  0746  0DF7               	rlf	(___lwdiv@counter),f
   634                           	line	12
   635  0747  2F54               	goto	l2168
   636                           	
   637  0748                     l890:	
   638                           	line	13
   639                           	
   640  0748                     l2164:	
   641  0748  3001               	movlw	01h
   642                           	
   643  0749                     u2185:
   644  0749  1003               	clrc
   645  074A  0DF0               	rlf	(___lwdiv@divisor),f
   646  074B  0DF1               	rlf	(___lwdiv@divisor+1),f
   647  074C  3EFF               	addlw	-1
   648  074D  1D03               	skipz
   649  074E  2F49               	goto	u2185
   650                           	line	14
   651                           	
   652  074F                     l2166:	
   653  074F  3001               	movlw	(01h)
   654  0750  00F4               	movwf	(??___lwdiv+0)+0
   655  0751  0874               	movf	(??___lwdiv+0)+0,w
   656  0752  07F7               	addwf	(___lwdiv@counter),f
   657  0753  2F54               	goto	l2168
   658                           	line	15
   659                           	
   660  0754                     l889:	
   661                           	line	12
   662                           	
   663  0754                     l2168:	
   664  0754  1FF1               	btfss	(___lwdiv@divisor+1),(15)&7
   665  0755  2F57               	goto	u2191
   666  0756  2F58               	goto	u2190
   667  0757                     u2191:
   668  0757  2F48               	goto	l2164
   669  0758                     u2190:
   670  0758  2F5A               	goto	l2170
   671                           	
   672  0759                     l891:	
   673  0759  2F5A               	goto	l2170
   674                           	line	16
   675                           	
   676  075A                     l892:	
   677                           	line	17
   678                           	
   679  075A                     l2170:	
   680  075A  3001               	movlw	01h
   681                           	
   682  075B                     u2205:
   683  075B  1003               	clrc
   684  075C  0DF5               	rlf	(___lwdiv@quotient),f
   685  075D  0DF6               	rlf	(___lwdiv@quotient+1),f
   686  075E  3EFF               	addlw	-1
   687  075F  1D03               	skipz
   688  0760  2F5B               	goto	u2205
   689                           	line	18
   690  0761  0871               	movf	(___lwdiv@divisor+1),w
   691  0762  0273               	subwf	(___lwdiv@dividend+1),w
   692  0763  1D03               	skipz
   693  0764  2F67               	goto	u2215
   694  0765  0870               	movf	(___lwdiv@divisor),w
   695  0766  0272               	subwf	(___lwdiv@dividend),w
   696  0767                     u2215:
   697  0767  1C03               	skipc
   698  0768  2F6A               	goto	u2211
   699  0769  2F6B               	goto	u2210
   700  076A                     u2211:
   701  076A  2F73               	goto	l2176
   702  076B                     u2210:
   703                           	line	19
   704                           	
   705  076B                     l2172:	
   706  076B  0870               	movf	(___lwdiv@divisor),w
   707  076C  02F2               	subwf	(___lwdiv@dividend),f
   708  076D  0871               	movf	(___lwdiv@divisor+1),w
   709  076E  1C03               	skipc
   710  076F  03F3               	decf	(___lwdiv@dividend+1),f
   711  0770  02F3               	subwf	(___lwdiv@dividend+1),f
   712                           	line	20
   713                           	
   714  0771                     l2174:	
   715  0771  1475               	bsf	(___lwdiv@quotient)+(0/8),(0)&7
   716  0772  2F73               	goto	l2176
   717                           	line	21
   718                           	
   719  0773                     l893:	
   720                           	line	22
   721                           	
   722  0773                     l2176:	
   723  0773  3001               	movlw	01h
   724                           	
   725  0774                     u2225:
   726  0774  1003               	clrc
   727  0775  0CF1               	rrf	(___lwdiv@divisor+1),f
   728  0776  0CF0               	rrf	(___lwdiv@divisor),f
   729  0777  3EFF               	addlw	-1
   730  0778  1D03               	skipz
   731  0779  2F74               	goto	u2225
   732                           	line	23
   733                           	
   734  077A                     l2178:	
   735  077A  3001               	movlw	low(01h)
   736  077B  02F7               	subwf	(___lwdiv@counter),f
   737  077C  1D03               	btfss	status,2
   738  077D  2F7F               	goto	u2231
   739  077E  2F80               	goto	u2230
   740  077F                     u2231:
   741  077F  2F5A               	goto	l2170
   742  0780                     u2230:
   743  0780  2F82               	goto	l2180
   744                           	
   745  0781                     l894:	
   746  0781  2F82               	goto	l2180
   747                           	line	24
   748                           	
   749  0782                     l888:	
   750                           	line	25
   751                           	
   752  0782                     l2180:	
   753  0782  0876               	movf	(___lwdiv@quotient+1),w
   754  0783  01F1               	clrf	(?___lwdiv+1)
   755  0784  07F1               	addwf	(?___lwdiv+1)
   756  0785  0875               	movf	(___lwdiv@quotient),w
   757  0786  01F0               	clrf	(?___lwdiv)
   758  0787  07F0               	addwf	(?___lwdiv)
   759                           
   760  0788  2F89               	goto	l895
   761                           	
   762  0789                     l2182:	
   763                           	line	26
   764                           	
   765  0789                     l895:	
   766  0789  0008               	return
   767                           	opt stack 0
   768                           GLOBAL	__end_of___lwdiv
   769  078A                     	__end_of___lwdiv:
   770 ;; =============== function ___lwdiv ends ============
   771                           
   772                           	signat	___lwdiv,8314
   773                           	global	_PostSchedule
   774                           psect	text134,local,class=CODE,delta=2
   775                           global __ptext134
   776  06DB                     __ptext134:
   777                           
   778 ;; *************** function _PostSchedule *****************
   779 ;; Defined at:
   780 ;;		line 121 in file "C:\Users\t0028919\Desktop\Flash_Drive_Backup\Removable Disk\pic_projects\TML issue with Vector Cas
       t ti SYSBIOS include issue\main.c"
   781 ;; Parameters:    Size  Location     Type
   782 ;;  StaffPtr        1    wreg     PTR struct .
   783 ;;		 -> Week1In(14), 
   784 ;;  Size            1    0[COMMON] unsigned char 
   785 ;; Auto vars:     Size  Location     Type
   786 ;;  StaffPtr        1   14[BANK0 ] PTR struct .
   787 ;;		 -> Week1In(14), 
   788 ;;  Week1In        14    0[BANK0 ] struct .[7]
   789 ;;  i               1   15[BANK0 ] unsigned char 
   790 ;; Return value:  Size  Location     Type
   791 ;;		None               void
   792 ;; Registers used:
   793 ;;		wreg, fsr0l, fsr0h, status,2, status,0
   794 ;; Tracked objects:
   795 ;;		On entry : 0/0
   796 ;;		On exit  : 0/0
   797 ;;		Unchanged: 0/0
   798 ;; Data sizes:     COMMON   BANK0   BANK1   BANK3   BANK2
   799 ;;      Params:         1       0       0       0       0
   800 ;;      Locals:         0      16       0       0       0
   801 ;;      Temps:          3       0       0       0       0
   802 ;;      Totals:         4      16       0       0       0
   803 ;;Total ram usage:       20 bytes
   804 ;; Hardware stack levels used:    1
   805 ;; This function calls:
   806 ;;		Nothing
   807 ;; This function is called by:
   808 ;;		_main
   809 ;; This function uses a non-reentrant model
   810 ;;
   811                           psect	text134
   812                           	file	"C:\Users\t0028919\Desktop\Flash_Drive_Backup\Removable Disk\pic_projects\TML issu
                                 e with Vector Cast ti SYSBIOS include issue\main.c"
   813                           	line	121
   814                           	global	__size_of_PostSchedule
   815  002C                     	__size_of_PostSchedule	equ	__end_of_PostSchedule-_PostSchedule
   816                           	
   817  06DB                     _PostSchedule:	
   818                           	opt	stack 7
   819                           ; Regs used in _PostSchedule: [wreg-fsr0h+status,2+status,0]
   820                           ;PostSchedule@StaffPtr stored from wreg
   821                           	line	126
   822  06DB  1283               	bcf	status, 5	;RP0=0, select bank0
   823  06DC  1303               	bcf	status, 6	;RP1=0, select bank0
   824  06DD  00DA               	movwf	(PostSchedule@StaffPtr)
   825                           	
   826  06DE                     l2150:	
   827                           ;main.c: 122: Staff_t Week1In[7];
   828                           ;main.c: 123: char i;
   829                           ;main.c: 126: for(i=0; i<Size; i++)
   830  06DE  1003               	clrc
   831  06DF  3000               	movlw	0
   832  06E0  1803               	btfsc	status,0
   833  06E1  3001               	movlw	1
   834  06E2  00DB               	movwf	(PostSchedule@i)
   835  06E3  2EFF               	goto	l2158
   836                           	line	127
   837                           	
   838  06E4                     l871:	
   839                           	line	128
   840                           	
   841  06E4                     l2152:	
   842                           ;main.c: 127: {
   843                           ;main.c: 128: Week1In[i] = *StaffPtr;
   844  06E4  085A               	movf	(PostSchedule@StaffPtr),w
   845  06E5  0084               	movwf	fsr0
   846  06E6  1383               	bcf	status, 7	;select IRP bank0
   847  06E7  0800               	movf	indf,w
   848  06E8  00F1               	movwf	(??_PostSchedule+0)+0+0
   849  06E9  0A84               	incf	fsr0,f
   850  06EA  0800               	movf	indf,w
   851  06EB  00F2               	movwf	(??_PostSchedule+0)+0+1
   852  06EC  085B               	movf	(PostSchedule@i),w
   853  06ED  00F3               	movwf	(??_PostSchedule+2)+0
   854  06EE  0773               	addwf	(??_PostSchedule+2)+0,w
   855  06EF  3E4C               	addlw	PostSchedule@Week1In&0ffh
   856  06F0  0084               	movwf	fsr0
   857  06F1  0871               	movf	0+(??_PostSchedule+0)+0,w
   858  06F2  0080               	movwf	indf
   859  06F3  0A84               	incf	fsr0,f
   860  06F4  0872               	movf	1+(??_PostSchedule+0)+0,w
   861  06F5  0080               	movwf	indf
   862                           	line	129
   863                           	
   864  06F6                     l2154:	
   865                           ;main.c: 129: StaffPtr++;
   866  06F6  3002               	movlw	(02h)
   867  06F7  00F1               	movwf	(??_PostSchedule+0)+0
   868  06F8  0871               	movf	(??_PostSchedule+0)+0,w
   869  06F9  07DA               	addwf	(PostSchedule@StaffPtr),f
   870                           	line	126
   871                           	
   872  06FA                     l2156:	
   873  06FA  3001               	movlw	(01h)
   874  06FB  00F1               	movwf	(??_PostSchedule+0)+0
   875  06FC  0871               	movf	(??_PostSchedule+0)+0,w
   876  06FD  07DB               	addwf	(PostSchedule@i),f
   877  06FE  2EFF               	goto	l2158
   878                           	
   879  06FF                     l870:	
   880                           	
   881  06FF                     l2158:	
   882  06FF  0870               	movf	(PostSchedule@Size),w
   883  0700  025B               	subwf	(PostSchedule@i),w
   884  0701  1C03               	skipc
   885  0702  2F04               	goto	u2161
   886  0703  2F05               	goto	u2160
   887  0704                     u2161:
   888  0704  2EE4               	goto	l2152
   889  0705                     u2160:
   890  0705  2F06               	goto	l873
   891                           	
   892  0706                     l872:	
   893                           	line	131
   894                           	
   895  0706                     l873:	
   896  0706  0008               	return
   897                           	opt stack 0
   898                           GLOBAL	__end_of_PostSchedule
   899  0707                     	__end_of_PostSchedule:
   900 ;; =============== function _PostSchedule ends ============
   901                           
   902                           	signat	_PostSchedule,8312
   903                           	global	_Schedule
   904                           psect	text135,local,class=CODE,delta=2
   905                           global __ptext135
   906  078A                     __ptext135:
   907                           
   908 ;; *************** function _Schedule *****************
   909 ;; Defined at:
   910 ;;		line 91 in file "C:\Users\t0028919\Desktop\Flash_Drive_Backup\Removable Disk\pic_projects\TML issue with Vector Cast
        ti SYSBIOS include issue\main.c"
   911 ;; Parameters:    Size  Location     Type
   912 ;;  StaffPtr        1    wreg     PTR struct .
   913 ;;		 -> Week1In(14), 
   914 ;; Auto vars:     Size  Location     Type
   915 ;;  StaffPtr        1    1[COMMON] PTR struct .
   916 ;;		 -> Week1In(14), 
   917 ;; Return value:  Size  Location     Type
   918 ;;		None               void
   919 ;; Registers used:
   920 ;;		wreg, fsr0l, fsr0h, status,2, status,0
   921 ;; Tracked objects:
   922 ;;		On entry : 0/0
   923 ;;		On exit  : 0/0
   924 ;;		Unchanged: 0/0
   925 ;; Data sizes:     COMMON   BANK0   BANK1   BANK3   BANK2
   926 ;;      Params:         0       0       0       0       0
   927 ;;      Locals:         1       0       0       0       0
   928 ;;      Temps:          1       0       0       0       0
   929 ;;      Totals:         2       0       0       0       0
   930 ;;Total ram usage:        2 bytes
   931 ;; Hardware stack levels used:    1
   932 ;; This function calls:
   933 ;;		Nothing
   934 ;; This function is called by:
   935 ;;		_main
   936 ;; This function uses a non-reentrant model
   937 ;;
   938                           psect	text135
   939                           	file	"C:\Users\t0028919\Desktop\Flash_Drive_Backup\Removable Disk\pic_projects\TML issu
                                 e with Vector Cast ti SYSBIOS include issue\main.c"
   940                           	line	91
   941                           	global	__size_of_Schedule
   942  0076                     	__size_of_Schedule	equ	__end_of_Schedule-_Schedule
   943                           	
   944  078A                     _Schedule:	
   945                           	opt	stack 7
   946                           ; Regs used in _Schedule: [wreg-fsr0h+status,2+status,0]
   947                           ;Schedule@StaffPtr stored from wreg
   948  078A  00F1               	movwf	(Schedule@StaffPtr)
   949                           	line	92
   950                           	
   951  078B                     l2116:	
   952                           ;main.c: 92: StaffPtr->People = TOM;
   953  078B  1003               	clrc
   954  078C  0871               	movf	(Schedule@StaffPtr),w
   955  078D  0084               	movwf	fsr0
   956  078E  3000               	movlw	0
   957  078F  1803               	btfsc	status,0
   958  0790  3001               	movlw	1
   959  0791  1383               	bcf	status, 7	;select IRP bank0
   960  0792  0080               	movwf	indf
   961                           	line	93
   962                           ;main.c: 93: StaffPtr->Days = MON;
   963  0793  1003               	clrc
   964  0794  0871               	movf	(Schedule@StaffPtr),w
   965  0795  3E01               	addlw	01h
   966  0796  0084               	movwf	fsr0
   967  0797  3000               	movlw	0
   968  0798  1803               	btfsc	status,0
   969  0799  3001               	movlw	1
   970  079A  0080               	movwf	indf
   971                           	line	94
   972                           	
   973  079B                     l2118:	
   974                           ;main.c: 94: StaffPtr++;
   975  079B  3002               	movlw	(02h)
   976  079C  00F0               	movwf	(??_Schedule+0)+0
   977  079D  0870               	movf	(??_Schedule+0)+0,w
   978  079E  07F1               	addwf	(Schedule@StaffPtr),f
   979                           	line	96
   980                           	
   981  079F                     l2120:	
   982                           ;main.c: 96: StaffPtr->People = JOHN;
   983  079F  0871               	movf	(Schedule@StaffPtr),w
   984  07A0  0084               	movwf	fsr0
   985  07A1  0180               	clrf	indf
   986  07A2  1403               	bsf	status,0
   987  07A3  0D80               	rlf	indf,f
   988                           	line	97
   989                           	
   990  07A4                     l2122:	
   991                           ;main.c: 97: StaffPtr->Days = TUE;
   992  07A4  0871               	movf	(Schedule@StaffPtr),w
   993  07A5  3E01               	addlw	01h
   994  07A6  0084               	movwf	fsr0
   995  07A7  0180               	clrf	indf
   996  07A8  1403               	bsf	status,0
   997  07A9  0D80               	rlf	indf,f
   998                           	line	98
   999                           	
  1000  07AA                     l2124:	
  1001                           ;main.c: 98: StaffPtr++;
  1002  07AA  3002               	movlw	(02h)
  1003  07AB  00F0               	movwf	(??_Schedule+0)+0
  1004  07AC  0870               	movf	(??_Schedule+0)+0,w
  1005  07AD  07F1               	addwf	(Schedule@StaffPtr),f
  1006                           	line	100
  1007                           	
  1008  07AE                     l2126:	
  1009                           ;main.c: 100: StaffPtr->People = RICK;
  1010  07AE  3002               	movlw	(02h)
  1011  07AF  00F0               	movwf	(??_Schedule+0)+0
  1012  07B0  0871               	movf	(Schedule@StaffPtr),w
  1013  07B1  0084               	movwf	fsr0
  1014  07B2  0870               	movf	(??_Schedule+0)+0,w
  1015  07B3  0080               	movwf	indf
  1016                           	line	101
  1017                           	
  1018  07B4                     l2128:	
  1019                           ;main.c: 101: StaffPtr->Days = WED;
  1020  07B4  3002               	movlw	(02h)
  1021  07B5  00F0               	movwf	(??_Schedule+0)+0
  1022  07B6  0871               	movf	(Schedule@StaffPtr),w
  1023  07B7  3E01               	addlw	01h
  1024  07B8  0084               	movwf	fsr0
  1025  07B9  0870               	movf	(??_Schedule+0)+0,w
  1026  07BA  0080               	movwf	indf
  1027                           	line	102
  1028                           	
  1029  07BB                     l2130:	
  1030                           ;main.c: 102: StaffPtr++;
  1031  07BB  3002               	movlw	(02h)
  1032  07BC  00F0               	movwf	(??_Schedule+0)+0
  1033  07BD  0870               	movf	(??_Schedule+0)+0,w
  1034  07BE  07F1               	addwf	(Schedule@StaffPtr),f
  1035                           	line	104
  1036                           	
  1037  07BF                     l2132:	
  1038                           ;main.c: 104: StaffPtr->People = RICK;
  1039  07BF  3002               	movlw	(02h)
  1040  07C0  00F0               	movwf	(??_Schedule+0)+0
  1041  07C1  0871               	movf	(Schedule@StaffPtr),w
  1042  07C2  0084               	movwf	fsr0
  1043  07C3  0870               	movf	(??_Schedule+0)+0,w
  1044  07C4  0080               	movwf	indf
  1045                           	line	105
  1046                           	
  1047  07C5                     l2134:	
  1048                           ;main.c: 105: StaffPtr->Days = THR;
  1049  07C5  3003               	movlw	(03h)
  1050  07C6  00F0               	movwf	(??_Schedule+0)+0
  1051  07C7  0871               	movf	(Schedule@StaffPtr),w
  1052  07C8  3E01               	addlw	01h
  1053  07C9  0084               	movwf	fsr0
  1054  07CA  0870               	movf	(??_Schedule+0)+0,w
  1055  07CB  0080               	movwf	indf
  1056                           	line	106
  1057                           	
  1058  07CC                     l2136:	
  1059                           ;main.c: 106: StaffPtr++;
  1060  07CC  3002               	movlw	(02h)
  1061  07CD  00F0               	movwf	(??_Schedule+0)+0
  1062  07CE  0870               	movf	(??_Schedule+0)+0,w
  1063  07CF  07F1               	addwf	(Schedule@StaffPtr),f
  1064                           	line	108
  1065                           ;main.c: 108: StaffPtr->People = TOM;
  1066  07D0  1003               	clrc
  1067  07D1  0871               	movf	(Schedule@StaffPtr),w
  1068  07D2  0084               	movwf	fsr0
  1069  07D3  3000               	movlw	0
  1070  07D4  1803               	btfsc	status,0
  1071  07D5  3001               	movlw	1
  1072  07D6  0080               	movwf	indf
  1073                           	line	109
  1074                           	
  1075  07D7                     l2138:	
  1076                           ;main.c: 109: StaffPtr->Days = FRI;
  1077  07D7  3004               	movlw	(04h)
  1078  07D8  00F0               	movwf	(??_Schedule+0)+0
  1079  07D9  0871               	movf	(Schedule@StaffPtr),w
  1080  07DA  3E01               	addlw	01h
  1081  07DB  0084               	movwf	fsr0
  1082  07DC  0870               	movf	(??_Schedule+0)+0,w
  1083  07DD  0080               	movwf	indf
  1084                           	line	110
  1085                           	
  1086  07DE                     l2140:	
  1087                           ;main.c: 110: StaffPtr++;
  1088  07DE  3002               	movlw	(02h)
  1089  07DF  00F0               	movwf	(??_Schedule+0)+0
  1090  07E0  0870               	movf	(??_Schedule+0)+0,w
  1091  07E1  07F1               	addwf	(Schedule@StaffPtr),f
  1092                           	line	112
  1093                           	
  1094  07E2                     l2142:	
  1095                           ;main.c: 112: StaffPtr->People = JOHN;
  1096  07E2  0871               	movf	(Schedule@StaffPtr),w
  1097  07E3  0084               	movwf	fsr0
  1098  07E4  0180               	clrf	indf
  1099  07E5  1403               	bsf	status,0
  1100  07E6  0D80               	rlf	indf,f
  1101                           	line	113
  1102                           	
  1103  07E7                     l2144:	
  1104                           ;main.c: 113: StaffPtr->Days = SAT;
  1105  07E7  3005               	movlw	(05h)
  1106  07E8  00F0               	movwf	(??_Schedule+0)+0
  1107  07E9  0871               	movf	(Schedule@StaffPtr),w
  1108  07EA  3E01               	addlw	01h
  1109  07EB  0084               	movwf	fsr0
  1110  07EC  0870               	movf	(??_Schedule+0)+0,w
  1111  07ED  0080               	movwf	indf
  1112                           	line	114
  1113                           ;main.c: 114: StaffPtr++;
  1114  07EE  3002               	movlw	(02h)
  1115  07EF  00F0               	movwf	(??_Schedule+0)+0
  1116  07F0  0870               	movf	(??_Schedule+0)+0,w
  1117  07F1  07F1               	addwf	(Schedule@StaffPtr),f
  1118                           	line	116
  1119                           	
  1120  07F2                     l2146:	
  1121                           ;main.c: 116: StaffPtr->People = RICK;
  1122  07F2  3002               	movlw	(02h)
  1123  07F3  00F0               	movwf	(??_Schedule+0)+0
  1124  07F4  0871               	movf	(Schedule@StaffPtr),w
  1125  07F5  0084               	movwf	fsr0
  1126  07F6  0870               	movf	(??_Schedule+0)+0,w
  1127  07F7  0080               	movwf	indf
  1128                           	line	117
  1129                           	
  1130  07F8                     l2148:	
  1131                           ;main.c: 117: StaffPtr->Days = SUN;
  1132  07F8  3006               	movlw	(06h)
  1133  07F9  00F0               	movwf	(??_Schedule+0)+0
  1134  07FA  0871               	movf	(Schedule@StaffPtr),w
  1135  07FB  3E01               	addlw	01h
  1136  07FC  0084               	movwf	fsr0
  1137  07FD  0870               	movf	(??_Schedule+0)+0,w
  1138  07FE  0080               	movwf	indf
  1139                           	line	118
  1140                           	
  1141  07FF                     l867:	
  1142  07FF  0008               	return
  1143                           	opt stack 0
  1144                           GLOBAL	__end_of_Schedule
  1145  0800                     	__end_of_Schedule:
  1146 ;; =============== function _Schedule ends ============
  1147                           
  1148                           	signat	_Schedule,4216
  1149                           psect	text136,local,class=CODE,delta=2
  1150                           global __ptext136
  1151  0000                     __ptext136:
  1152                           	global	btemp
  1153  007E                     	btemp set 07Eh
  1154                           
  1155                           	DABS	1,126,2	;btemp
  1156                           	global	wtemp0
  1157  007E                     	wtemp0 set btemp


HI-TECH Software PICC Macro Assembler V9.80 build 6738 
Symbol Table                                                                                   Wed Jul 06 14:03:49 2016

              _gADCAverageRead 0707                             fsr 0004                            l853 06D8  
                          l870 06FF                            l862 071C                            l871 06E4  
                          l863 0737                            l872 0706                            l864 0739  
                          l873 0706                            l890 0748                            l867 07FF  
                          l891 0759                            l892 075A                            l893 0773  
                          l894 0781                            l895 0789                            l888 0782  
                          l889 0754                            fsr0 0004                            indf 0000  
                         l2120 079F                           l2200 06B6                           l2130 07BB  
                         l2122 07A4                           l2202 06BD                           l2140 07DE  
                         l2132 07BF                           l2124 07AA                           l2116 078B  
                         l2142 07E2                           l2134 07C5                           l2126 07AE  
                         l2118 079B                           l2150 06DE                           l2144 07E7  
                         l2136 07CC                           l2128 07B4                           l2152 06E4  
                         l2160 073A                           l2146 07F2                           l2138 07D7  
                         l2154 06F6                           l2170 075A                           l2162 0744  
                         l2148 07F8                           l2156 06FA                           l2172 076B  
                         l2164 0748                           l2180 0782                           l2158 06FF  
                         l2182 0789                           l2174 0771                           l2166 074F  
                         l2190 071C                           l2176 0773                           l2168 0754  
                         l2192 0731                           l2184 0708                           l2178 077A  
                         l2194 0737                           l2186 070E                           l2196 0739  
                         l2188 0717                           l2198 06B0                           u2210 076B  
                         u2211 076A                           u2205 075B                           u2230 0780  
                         u2231 077F                           u2215 0767                           u2160 0705  
                         u2240 070E                           u2161 0704                           u2225 0774  
                         u2241 070D                           u2170 0744                           u2171 0743  
                         u2190 0758                           u2191 0757                           u2185 0749  
                         _main 06B0                           btemp 007E                           start 0000  
                main@Semaphore 005D                          ?_main 0070                __end_of___lwdiv 078A  
             PostSchedule@Size 0070                          status 0003                          wtemp0 007E  
      __end_of_gADCAverageRead 073A          _Pknl_Semaphore_Handle 0069                   __end_of_main 06DB  
             __end_of_Schedule 0800                         ??_main 007A                  _toms_variable 007B  
                    ??___lwdiv 0074                         clrloop 0699               ?_gADCAverageRead 0070  
               __pcstackCOMMON 0070                     __pbssBANK0 0020                      ?_Schedule 0070  
                   __pmaintext 06B0                    _Week1OutPtr 002E                     ??_Schedule 0070  
                      _Week1In 003E                  ?_PostSchedule 0070                        ___lwdiv 073A  
         end_of_initialization 06AC   gADCAverageRead@ubDivideByCnt 007C                 ??_PostSchedule 0071  
             Schedule@StaffPtr 0071     _persistent_watch_dog_count 0067            start_initialization 06A0  
            __size_of_Schedule 0076       __size_of_gADCAverageRead 0033                    __pbssCOMMON 007B  
                __pcstackBANK0 004C           __end_of_PostSchedule 0707                      __pnvBANK0 0067  
             ___lwdiv@dividend 0072                      __ptext132 0707                      __ptext133 073A  
                    __ptext134 06DB                      __ptext135 078A                      __ptext136 0000  
                     ?___lwdiv 0070               ___lwdiv@quotient 0075  gADCAverageRead@uwAggregateCnt 003C  
            ??_gADCAverageRead 0078                  PostSchedule@i 005B                       _Schedule 078A  
                     _Week1Out 0020               __size_of___lwdiv 0050          __size_of_PostSchedule 002C  
              ___lwdiv@divisor 0070                ___lwdiv@counter 0077                  __size_of_main 002B  
                     clear_ram 0698                   _PostSchedule 06DB           PostSchedule@StaffPtr 005A  
          PostSchedule@Week1In 004C                    main@ADCtest 005C           gADCAverageRead@ADCIn 0079  
      gADCAverageRead@ubResult 007D  
