main@watchdog 4C 0 BANK0
_TO 1C 0 ABS
security_alg@Constant_1 70 0 COMMON
__S0 2009 0 ABS
__S1 7E 0 ABS
__S2 0 0 ABS
security_alg@Constant_2 71 0 COMMON
_GIE 5F 0 ABS
__Hintentry 0 0 CODE
__Lintentry 0 0 CODE
_main 593 0 CODE
btemp 7E 0 ABS
_exit 0 0 CODE
start 0 0 CODE
reset_vec 0 0 CODE
_TRISD 88 0 ABS
_TRISE 89 0 ABS
_ANSEL 188 0 ABS
_PORTD 8 0 ABS
_T1CON 10 0 ABS
wtemp0 7E 0 ABS
main@aVar 4D 0 BANK0
__Hconfig 2009 0 CONFIG
__Lconfig 2007 0 CONFIG
__Hram 0 0 ABS
__Lram 0 0 ABS
_sfreg 552 0 CODE
?_main 70 0 COMMON
left_shifted@temp_initial 24 0 BANK0
__Hfunctab 0 0 CODE
__Lfunctab 0 0 CODE
__Hcommon 0 0 ABS
__Lcommon 0 0 ABS
__Heeprom_data 0 0 EEDATA
__Leeprom_data 0 0 EEDATA
__size_of_security_alg 0 0 ABS
_OSCCON 8F 0 ABS
__Habs1 0 0 ABS
__Labs1 0 0 ABS
_WDTCON 105 0 ABS
main@returned_shift 46 0 BANK0
__Hsfr0 0 0 ABS
__Lsfr0 0 0 ABS
__Hsfr1 0 0 ABS
__Lsfr1 0 0 ABS
_OPTION 81 0 ABS
__Hsfr2 0 0 ABS
__Lsfr2 0 0 ABS
__Hsfr3 0 0 ABS
__Lsfr3 0 0 ABS
left_shifted@current_temp 2C 0 BANK0
__ptext130 0 0 CODE
init_fetch 541 0 CODE
_toms_variable 7D 0 COMMON
_security_seed_2constants 5E 0 BANK0
__Hcode 0 0 ABS
__Lcode 0 0 ABS
__end_of_left_shifted 69D 0 CODE
?_sfreg 70 0 COMMON
??_main 40 0 BANK0
__HcstackBANK0 0 0 ABS
__LcstackBANK0 0 0 ABS
__pcstackBANK0 20 0 BANK0
__Hinit 0 0 CODE
__Linit 0 0 CODE
__end_of_main 60D 0 CODE
__ptext127 60D 0 CODE
__Htext 0 0 ABS
__Ltext 0 0 ABS
security_alg@Constant_2_local_var 74 0 COMMON
__ptext128 69D 0 CODE
__HdataBANK0 0 0 ABS
__LdataBANK0 0 0 ABS
left_shifted@temp_times 28 0 BANK0
__pdataBANK0 52 0 BANK0
end_of_initialization 577 0 CODE
__ptext129 552 0 CODE
security_alg@Key 78 0 COMMON
__HnvBANK0 0 0 ABS
__LnvBANK0 0 0 ABS
__pnvBANK0 6A 0 BANK0
?_left_shifted 70 0 COMMON
__Hstrings 0 0 ABS
__Lstrings 0 0 ABS
left_shifted@overflow_count 2A 0 BANK0
__end_of_security_alg 800 0 CODE
left_shifted@i 29 0 BANK0
left_shifted@times 74 0 COMMON
__Hbank0 0 0 ABS
__Lbank0 0 0 ABS
main@returned_keyval 42 0 BANK0
__Hbank1 0 0 ABS
__Lbank1 0 0 ABS
__Hbank2 0 0 ABS
__Lbank2 0 0 ABS
__Hbank3 0 0 ABS
__Lbank3 0 0 ABS
__Hpowerup 0 0 CODE
__Lpowerup 0 0 CODE
??_security_alg 20 0 BANK0
__size_of_left_shifted 0 0 ABS
__Hclrtext 0 0 ABS
__Lclrtext 0 0 ABS
left_shifted@initial 70 0 COMMON
main@Val 4A 0 BANK0
__Hidloc 0 0 IDLOC
__Lidloc 0 0 IDLOC
??_sfreg 70 0 COMMON
init_ram 545 0 CODE
__Hcinit 0 0 ABS
__Lcinit 0 0 ABS
__size_of_main 0 0 ABS
__size_of_sfreg 0 0 ABS
__HidataBANK0 0 0 ABS
__LidataBANK0 0 0 ABS
__pidataBANK0 57B 0 CODE
__HbssBANK0 0 0 ABS
__LbssBANK0 0 0 ABS
_left_shifted 60D 0 CODE
__pbssBANK0 6C 0 BANK0
??_left_shifted 75 0 COMMON
left_shifted@new_initial_temp 20 0 BANK0
_persistent_watch_dog_count 6A 0 BANK0
?_security_alg 70 0 COMMON
__HbssCOMMON 0 0 ABS
__LbssCOMMON 0 0 ABS
__pbssCOMMON 7D 0 COMMON
__Hend_init 3 0 CODE
__Lend_init 0 0 CODE
_security_seed_2constant_ptr 6C 0 BANK0
left_shifted@carry_count 2B 0 BANK0
__end_of_sfreg 566 0 CODE
__Hreset_vec 0 0 CODE
__Lreset_vec 0 0 CODE
intlevel0 0 0 CODE
intlevel1 0 0 CODE
intlevel2 0 0 CODE
intlevel3 0 0 CODE
intlevel4 0 0 CODE
main@ptr1 50 0 BANK0
intlevel5 0 0 CODE
_security_alg 69D 0 CODE
main@ptr2 51 0 BANK0
main@ptr3 4F 0 BANK0
__HcstackCOMMON 0 0 ABS
__LcstackCOMMON 0 0 ABS
__pcstackCOMMON 70 0 COMMON
start_initialization 566 0 CODE
__Hmaintext 0 0 ABS
__Lmaintext 0 0 ABS
__pmaintext 593 0 CODE
__Hinittext 0 0 ABS
__Linittext 0 0 ABS
security_alg@Seed 7C 0 COMMON
_security_seed_3constants 52 0 BANK0
_tmr1_counter 6D 0 BANK0
%segments
reset_vec 0 5 CODE 0
config 400E 4011 CONFIG 400E
cstackCOMMON 70 7D COMMON 70
cstackBANK0 20 6D BANK0 20
text128 D3A FFF CODE D3A
text127 C1A D39 CODE C1A
maintext B26 C19 CODE B26
idataBANK0 AF6 B25 CODE AF6
cinit ACC AF5 CODE ACC
text129 AA4 ACB CODE AA4
inittext A82 AA3 CODE A82
%locals
Security_algorithm.obj
C:\Users\t0028919\Desktop\Flash_Drive_Backup\Removable Disk\pic_projects\Security_algorithm\main.c
7 2007 0 CONFIG
8 2008 0 CONFIG
28 57B 0 CODE
22 587 0 CODE
47 593 0 CODE
53 599 0 CODE
54 59D 0 CODE
55 5A1 0 CODE
56 5A5 0 CODE
58 5B1 0 CODE
59 5B6 0 CODE
69 5B8 0 CODE
71 5BE 0 CODE
73 5BF 0 CODE
76 5D9 0 CODE
77 5F4 0 CODE
78 5F5 0 CODE
81 5F6 0 CODE
82 5FE 0 CODE
83 606 0 CODE
84 608 0 CODE
67 609 0 CODE
86 60A 0 CODE
115 60D 0 CODE
116 613 0 CODE
117 618 0 CODE
118 61D 0 CODE
119 622 0 CODE
123 62A 0 CODE
124 632 0 CODE
126 633 0 CODE
127 637 0 CODE
128 650 0 CODE
129 658 0 CODE
131 66A 0 CODE
132 66E 0 CODE
134 674 0 CODE
135 678 0 CODE
136 679 0 CODE
139 67A 0 CODE
140 67B 0 CODE
142 67C 0 CODE
124 67D 0 CODE
145 68B 0 CODE
146 693 0 CODE
147 69C 0 CODE
C:\Users\t0028919\Desktop\Flash_Drive_Backup\Removable Disk\pic_projects\Security_algorithm\Sec_Seed.c
22 69D 0 CODE
24 777 0 CODE
26 7B3 0 CODE
29 7D9 0 CODE
32 7F6 0 CODE
33 7FF 0 CODE
C:\Users\t0028919\Desktop\Flash_Drive_Backup\Removable Disk\pic_projects\Security_algorithm\main.c
90 552 0 CODE
91 556 0 CODE
92 55A 0 CODE
93 55B 0 CODE
94 55D 0 CODE
95 55E 0 CODE
96 562 0 CODE
97 565 0 CODE
