COMMAND: C:\VCAST\6.4v\clicast.exe -e IP_INTERFACE_INTEGRATION environment script create C:/Users/t0028919/Desktop/VCAST/C1515/environment/IP_INTERFACE_INTEGRATION/IP_INTERFACE_INTEGRATION.env
DIRECTORY: C:/Users/t0028919/Desktop/VCAST/C1515/build/3684989068
TIME: 2018-07-25 08:58:25
-----------------------------Process Environment------------------------------
---------------------------End Process Environment----------------------------
VectorCAST   Copyright (C) 1993 - 2018
**Version 6.4v (08/01/17)
    Processing options file C:\Users\t0028919\Desktop\VCAST\C1515\build\3684989068\CCAST_.CFG
    Opening Environment
    Determining Size/Range Information
    Opening Parameter/Global File
    Opening Types File
    Retrieved RSP License: "C_TARGET_GREEN_HILLS" 
    Pre-Run setup for stdout execution
    Compiling file Test Case Data
    Running Command: C:/Users/t0028919\.vcastProcessMonitorLogs\-779818106_Command
    Command Returned Exit Code: 0
    Linking Environment
    Running Command: C:/Users/t0028919\.vcastProcessMonitorLogs\-779818011_Command
    Command Returned Exit Code: 0
    Running Test with command: multi -nosplash -remote "simppc -X83 -cpu=p4040" -p C:\VCAST\6.4v/DATA/green_hills/multi_playback_file_multi4.p C:\Users\t0028919\Desktop\VCAST\C1515\build\3684989068\IP_INTERFACE_INTEGRATION\UUT_INTE.EXE
    Running Command: C:/Users/t0028919\.vcastProcessMonitorLogs\-779817751_Command
    Command Returned Exit Code: 0
    Running Command: C:/Users/t0028919\.vcastProcessMonitorLogs\-779814913_Command
    Command Returned Exit Code: 0
    Running Command: C:/Users/t0028919\.vcastProcessMonitorLogs\-779814793_Command
    Command Returned Exit Code: 0
    Determining Basis Paths (IP_Interface)
    Setting Up IEC-61508 (Industrial) SIL 3 Coverage
    Running Command: C:/Users/t0028919\.vcastProcessMonitorLogs\-779814043_Command
    Command Returned Exit Code: 0
    Running Command: C:/Users/t0028919\.vcastProcessMonitorLogs\-779813918_Command
    Command Returned Exit Code: 0
    Instrumenting file IP_Interface
    Compiling file IP_Interface
    Running Command: C:/Users/t0028919\.vcastProcessMonitorLogs\-779813428_Command
    Command Returned Exit Code: 0
    Running Command: C:/Users/t0028919\.vcastProcessMonitorLogs\-779813173_Command
    Command Returned Exit Code: 0
    Compiling file Data File Number 1
    Running Command: C:/Users/t0028919\.vcastProcessMonitorLogs\-779812018_Command
    Command Returned Exit Code: 0
    Linking Instrumented Harness
    Running Command: C:/Users/t0028919\.vcastProcessMonitorLogs\-779811673_Command
    Command Returned Exit Code: 0
    Coverage Initialized
    Opening Parameter/Global File
    Opening Types File
    Environment is Open
    Building Script File
    Script Building Completed
COMMAND: C:\VCAST\6.4v\clicast.exe -e IP_INTERFACE_INTEGRATION test script create C:/Users/t0028919/Desktop/VCAST/C1515/environment/IP_INTERFACE_INTEGRATION/IP_INTERFACE_INTEGRATION.tst
DIRECTORY: C:/Users/t0028919/Desktop/VCAST/C1515/build/3684989068
TIME: 2018-07-25 08:58:33
-----------------------------Process Environment------------------------------
---------------------------End Process Environment----------------------------
VectorCAST   Copyright (C) 1993 - 2018
**Version 6.4v (08/01/17)
    Processing options file C:\Users\t0028919\Desktop\VCAST\C1515\build\3684989068\CCAST_.CFG
    Opening Environment
    Opening Parameter/Global File
    Opening Types File
    Environment is Open
    Creating Script File
    Building Test Case Script
    Test Case Script Created
    Script processing completed
