TEST.VALUE_USER_CODE:aecp_main.eAECP_EncodeMessage.pDriverData
<<aecp_main.eAECP_EncodeMessage.pDriverData>> = &testdriver;
<<aecp_main.eAECP_EncodeMessage.pszMessage>> = &szTxBuffer;
TEST.END_VALUE_USER_CODE:
TEST.VALUE_USER_CODE:aecp_main.eAECP_EncodeMessage.uwMessageID
<<aecp_main.eAECP_EncodeMessage.uwMessageID>> = (0xCD);
TEST.END_VALUE_USER_CODE:
