COMMAND: C:\VCAST\6.4v\clicast.exe -e UTILITIES_INTEGRATION environment script create C:/Users/t0028919/Desktop/VCAST/C1515/build/3560911922/UTILITIES_INTEGRATION.env
DIRECTORY: C:/Users/t0028919/Desktop/VCAST/C1515/build/3560911922
TIME: 2018-07-25 10:14:25
TEST SUITE: Source/Windows/Green_Hills_PPC_Bare_Board_Simulator/REGRESSION
-----------------------------Process Environment------------------------------
---------------------------End Process Environment----------------------------
VectorCAST   Copyright (C) 1993 - 2018
**Version 6.4v (08/01/17)
    Processing options file C:\Users\t0028919\Desktop\VCAST\C1515\build\3560911922\CCAST_.CFG
    Opening Environment
    Opening Parameter/Global File
    Opening Types File
    Environment is Open
    Building Script File
    Script Building Completed
COMMAND: C:\VCAST\6.4v\clicast.exe -e UTILITIES_INTEGRATION test script create C:/Users/t0028919/Desktop/VCAST/C1515/build/3560911922/UTILITIES_INTEGRATION.tst
DIRECTORY: C:/Users/t0028919/Desktop/VCAST/C1515/build/3560911922
TIME: 2018-07-25 10:14:26
TEST SUITE: Source/Windows/Green_Hills_PPC_Bare_Board_Simulator/REGRESSION
-----------------------------Process Environment------------------------------
---------------------------End Process Environment----------------------------
VectorCAST   Copyright (C) 1993 - 2018
**Version 6.4v (08/01/17)
    Processing options file C:\Users\t0028919\Desktop\VCAST\C1515\build\3560911922\CCAST_.CFG
    Opening Environment
    Opening Parameter/Global File
    Opening Types File
    Environment is Open
    Creating Script File
    Building Test Case Script
    Test Case Script Created
    Script processing completed
