N07337_crc_ccitt@buffer 22 0 BANK0
__S0 1F9A 0 ABS
__S1 7D 0 ABS
__S2 0 0 ABS
__Hintentry 0 0 CODE
__Lintentry 0 0 CODE
_main 73D 0 CODE
?_N07337_crc_ccitt 20 0 BANK0
btemp 7E 0 ABS
_exit 0 0 CODE
start 0 0 CODE
reset_vec 0 0 CODE
wtemp0 7E 0 ABS
_N07337_crc_ccitt_table 1D12 0 STRCODE
__Hconfig 0 0 CONFIG
__Lconfig 0 0 CONFIG
_table 1F12 0 STRCODE
__Hram 0 0 ABS
__Lram 0 0 ABS
?_main 70 0 COMMON
__Hfunctab 0 0 CODE
__Lfunctab 0 0 CODE
__Hcommon 0 0 ABS
__Lcommon 0 0 ABS
__Heeprom_data 0 0 EEDATA
__Leeprom_data 0 0 EEDATA
__size_of_N07337_crc_ccitt 0 0 ABS
__Habs1 0 0 ABS
__Labs1 0 0 ABS
__Hsfr0 0 0 ABS
__Lsfr0 0 0 ABS
__Hsfr1 0 0 ABS
__Lsfr1 0 0 ABS
__Hsfr2 0 0 ABS
__Lsfr2 0 0 ABS
__Hsfr3 0 0 ABS
__Lsfr3 0 0 ABS
??_N07337_crc_ccitt_byte 73 0 COMMON
_toms_variable 7C 0 COMMON
__Hcode 0 0 ABS
__Lcode 0 0 ABS
??_main 7B 0 COMMON
__HcstackBANK0 0 0 ABS
__LcstackBANK0 0 0 ABS
__pcstackBANK0 20 0 BANK0
__Hinit 0 0 CODE
__Linit 0 0 CODE
__end_of_main 76B 0 CODE
__Htext 0 0 ABS
__Ltext 0 0 ABS
end_of_initialization 739 0 CODE
?_N07337_crc_ccitt_byte 70 0 COMMON
__Hstrings 0 0 ABS
__Lstrings 0 0 ABS
__Hbank0 0 0 ABS
__Lbank0 0 0 ABS
__Hbank1 0 0 ABS
__Lbank1 0 0 ABS
__Hbank2 0 0 ABS
__Lbank2 0 0 ABS
__Hbank3 0 0 ABS
__Lbank3 0 0 ABS
__Hpowerup 0 0 CODE
__Lpowerup 0 0 CODE
__Hclrtext 0 0 ABS
__Lclrtext 0 0 ABS
__size_of_N07337_crc_ccitt_byte 0 0 ABS
main@Len 2E 0 BANK0
main@crc 2C 0 BANK0
__Hidloc 0 0 IDLOC
__Lidloc 0 0 IDLOC
__Hcinit 0 0 ABS
__Lcinit 0 0 ABS
__size_of_main 0 0 ABS
__end_of_N07337_crc_ccitt_byte 7A6 0 CODE
??_N07337_crc_ccitt 28 0 BANK0
__Hstringtext 0 0 ABS
__Lstringtext 0 0 ABS
__pstringtext 1D00 0 STRCODE
__HbssCOMMON 0 0 ABS
__LbssCOMMON 0 0 ABS
__pbssCOMMON 7C 0 COMMON
__ptext97 7A6 0 CODE
N07337_crc_ccitt@crc 20 0 BANK0
N07337_crc_ccitt@len 24 0 BANK0
__Hend_init 3 0 CODE
__Lend_init 0 0 CODE
__ptext98 76B 0 CODE
__ptext99 0 0 CODE
__Hreset_vec 0 0 CODE
__Lreset_vec 0 0 CODE
N07337_crc_ccitt_byte@crc 70 0 COMMON
intlevel0 0 0 CODE
intlevel1 0 0 CODE
_N07337_crc_ccitt 7A6 0 CODE
intlevel2 0 0 CODE
intlevel3 0 0 CODE
intlevel4 0 0 CODE
intlevel5 0 0 CODE
__HcstackCOMMON 0 0 ABS
__LcstackCOMMON 0 0 ABS
__pcstackCOMMON 70 0 COMMON
start_initialization 738 0 CODE
__Hmaintext 0 0 ABS
__Lmaintext 0 0 ABS
__pmaintext 73D 0 CODE
__end_of_N07337_crc_ccitt 800 0 CODE
N07337_crc_ccitt_byte@c 72 0 COMMON
_N07337_crc_ccitt_byte 76B 0 CODE
%segments
reset_vec 0 5 CODE 0
cstackCOMMON 70 7C COMMON 70
cstackBANK0 20 2E BANK0 20
stringtext 3A00 3F33 STRCODE 3A00
text97 F4C FFF CODE F4C
text98 ED6 F4B CODE ED6
maintext E7A ED5 CODE E7A
cinit E70 E79 CODE E70
%locals
startup.obj
startup.as
65 0 0 CODE
CRC_CCITT16.obj
H:\Tom\Various Documents\pic_projects\CRC_CCITT16\main.c
33 1D12 0 STRCODE
67 1F12 0 STRCODE
CRC_CCITT16.as
1001 738 0 CODE
1008 739 0 CODE
1009 73A 0 CODE
H:\Tom\Various Documents\pic_projects\CRC_CCITT16\main.c
100 73D 0 CODE
101 743 0 CODE
102 745 0 CODE
103 768 0 CODE
141 7A6 0 CODE
143 7A7 0 CODE
141 7CF 0 CODE
147 7FF 0 CODE
120 76B 0 CODE
122 7A4 0 CODE
123 7A5 0 CODE
